224168;223131;dup
224187;224913;dup
224200;226009;dup
224209;254454;dup
224215;224981;dup
215065;216996;dup
224252;224254;dup
224252;224110;dup
224254;224110;dup
224270;226906;dup
224278;230807;dup
224278;234051;dup
224280;224286;dup
224290;215940;dup
224295;256910;dup
224308;224044;dup
224314;227067;dup
224314;228401;dup
224314;229882;dup
224314;231508;dup
224314;235759;dup
224314;235833;dup
224314;238435;dup
224314;238522;dup
224314;238557;dup
224314;238642;dup
224314;238873;dup
224314;239039;dup
224314;241746;dup
224314;242680;dup
224314;242965;dup
224314;242973;dup
224314;243073;dup
224314;243267;dup
224314;244360;dup
224314;245784;dup
224314;246301;dup
224314;247119;dup
224314;247681;dup
224314;248836;dup
224314;249059;dup
224314;250521;dup
224314;256052;dup
224314;218311;dup
224314;214092;dup
224314;218734;dup
224314;218812;dup
224314;222757;dup
224314;223448;dup
224317;224366;dup
224317;224628;dup
224317;225041;dup
215073;214801;dup
224354;218436;dup
224355;224405;dup
224355;224420;dup
224360;226513;dup
224360;231215;dup
224366;224628;dup
224366;225041;dup
215078;234817;dup
215078;241139;dup
224376;224115;dup
224383;230945;dup
224384;224846;dup
224388;224637;dup
224394;224396;dup
224404;222117;dup
224405;224420;dup
224413;245269;dup
224418;228647;dup
224418;233624;dup
224418;238341;dup
224418;222272;dup
224418;223088;dup
224418;223119;dup
224418;223311;dup
224419;225307;dup
224423;224521;dup
224425;222472;dup
224436;246870;dup
224439;257242;dup
224453;224097;dup
224458;224645;dup
224471;223822;dup
224472;232211;dup
224472;232484;dup
224472;232800;dup
224472;236366;dup
224472;240125;dup
224472;250189;dup
224475;224631;dup
224477;224771;dup
224482;225202;dup
224484;236712;dup
224484;237349;dup
224484;243207;dup
224484;243620;dup
224503;223338;dup
224503;223735;dup
224505;224507;dup
224513;224515;dup
224535;226440;dup
224542;222480;dup
224561;234802;dup
224561;235579;dup
224579;225149;dup
224594;234290;dup
224594;222247;dup
224609;227873;dup
224611;234543;dup
224615;241637;dup
224615;244935;dup
224626;220934;dup
224628;225041;dup
224632;252584;dup
224633;238025;dup
224633;221333;dup
224638;232061;dup
224648;227377;dup
224672;224134;dup
224676;220646;dup
224680;248379;dup
224708;246956;dup
224708;220577;dup
224721;219540;dup
224721;219541;dup
224721;219542;dup
224721;219543;dup
224732;237439;dup
224732;219530;dup
224739;224741;dup
224774;224908;dup
224774;225537;dup
215119;221532;dup
224811;226903;dup
224821;237002;dup
224828;225060;dup
224840;231876;dup
224842;225076;dup
224842;225578;dup
224842;225673;dup
224843;227770;dup
224880;217959;dup
224882;220356;dup
224908;225537;dup
224915;225029;dup
224915;225410;dup
224915;223756;dup
224932;229611;dup
224941;227090;dup
224945;223690;dup
224983;225186;dup
224983;226407;dup
224994;225113;dup
224997;225696;dup
224997;222446;dup
225004;225123;dup
225004;216028;dup
225004;222509;dup
225004;222812;dup
225004;224006;dup
225018;225147;dup
225022;230231;dup
225029;225410;dup
225029;223756;dup
225044;225219;dup
225047;228854;dup
225054;225762;dup
225054;227615;dup
225054;220273;dup
225055;229731;dup
225055;230373;dup
225055;230382;dup
225055;241730;dup
225055;242520;dup
225055;247979;dup
225055;224145;dup
225057;225072;dup
225058;220045;dup
225062;228217;dup
225076;225578;dup
225076;225673;dup
225079;219391;dup
225081;233095;dup
225081;237476;dup
225081;239366;dup
225081;249149;dup
225090;244196;dup
225091;250501;dup
225098;226325;dup
225121;235861;dup
225123;216028;dup
225123;222509;dup
225123;222812;dup
225123;224006;dup
225125;233171;dup
225125;250077;dup
225142;225990;dup
225146;225306;dup
225148;227200;dup
225150;228052;dup
225150;221321;dup
225169;225184;dup
225169;225337;dup
225169;218304;dup
225169;219166;dup
215161;232733;dup
225181;225826;dup
225181;229783;dup
225181;230010;dup
225184;225337;dup
225184;218304;dup
225184;219166;dup
225185;220551;dup
225186;226407;dup
225198;228053;dup
225198;228629;dup
225207;229658;dup
225228;221434;dup
225242;227492;dup
225250;225251;dup
225255;215568;dup
225255;218192;dup
225272;217292;dup
225289;233423;dup
225295;225311;dup
225300;225301;dup
225313;226676;dup
225315;227558;dup
225315;233298;dup
225315;233478;dup
225315;233488;dup
225315;233732;dup
225315;233733;dup
225315;234760;dup
225315;234863;dup
225315;234865;dup
225315;234922;dup
225315;234939;dup
225315;235126;dup
225315;235134;dup
225315;235234;dup
225315;235715;dup
225315;235871;dup
225315;235873;dup
225315;236372;dup
225315;236513;dup
225315;236970;dup
225317;222512;dup
225317;223743;dup
215175;214571;dup
225324;235140;dup
225324;235217;dup
225334;239126;dup
225335;223100;dup
225337;218304;dup
225337;219166;dup
225358;250748;dup
225360;227944;dup
225360;228353;dup
225365;227674;dup
225365;239711;dup
225369;235932;dup
225369;236523;dup
225373;227897;dup
225399;229318;dup
225410;223756;dup
215187;215189;dup
215188;215989;dup
225454;228986;dup
215193;222188;dup
225512;216844;dup
225517;225577;dup
225522;216064;dup
225534;229583;dup
225535;226233;dup
225547;232450;dup
225550;223782;dup
215200;252330;dup
225578;225673;dup
215201;215202;dup
215201;215203;dup
215201;215206;dup
225590;229544;dup
215202;215203;dup
215202;215206;dup
215203;215206;dup
225621;227635;dup
225621;227636;dup
225644;228987;dup
225649;216609;dup
225650;217928;dup
225661;222565;dup
215210;247217;dup
225683;226998;dup
225696;222446;dup
225704;241567;dup
225706;238259;dup
225739;232454;dup
225739;221970;dup
215217;215263;dup
225751;242046;dup
225751;221181;dup
225754;226827;dup
225754;231264;dup
225754;232181;dup
225754;223330;dup
225756;220905;dup
225758;218532;dup
225762;227615;dup
225762;220273;dup
225766;226318;dup
225766;222350;dup
225769;227779;dup
225769;228992;dup
225769;229150;dup
225769;231881;dup
225769;239248;dup
225769;246394;dup
225778;222986;dup
225826;229783;dup
225826;230010;dup
225829;226164;dup
225829;216066;dup
225832;223762;dup
225836;227032;dup
225846;225856;dup
215229;253170;dup
225867;225949;dup
225867;230446;dup
215234;234403;dup
215234;242677;dup
215234;243887;dup
225933;242181;dup
225949;230446;dup
225952;219855;dup
225961;227508;dup
214166;254527;dup
226004;226671;dup
226005;219124;dup
226025;229459;dup
226029;226832;dup
226029;226989;dup
226029;227193;dup
226029;231682;dup
226032;229742;dup
226035;227632;dup
226035;231713;dup
226036;227703;dup
226052;229405;dup
226052;233845;dup
226061;222688;dup
226079;223032;dup
226085;227216;dup
226092;226543;dup
226092;226971;dup
226092;216050;dup
226092;236595;dup
215252;215791;dup
215252;252629;dup
226111;226197;dup
226111;230220;dup
226111;230227;dup
226114;221087;dup
226128;226300;dup
226136;223416;dup
226140;226293;dup
226145;220361;dup
226163;251475;dup
226163;252278;dup
226163;252465;dup
226164;216066;dup
226165;240536;dup
226168;232079;dup
226179;247377;dup
215262;244255;dup
226197;230220;dup
226197;230227;dup
226206;233240;dup
226206;237530;dup
226209;226604;dup
226226;240103;dup
226247;226248;dup
215268;217137;dup
226256;226294;dup
226274;226391;dup
226277;227010;dup
226283;226720;dup
226307;245592;dup
215274;215628;dup
226318;222350;dup
226363;224092;dup
226368;241426;dup
226404;231601;dup
226404;237485;dup
226404;241440;dup
226409;227291;dup
226431;219911;dup
226457;217055;dup
226463;243897;dup
226464;232664;dup
226479;218703;dup
226510;228637;dup
226513;231215;dup
226536;227906;dup
226543;226971;dup
226543;216050;dup
226543;236595;dup
226548;226970;dup
226577;231484;dup
226589;218482;dup
226608;232010;dup
226623;239396;dup
226623;219332;dup
215304;215604;dup
215304;223167;dup
226632;235022;dup
226632;222660;dup
226655;228687;dup
215308;215322;dup
226666;228481;dup
226666;223529;dup
226666;224138;dup
226686;222549;dup
215311;215317;dup
215311;216077;dup
226702;228875;dup
226719;214112;dup
226719;222302;dup
226726;231276;dup
226748;227488;dup
226748;228121;dup
226750;218515;dup
215317;216077;dup
226790;223132;dup
226791;223116;dup
226803;231114;dup
226810;226984;dup
226823;227609;dup
226823;227719;dup
226827;231264;dup
226827;232181;dup
226827;223330;dup
226829;223867;dup
226830;226831;dup
226830;222582;dup
226831;222582;dup
226832;226989;dup
226832;227193;dup
226832;231682;dup
226841;237332;dup
226842;232951;dup
226851;247900;dup
226863;226873;dup
226871;227062;dup
214175;232623;dup
226896;227245;dup
226896;227586;dup
226896;228119;dup
226896;231474;dup
226947;228413;dup
226959;233272;dup
226959;216147;dup
226959;238594;dup
226959;243198;dup
226959;243208;dup
226959;243556;dup
226959;244545;dup
226959;257142;dup
226959;258254;dup
226963;229191;dup
226971;216050;dup
226971;236595;dup
226976;215557;dup
226980;217115;dup
226989;227193;dup
226989;231682;dup
226996;227003;dup
226996;227006;dup
227003;227006;dup
227011;229170;dup
227012;238319;dup
227020;223319;dup
227026;222129;dup
227037;235201;dup
227063;220236;dup
215349;215671;dup
227067;228401;dup
227067;229882;dup
227067;231508;dup
227067;235759;dup
227067;235833;dup
227067;238435;dup
227067;238522;dup
227067;238557;dup
227067;238642;dup
227067;238873;dup
227067;239039;dup
227067;241746;dup
227067;242680;dup
227067;242965;dup
227067;242973;dup
227067;243073;dup
227067;243267;dup
227067;244360;dup
227067;245784;dup
227067;246301;dup
227067;247119;dup
227067;247681;dup
227067;248836;dup
227067;249059;dup
227067;250521;dup
227067;256052;dup
227067;218311;dup
227067;214092;dup
227067;218734;dup
227067;218812;dup
227067;222757;dup
227067;223448;dup
227068;227070;dup
227075;227097;dup
227091;227256;dup
227113;239614;dup
227116;218913;dup
227160;216918;dup
215360;214085;dup
227193;231682;dup
227213;228489;dup
227220;231572;dup
227225;258395;dup
227225;221389;dup
227235;227239;dup
227245;227586;dup
227245;228119;dup
227245;231474;dup
227251;227453;dup
227251;227962;dup
227313;231404;dup
227315;228698;dup
227316;227870;dup
227324;227383;dup
227325;220057;dup
227325;221092;dup
227325;221884;dup
227325;214841;dup
227325;222692;dup
227363;237257;dup
227398;217205;dup
214180;241179;dup
227451;255562;dup
227453;227962;dup
227468;231810;dup
227469;219048;dup
227474;227475;dup
227474;227476;dup
227475;227476;dup
227488;228121;dup
227496;235722;dup
227503;227512;dup
227503;227943;dup
227511;227908;dup
227512;227943;dup
227516;229944;dup
227524;224004;dup
227547;228028;dup
227558;233298;dup
227558;233478;dup
227558;233488;dup
227558;233732;dup
227558;233733;dup
227558;234760;dup
227558;234863;dup
227558;234865;dup
227558;234922;dup
227558;234939;dup
227558;235126;dup
227558;235134;dup
227558;235234;dup
227558;235715;dup
227558;235871;dup
227558;235873;dup
227558;236372;dup
227558;236513;dup
227558;236970;dup
227565;227622;dup
227573;227611;dup
215402;234649;dup
227574;239159;dup
227584;222309;dup
227586;228119;dup
227586;231474;dup
227603;227682;dup
227609;227719;dup
227612;230176;dup
227615;220273;dup
227623;230286;dup
227632;231713;dup
227633;236762;dup
227635;227636;dup
227639;246150;dup
227661;221856;dup
227674;239711;dup
227675;232350;dup
227676;254603;dup
227688;235909;dup
227691;223341;dup
227691;223931;dup
227692;223991;dup
227707;240993;dup
227712;227958;dup
227714;218815;dup
227717;229678;dup
227717;230240;dup
227717;235905;dup
227717;236148;dup
227717;236882;dup
227718;229406;dup
227718;222494;dup
227723;221928;dup
227734;227747;dup
215419;217382;dup
227760;240698;dup
227773;216305;dup
227779;228992;dup
227779;229150;dup
227779;231881;dup
227779;239248;dup
227779;246394;dup
227789;234700;dup
227790;228281;dup
227835;228084;dup
227842;227850;dup
227854;228362;dup
227868;220122;dup
227871;228414;dup
227914;220350;dup
215436;215437;dup
227934;228675;dup
227944;228353;dup
228012;230018;dup
228019;231899;dup
215448;215904;dup
228052;221321;dup
228053;228629;dup
215450;215601;dup
228060;228133;dup
228060;228194;dup
228109;242885;dup
228114;230044;dup
228114;231364;dup
228114;231373;dup
228114;231374;dup
228114;231526;dup
228119;231474;dup
228133;228194;dup
228140;228318;dup
228140;221105;dup
228147;228583;dup
228154;228170;dup
228159;228161;dup
228159;228374;dup
228159;228441;dup
228160;228242;dup
228161;228374;dup
228161;228441;dup
228165;228250;dup
228178;229388;dup
228182;222937;dup
228204;228360;dup
228209;229034;dup
228212;228969;dup
228218;222639;dup
228226;231962;dup
228228;229686;dup
228228;223655;dup
215469;215470;dup
228240;229018;dup
228240;230345;dup
228264;228888;dup
228267;217899;dup
228276;224100;dup
228297;223141;dup
215475;215478;dup
228314;221835;dup
228318;221105;dup
228323;228346;dup
228328;216469;dup
228330;228331;dup
228359;244652;dup
228366;228860;dup
228371;228451;dup
228374;228441;dup
228384;228417;dup
228401;229882;dup
228401;231508;dup
228401;235759;dup
228401;235833;dup
228401;238435;dup
228401;238522;dup
228401;238557;dup
228401;238642;dup
228401;238873;dup
228401;239039;dup
228401;241746;dup
228401;242680;dup
228401;242965;dup
228401;242973;dup
228401;243073;dup
228401;243267;dup
228401;244360;dup
228401;245784;dup
228401;246301;dup
228401;247119;dup
228401;247681;dup
228401;248836;dup
228401;249059;dup
228401;250521;dup
228401;256052;dup
228401;218311;dup
228401;214092;dup
228401;218734;dup
228401;218812;dup
228401;222757;dup
228401;223448;dup
228405;228717;dup
228405;229713;dup
228405;230294;dup
228445;228971;dup
228445;231254;dup
228450;232596;dup
228474;233105;dup
228474;218055;dup
228479;229123;dup
228479;234633;dup
228481;223529;dup
228481;224138;dup
228495;239678;dup
228495;241025;dup
228495;247042;dup
228508;229404;dup
228508;229805;dup
228508;224096;dup
228509;233567;dup
228517;229605;dup
228517;232065;dup
228518;233559;dup
215497;234396;dup
228540;223056;dup
228542;232516;dup
228542;233604;dup
215500;230086;dup
228564;229198;dup
228581;231533;dup
228604;228612;dup
228606;228613;dup
228606;228622;dup
228609;228642;dup
228613;228622;dup
228647;233624;dup
228647;238341;dup
228647;222272;dup
228647;223088;dup
228647;223119;dup
228647;223311;dup
228651;229615;dup
228686;228866;dup
228696;231559;dup
228705;228868;dup
215516;218629;dup
228717;229713;dup
228717;230294;dup
228721;234509;dup
228721;241223;dup
215518;218751;dup
228743;243219;dup
228744;229617;dup
228744;231249;dup
228744;233225;dup
228747;232428;dup
228750;242901;dup
228783;247111;dup
228786;229754;dup
228794;229378;dup
228795;216032;dup
228795;236368;dup
228813;228814;dup
228816;228817;dup
215530;241476;dup
215530;248919;dup
215530;257425;dup
215531;215582;dup
228870;218575;dup
228870;219209;dup
228870;221363;dup
228903;229370;dup
228903;229835;dup
228903;230806;dup
228903;232212;dup
228923;228989;dup
228924;248068;dup
228924;248415;dup
228946;229451;dup
228970;223911;dup
228971;231254;dup
228992;229150;dup
228992;231881;dup
228992;239248;dup
228992;246394;dup
215545;244731;dup
229006;229007;dup
229006;229761;dup
229007;229761;dup
229018;230345;dup
229021;229022;dup
229026;229027;dup
229026;229053;dup
229026;229900;dup
229026;231888;dup
229027;229053;dup
229027;229900;dup
229027;231888;dup
229029;229031;dup
215549;238443;dup
229051;229056;dup
229051;229292;dup
229051;229450;dup
229053;229900;dup
229053;231888;dup
229056;229292;dup
229056;229450;dup
229069;232662;dup
229069;233362;dup
229069;233602;dup
229069;234550;dup
229073;234116;dup
229073;240712;dup
229073;244513;dup
229073;246488;dup
229073;247507;dup
229078;232156;dup
229087;253861;dup
229100;229516;dup
229100;231063;dup
229100;234410;dup
229123;234633;dup
229140;251908;dup
229150;231881;dup
229150;239248;dup
229150;246394;dup
229164;233282;dup
229203;229246;dup
229224;252038;dup
229231;229234;dup
215568;218192;dup
229239;231256;dup
229240;229290;dup
229240;229413;dup
229240;229415;dup
229240;229518;dup
229243;229247;dup
229245;237830;dup
229245;244340;dup
229245;255060;dup
229264;251256;dup
215572;215924;dup
229290;229413;dup
229290;229415;dup
229290;229518;dup
229292;229450;dup
229296;247677;dup
229305;229665;dup
229314;241001;dup
229346;229475;dup
229347;231250;dup
229348;229403;dup
229352;229418;dup
229367;229387;dup
229369;229458;dup
229370;229835;dup
229370;230806;dup
229370;232212;dup
229371;219488;dup
229377;229443;dup
229377;229466;dup
229381;218157;dup
229396;256377;dup
215586;223519;dup
229404;229805;dup
229404;224096;dup
229405;233845;dup
229406;222494;dup
229413;229415;dup
229413;229518;dup
229415;229518;dup
229417;234213;dup
229417;236531;dup
229426;224079;dup
229430;229435;dup
229434;230281;dup
215590;247914;dup
215590;223446;dup
229443;229466;dup
229473;229712;dup
229474;234968;dup
229480;229909;dup
229481;217943;dup
229500;217330;dup
215597;215730;dup
215597;244099;dup
229516;231063;dup
229516;234410;dup
229551;229562;dup
229559;236470;dup
229582;249748;dup
215604;223167;dup
229597;244758;dup
229605;232065;dup
229612;229993;dup
229617;231249;dup
229617;233225;dup
229633;259606;dup
229637;234611;dup
215610;216653;dup
215610;218518;dup
229645;236593;dup
229654;229943;dup
215613;219490;dup
229678;230240;dup
229678;235905;dup
229678;236148;dup
229678;236882;dup
229686;223655;dup
229688;230190;dup
229690;229721;dup
229698;235031;dup
229698;246016;dup
229713;230294;dup
229718;233128;dup
229731;230373;dup
229731;230382;dup
229731;241730;dup
229731;242520;dup
229731;247979;dup
229731;224145;dup
229735;231306;dup
229763;249980;dup
229783;230010;dup
229796;229994;dup
229805;224096;dup
229815;247252;dup
229817;250693;dup
229829;242200;dup
229829;248446;dup
229832;231710;dup
229835;230806;dup
229835;232212;dup
229851;238512;dup
229851;239415;dup
229851;241492;dup
229851;243268;dup
215632;214123;dup
229877;232384;dup
229882;231508;dup
229882;235759;dup
229882;235833;dup
229882;238435;dup
229882;238522;dup
229882;238557;dup
229882;238642;dup
229882;238873;dup
229882;239039;dup
229882;241746;dup
229882;242680;dup
229882;242965;dup
229882;242973;dup
229882;243073;dup
229882;243267;dup
229882;244360;dup
229882;245784;dup
229882;246301;dup
229882;247119;dup
229882;247681;dup
229882;248836;dup
229882;249059;dup
229882;250521;dup
229882;256052;dup
229882;218311;dup
229882;214092;dup
229882;218734;dup
229882;218812;dup
229882;222757;dup
229882;223448;dup
229893;220929;dup
229900;231888;dup
229910;236686;dup
229916;230045;dup
229923;221972;dup
229931;219041;dup
229938;230062;dup
229938;231443;dup
229938;231697;dup
229938;231824;dup
215650;222197;dup
230034;230938;dup
230037;232322;dup
230042;231371;dup
230044;231364;dup
230044;231373;dup
230044;231374;dup
230044;231526;dup
230050;233636;dup
230050;240266;dup
230050;251487;dup
230050;256707;dup
230062;231443;dup
230062;231697;dup
230062;231824;dup
230073;230419;dup
230097;230215;dup
230098;230828;dup
230127;231262;dup
230139;230150;dup
230146;232480;dup
215665;216093;dup
230202;247021;dup
230219;239483;dup
230220;230227;dup
230222;230223;dup
230233;232214;dup
230233;236921;dup
230234;230242;dup
230238;233971;dup
230240;235905;dup
230240;236148;dup
230240;236882;dup
230245;237071;dup
230245;238211;dup
230278;232329;dup
230292;231049;dup
230303;245259;dup
230322;252190;dup
230331;234556;dup
230331;257500;dup
230334;219165;dup
230340;233350;dup
230340;221361;dup
230362;230986;dup
230363;234510;dup
230363;222403;dup
230373;230382;dup
230373;241730;dup
230373;242520;dup
230373;247979;dup
230373;224145;dup
230379;230386;dup
230382;241730;dup
230382;242520;dup
230382;247979;dup
230382;224145;dup
230384;238200;dup
230403;234458;dup
230403;236468;dup
230403;221106;dup
230408;238080;dup
230421;231602;dup
230435;231388;dup
215690;214477;dup
230449;231886;dup
230449;244407;dup
230449;246609;dup
230454;230471;dup
230461;232099;dup
230466;232174;dup
230466;216692;dup
230470;230940;dup
230490;230491;dup
230597;257627;dup
230673;230674;dup
230688;230689;dup
230695;230712;dup
230724;230743;dup
230728;230729;dup
230806;232212;dup
230807;234051;dup
230818;235172;dup
230822;231172;dup
230822;234005;dup
215730;244099;dup
230865;223064;dup
230870;240546;dup
230874;221046;dup
230878;230910;dup
230899;232937;dup
230924;232421;dup
214215;253989;dup
230978;232053;dup
230990;233388;dup
214216;214270;dup
231042;231044;dup
231050;231754;dup
231050;231781;dup
231063;234410;dup
231075;250778;dup
231075;251317;dup
231094;258798;dup
231110;234799;dup
231153;233742;dup
231158;218075;dup
231172;234005;dup
231174;232550;dup
231178;231979;dup
231204;217284;dup
231213;231636;dup
231219;218597;dup
231219;259690;dup
231219;259691;dup
231220;233619;dup
231220;236024;dup
231220;238872;dup
231220;218881;dup
231222;231227;dup
231238;231711;dup
231241;231251;dup
231241;231252;dup
231249;233225;dup
231251;231252;dup
231257;218098;dup
231260;252220;dup
231264;232181;dup
231264;223330;dup
231271;231315;dup
231271;231909;dup
231272;243564;dup
231315;231909;dup
231352;232029;dup
231352;232080;dup
231364;231373;dup
231364;231374;dup
231364;231526;dup
231366;219813;dup
231372;219214;dup
231373;231374;dup
231373;231526;dup
231374;231526;dup
231390;232097;dup
231398;235812;dup
215791;252629;dup
231443;231697;dup
231443;231824;dup
231448;245075;dup
231448;222945;dup
231459;232505;dup
231480;231494;dup
231500;233598;dup
231508;235759;dup
231508;235833;dup
231508;238435;dup
231508;238522;dup
231508;238557;dup
231508;238642;dup
231508;238873;dup
231508;239039;dup
231508;241746;dup
231508;242680;dup
231508;242965;dup
231508;242973;dup
231508;243073;dup
231508;243267;dup
231508;244360;dup
231508;245784;dup
231508;246301;dup
231508;247119;dup
231508;247681;dup
231508;248836;dup
231508;249059;dup
231508;250521;dup
231508;256052;dup
231508;218311;dup
231508;214092;dup
231508;218734;dup
231508;218812;dup
231508;222757;dup
231508;223448;dup
231519;231745;dup
215802;217670;dup
231565;233242;dup
231570;237250;dup
231570;248597;dup
231570;248598;dup
231570;248609;dup
215804;234126;dup
215804;241465;dup
215804;214110;dup
231574;234576;dup
231601;237485;dup
231601;241440;dup
231627;234405;dup
231642;232791;dup
231653;235211;dup
231661;237573;dup
231664;237226;dup
231697;231824;dup
231728;233403;dup
231742;234054;dup
231754;231781;dup
231776;235763;dup
231776;243706;dup
231800;242613;dup
231800;244929;dup
231808;258376;dup
215828;216192;dup
231829;232440;dup
231829;240277;dup
231829;248533;dup
231850;221923;dup
231861;235460;dup
231881;239248;dup
231881;246394;dup
231886;244407;dup
231886;246609;dup
231887;232370;dup
231891;231917;dup
231928;242635;dup
231931;234070;dup
231951;232103;dup
231951;232183;dup
231951;232199;dup
231951;232327;dup
231951;232448;dup
231951;232590;dup
231951;232834;dup
231951;232854;dup
231954;243614;dup
231968;247906;dup
231974;232101;dup
231986;235403;dup
231993;233736;dup
231993;235807;dup
232019;232020;dup
232029;232080;dup
232037;232045;dup
232054;232768;dup
232054;233011;dup
232083;236085;dup
232094;233449;dup
232094;239427;dup
232094;245458;dup
232103;232183;dup
232103;232199;dup
232103;232327;dup
232103;232448;dup
232103;232590;dup
232103;232834;dup
232103;232854;dup
232107;258128;dup
232118;232340;dup
232124;233140;dup
232124;233195;dup
232162;232167;dup
232165;233690;dup
232174;216692;dup
232181;223330;dup
232183;232199;dup
232183;232327;dup
232183;232448;dup
232183;232590;dup
232183;232834;dup
232183;232854;dup
232199;232327;dup
232199;232448;dup
232199;232590;dup
232199;232834;dup
232199;232854;dup
232202;248972;dup
232209;232935;dup
232211;232484;dup
232211;232800;dup
232211;236366;dup
232211;240125;dup
232211;250189;dup
232214;236921;dup
215871;218825;dup
232304;239424;dup
232309;233508;dup
232327;232448;dup
232327;232590;dup
232327;232834;dup
232327;232854;dup
232336;234420;dup
232346;233054;dup
232356;243621;dup
232390;232703;dup
232392;232393;dup
232396;232702;dup
232413;232578;dup
232413;232794;dup
232413;232923;dup
232413;233606;dup
232413;233613;dup
232413;234577;dup
232413;234859;dup
232413;235278;dup
232440;240277;dup
232440;248533;dup
232448;232590;dup
232448;232834;dup
232448;232854;dup
232454;221970;dup
232461;232885;dup
232461;234297;dup
232461;234600;dup
232461;235830;dup
232478;255931;dup
232478;257347;dup
215896;239550;dup
215896;239878;dup
232484;232800;dup
232484;236366;dup
232484;240125;dup
232484;250189;dup
232485;235008;dup
232485;240472;dup
232516;233604;dup
232533;234443;dup
215902;216482;dup
232546;236418;dup
232567;232797;dup
232568;238478;dup
232578;232794;dup
232578;232923;dup
232578;233606;dup
232578;233613;dup
232578;234577;dup
232578;234859;dup
232578;235278;dup
232587;248847;dup
232590;232834;dup
232590;232854;dup
232592;232987;dup
232600;257084;dup
232601;232795;dup
232615;241023;dup
232630;259382;dup
232630;259538;dup
232632;235286;dup
232643;236726;dup
232644;232718;dup
232662;233362;dup
232662;233602;dup
232662;234550;dup
232666;233297;dup
232666;237792;dup
232666;238527;dup
232666;239691;dup
232666;239779;dup
232666;239780;dup
232666;240364;dup
232707;232858;dup
232712;216754;dup
232732;232784;dup
232739;236804;dup
215923;216877;dup
232741;233010;dup
232746;233073;dup
232746;233353;dup
232746;233750;dup
232757;234084;dup
232760;221347;dup
232767;218936;dup
232768;233011;dup
232775;232778;dup
232794;232923;dup
232794;233606;dup
232794;233613;dup
232794;234577;dup
232794;234859;dup
232794;235278;dup
232800;236366;dup
232800;240125;dup
232800;250189;dup
232802;232806;dup
232805;233464;dup
232805;233787;dup
232810;239609;dup
232822;232847;dup
232822;232991;dup
232823;233232;dup
232823;233345;dup
232823;234349;dup
232832;233443;dup
232834;232854;dup
232840;233444;dup
232840;237077;dup
232840;241735;dup
232847;232991;dup
232857;233355;dup
232885;234297;dup
232885;234600;dup
232885;235830;dup
232923;233606;dup
232923;233613;dup
232923;234577;dup
232923;234859;dup
232923;235278;dup
233004;237625;dup
233042;233083;dup
233051;235016;dup
214236;239055;dup
233059;233199;dup
233062;233774;dup
233073;233353;dup
233073;233750;dup
233095;237476;dup
233095;239366;dup
233095;249149;dup
233098;221017;dup
233105;218055;dup
233127;222962;dup
233129;240794;dup
233140;233195;dup
233171;250077;dup
233179;234058;dup
233184;234036;dup
233201;233357;dup
215969;216443;dup
233214;236631;dup
233218;234211;dup
233218;237674;dup
233229;239449;dup
233232;233345;dup
233232;234349;dup
233240;237530;dup
215973;215990;dup
233247;240680;dup
233259;235464;dup
233259;237942;dup
233269;240427;dup
233269;240603;dup
233269;250197;dup
233269;253863;dup
233272;216147;dup
233272;238594;dup
233272;243198;dup
233272;243208;dup
233272;243556;dup
233272;244545;dup
233272;257142;dup
233272;258254;dup
233297;237792;dup
233297;238527;dup
233297;239691;dup
233297;239779;dup
233297;239780;dup
233297;240364;dup
233298;233478;dup
233298;233488;dup
233298;233732;dup
233298;233733;dup
233298;234760;dup
233298;234863;dup
233298;234865;dup
233298;234922;dup
233298;234939;dup
233298;235126;dup
233298;235134;dup
233298;235234;dup
233298;235715;dup
233298;235871;dup
233298;235873;dup
233298;236372;dup
233298;236513;dup
233298;236970;dup
233301;233311;dup
233330;233364;dup
233344;242104;dup
233345;234349;dup
233350;221361;dup
233353;233750;dup
233362;233602;dup
233362;234550;dup
233416;238877;dup
233416;241094;dup
233425;241689;dup
233432;234830;dup
233439;233471;dup
233440;246088;dup
233444;237077;dup
233444;241735;dup
233447;216051;dup
233449;239427;dup
233449;245458;dup
233463;237650;dup
233464;233787;dup
233469;240791;dup
233469;254860;dup
233478;233488;dup
233478;233732;dup
233478;233733;dup
233478;234760;dup
233478;234863;dup
233478;234865;dup
233478;234922;dup
233478;234939;dup
233478;235126;dup
233478;235134;dup
233478;235234;dup
233478;235715;dup
233478;235871;dup
233478;235873;dup
233478;236372;dup
233478;236513;dup
233478;236970;dup
233488;233732;dup
233488;233733;dup
233488;234760;dup
233488;234863;dup
233488;234865;dup
233488;234922;dup
233488;234939;dup
233488;235126;dup
233488;235134;dup
233488;235234;dup
233488;235715;dup
233488;235871;dup
233488;235873;dup
233488;236372;dup
233488;236513;dup
233488;236970;dup
233506;242021;dup
233507;233688;dup
233507;234647;dup
233515;233824;dup
233525;247168;dup
233590;220528;dup
233596;234477;dup
233602;234550;dup
233606;233613;dup
233606;234577;dup
233606;234859;dup
233606;235278;dup
233613;234577;dup
233613;234859;dup
233613;235278;dup
233617;237727;dup
233617;240453;dup
233617;245789;dup
233617;218197;dup
233619;236024;dup
233619;238872;dup
233619;218881;dup
233624;238341;dup
233624;222272;dup
233624;223088;dup
233624;223119;dup
233624;223311;dup
216011;216119;dup
233636;240266;dup
233636;251487;dup
233636;256707;dup
216012;216120;dup
216012;216121;dup
233670;238949;dup
233675;220852;dup
233688;234647;dup
233694;233783;dup
233717;242205;dup
233717;242206;dup
233732;233733;dup
233732;234760;dup
233732;234863;dup
233732;234865;dup
233732;234922;dup
233732;234939;dup
233732;235126;dup
233732;235134;dup
233732;235234;dup
233732;235715;dup
233732;235871;dup
233732;235873;dup
233732;236372;dup
233732;236513;dup
233732;236970;dup
233733;234760;dup
233733;234863;dup
233733;234865;dup
233733;234922;dup
233733;234939;dup
233733;235126;dup
233733;235134;dup
233733;235234;dup
233733;235715;dup
233733;235871;dup
233733;235873;dup
233733;236372;dup
233733;236513;dup
233733;236970;dup
233736;235807;dup
216023;249137;dup
233744;241341;dup
233747;239748;dup
233768;216740;dup
233768;241498;dup
233768;243277;dup
233768;245017;dup
233776;236276;dup
216028;222509;dup
216028;222812;dup
216028;224006;dup
233791;217066;dup
233823;239586;dup
216032;236368;dup
233840;241895;dup
233846;223775;dup
216037;223792;dup
233905;237189;dup
233905;252951;dup
233911;234134;dup
233958;234180;dup
233969;234006;dup
216049;216985;dup
216049;224042;dup
216050;236595;dup
234011;247985;dup
234011;248651;dup
234011;251127;dup
234024;258105;dup
234027;234203;dup
234027;240673;dup
234100;256418;dup
234100;256457;dup
234109;258244;dup
234116;240712;dup
234116;244513;dup
234116;246488;dup
234116;247507;dup
234126;241465;dup
234126;214110;dup
234127;239567;dup
234127;239577;dup
234127;254736;dup
234147;234864;dup
234150;217646;dup
234153;234346;dup
234187;221420;dup
234199;236498;dup
234203;240673;dup
234211;237674;dup
234213;236531;dup
234231;237201;dup
234246;234254;dup
234262;235348;dup
216075;216117;dup
214068;214069;dup
234270;234271;dup
234270;234272;dup
234271;234272;dup
234288;239035;dup
234290;222247;dup
234297;234600;dup
234297;235830;dup
234310;245503;dup
234325;234528;dup
234330;239193;dup
234352;234455;dup
234352;236237;dup
216084;216234;dup
234358;251486;dup
234366;248090;dup
234366;248257;dup
234383;242604;dup
234403;242677;dup
234403;243887;dup
234406;234747;dup
234423;241519;dup
234430;241633;dup
234432;237426;dup
234455;236237;dup
234458;236468;dup
234458;221106;dup
234479;234690;dup
234509;241223;dup
234510;222403;dup
234523;234545;dup
234556;257500;dup
234566;238202;dup
234577;234859;dup
234577;235278;dup
234583;237592;dup
234583;239447;dup
234583;241470;dup
234591;238513;dup
234598;238097;dup
234598;249724;dup
234600;235830;dup
234604;234641;dup
234607;252132;dup
216110;242684;dup
234631;236039;dup
234646;235358;dup
234654;242266;dup
234654;243877;dup
234654;253893;dup
234661;243810;dup
216120;216121;dup
234724;234789;dup
234733;240700;dup
234745;238053;dup
234746;235233;dup
234754;240796;dup
234760;234863;dup
234760;234865;dup
234760;234922;dup
234760;234939;dup
234760;235126;dup
234760;235134;dup
234760;235234;dup
234760;235715;dup
234760;235871;dup
234760;235873;dup
234760;236372;dup
234760;236513;dup
234760;236970;dup
234772;238463;dup
234788;239143;dup
234802;235579;dup
234804;234923;dup
234806;237326;dup
234814;252546;dup
234817;241139;dup
234859;235278;dup
234862;235869;dup
234863;234865;dup
234863;234922;dup
234863;234939;dup
234863;235126;dup
234863;235134;dup
234863;235234;dup
234863;235715;dup
234863;235871;dup
234863;235873;dup
234863;236372;dup
234863;236513;dup
234863;236970;dup
234865;234922;dup
234865;234939;dup
234865;235126;dup
234865;235134;dup
234865;235234;dup
234865;235715;dup
234865;235871;dup
234865;235873;dup
234865;236372;dup
234865;236513;dup
234865;236970;dup
234875;242580;dup
234878;249002;dup
234882;235732;dup
234888;234893;dup
234910;235020;dup
234910;235541;dup
234910;248617;dup
234910;256842;dup
234913;234914;dup
234916;239133;dup
234916;248523;dup
234916;248547;dup
234916;248555;dup
234916;248566;dup
234916;249112;dup
234916;251938;dup
234922;234939;dup
234922;235126;dup
234922;235134;dup
234922;235234;dup
234922;235715;dup
234922;235871;dup
234922;235873;dup
234922;236372;dup
234922;236513;dup
234922;236970;dup
234938;253084;dup
234939;235126;dup
234939;235134;dup
234939;235234;dup
234939;235715;dup
234939;235871;dup
234939;235873;dup
234939;236372;dup
234939;236513;dup
234939;236970;dup
234952;235703;dup
234967;235037;dup
234967;235419;dup
234984;234985;dup
216147;238594;dup
216147;243198;dup
216147;243208;dup
216147;243556;dup
216147;244545;dup
216147;257142;dup
216147;258254;dup
234992;216633;dup
216148;242037;dup
234997;235053;dup
234997;236495;dup
234997;246579;dup
234997;248536;dup
235000;235592;dup
216149;216153;dup
235008;240472;dup
235017;235787;dup
235018;235373;dup
235018;244465;dup
235020;235541;dup
235020;248617;dup
235020;256842;dup
235022;222660;dup
235031;246016;dup
235035;235040;dup
235037;235419;dup
235053;236495;dup
235053;246579;dup
235053;248536;dup
235098;235571;dup
235104;246564;dup
235110;241728;dup
235125;236143;dup
235126;235134;dup
235126;235234;dup
235126;235715;dup
235126;235871;dup
235126;235873;dup
235126;236372;dup
235126;236513;dup
235126;236970;dup
235132;237288;dup
235132;221675;dup
235134;235234;dup
235134;235715;dup
235134;235871;dup
235134;235873;dup
235134;236372;dup
235134;236513;dup
235134;236970;dup
235140;235217;dup
235157;235166;dup
235157;252512;dup
235166;252512;dup
235174;244735;dup
235190;235194;dup
235197;235443;dup
235213;235860;dup
235213;244016;dup
235234;235715;dup
235234;235871;dup
235234;235873;dup
235234;236372;dup
235234;236513;dup
235234;236970;dup
235258;237005;dup
235258;237234;dup
235280;235506;dup
235288;240802;dup
235291;240129;dup
235291;241142;dup
235291;217752;dup
235307;237056;dup
235309;236417;dup
235314;237179;dup
235315;238491;dup
235318;235321;dup
235318;235345;dup
235318;235347;dup
235318;235349;dup
235321;235345;dup
235321;235347;dup
235321;235349;dup
235333;235334;dup
235336;238950;dup
235345;235347;dup
235345;235349;dup
235347;235349;dup
235356;249035;dup
235365;251296;dup
235373;244465;dup
235412;254625;dup
235439;256554;dup
235464;237942;dup
235479;237386;dup
235479;246596;dup
235491;241430;dup
235491;248633;dup
235496;236923;dup
235541;248617;dup
235541;256842;dup
235573;256046;dup
235574;235576;dup
235607;221800;dup
235611;239237;dup
235623;236408;dup
235629;236695;dup
235654;258461;dup
235661;236078;dup
235662;235689;dup
235666;235700;dup
235666;222118;dup
216216;221855;dup
235700;222118;dup
235715;235871;dup
235715;235873;dup
235715;236372;dup
235715;236513;dup
235715;236970;dup
235759;235833;dup
235759;238435;dup
235759;238522;dup
235759;238557;dup
235759;238642;dup
235759;238873;dup
235759;239039;dup
235759;241746;dup
235759;242680;dup
235759;242965;dup
235759;242973;dup
235759;243073;dup
235759;243267;dup
235759;244360;dup
235759;245784;dup
235759;246301;dup
235759;247119;dup
235759;247681;dup
235759;248836;dup
235759;249059;dup
235759;250521;dup
235759;256052;dup
235759;218311;dup
235759;214092;dup
235759;218734;dup
235759;218812;dup
235759;222757;dup
235759;223448;dup
235760;235770;dup
235760;235785;dup
235763;243706;dup
235770;235785;dup
235774;235775;dup
235774;235783;dup
235775;235783;dup
235778;238448;dup
235782;235796;dup
216227;216228;dup
216227;216229;dup
216228;216229;dup
216230;216547;dup
216231;217390;dup
216231;217550;dup
216231;217565;dup
235833;238435;dup
235833;238522;dup
235833;238557;dup
235833;238642;dup
235833;238873;dup
235833;239039;dup
235833;241746;dup
235833;242680;dup
235833;242965;dup
235833;242973;dup
235833;243073;dup
235833;243267;dup
235833;244360;dup
235833;245784;dup
235833;246301;dup
235833;247119;dup
235833;247681;dup
235833;248836;dup
235833;249059;dup
235833;250521;dup
235833;256052;dup
235833;218311;dup
235833;214092;dup
235833;218734;dup
235833;218812;dup
235833;222757;dup
235833;223448;dup
235834;239116;dup
235860;244016;dup
235871;235873;dup
235871;236372;dup
235871;236513;dup
235871;236970;dup
235873;236372;dup
235873;236513;dup
235873;236970;dup
235877;244183;dup
235883;253776;dup
235892;247426;dup
235905;236148;dup
235905;236882;dup
216241;245237;dup
235923;248514;dup
235923;249753;dup
235932;236523;dup
235935;235937;dup
235955;243178;dup
236024;238872;dup
236024;218881;dup
236042;236074;dup
216254;216255;dup
236077;238619;dup
236077;239863;dup
236077;241226;dup
236093;236302;dup
236101;236108;dup
236101;222027;dup
236108;222027;dup
236137;218309;dup
236139;236141;dup
236148;236882;dup
236155;242066;dup
236157;236165;dup
236157;236173;dup
236165;236173;dup
236200;236292;dup
236210;243291;dup
236210;254911;dup
236224;238850;dup
236251;242528;dup
236280;236307;dup
236306;254756;dup
216280;244840;dup
236309;236310;dup
236324;218412;dup
236324;218413;dup
236324;214832;dup
236338;236345;dup
236351;236681;dup
236352;242475;dup
236358;238152;dup
236358;247249;dup
236358;247822;dup
236358;249867;dup
236358;255154;dup
236360;236938;dup
236366;240125;dup
236366;250189;dup
236372;236513;dup
236372;236970;dup
236381;236386;dup
236393;236396;dup
236414;222484;dup
236426;239233;dup
236437;239417;dup
236437;243444;dup
236437;243445;dup
236437;246056;dup
236437;246128;dup
236437;247531;dup
236437;248983;dup
236437;250040;dup
236437;251698;dup
236437;251952;dup
236437;255065;dup
236437;256878;dup
236468;221106;dup
236472;239869;dup
236472;245964;dup
236493;218216;dup
236495;246579;dup
236495;248536;dup
236499;248554;dup
236504;242430;dup
236512;237785;dup
236513;236970;dup
236522;237177;dup
236524;238438;dup
236524;238928;dup
236524;240736;dup
236524;241013;dup
236524;241112;dup
236524;252018;dup
236565;236566;dup
236573;237427;dup
236575;217974;dup
236575;257788;dup
236575;258750;dup
236609;249683;dup
236615;240642;dup
236621;242737;dup
236641;242207;dup
216320;217958;dup
236703;220270;dup
236709;247352;dup
236712;237349;dup
236712;243207;dup
236712;243620;dup
236724;238033;dup
236724;240561;dup
236724;241086;dup
236724;243507;dup
236724;254648;dup
236724;256193;dup
236740;239713;dup
236740;239714;dup
236740;256567;dup
236747;246266;dup
236755;237763;dup
236755;239357;dup
236761;219718;dup
236775;240222;dup
236780;237402;dup
236797;237058;dup
236821;239750;dup
236834;238718;dup
236855;258526;dup
236871;237915;dup
236878;244863;dup
236898;252314;dup
236905;236906;dup
236905;236908;dup
236905;236910;dup
236905;236911;dup
236905;236912;dup
236905;236913;dup
236905;236914;dup
236905;236916;dup
236905;236919;dup
236906;236908;dup
236906;236910;dup
236906;236911;dup
236906;236912;dup
236906;236913;dup
236906;236914;dup
236906;236916;dup
236906;236919;dup
236908;236910;dup
236908;236911;dup
236908;236912;dup
236908;236913;dup
236908;236914;dup
236908;236916;dup
236908;236919;dup
236910;236911;dup
236910;236912;dup
236910;236913;dup
236910;236914;dup
236910;236916;dup
236910;236919;dup
236911;236912;dup
236911;236913;dup
236911;236914;dup
236911;236916;dup
236911;236919;dup
236912;236913;dup
236912;236914;dup
236912;236916;dup
236912;236919;dup
236913;236914;dup
236913;236916;dup
236913;236919;dup
236914;236916;dup
236914;236919;dup
236916;236919;dup
236922;237705;dup
236953;252891;dup
237005;237234;dup
237023;237027;dup
237049;237260;dup
237071;238211;dup
237077;241735;dup
237109;238549;dup
237166;237835;dup
237168;239115;dup
237168;247225;dup
237168;247434;dup
216367;219002;dup
237174;257537;dup
237189;252951;dup
237190;256670;dup
237196;238699;dup
237196;244197;dup
237202;237203;dup
237204;241572;dup
237204;241941;dup
237211;240539;dup
237211;253401;dup
237211;255138;dup
237212;242480;dup
237216;237217;dup
237218;241868;dup
237222;240152;dup
237222;254666;dup
237222;259215;dup
237225;237644;dup
237247;239798;dup
216375;253236;dup
237250;248597;dup
237250;248598;dup
237250;248609;dup
237264;243989;dup
237287;255211;dup
237287;255874;dup
237288;221675;dup
237305;237897;dup
237314;240376;dup
237316;237728;dup
237327;241795;dup
237327;244859;dup
237327;257687;dup
237328;242500;dup
216384;216714;dup
237340;237341;dup
237342;223682;dup
237348;238440;dup
237349;243207;dup
237349;243620;dup
237350;237355;dup
237352;237360;dup
237386;246596;dup
237408;238523;dup
237408;241164;dup
237408;241691;dup
237408;241697;dup
237422;240267;dup
237439;219530;dup
237457;237458;dup
237476;239366;dup
237476;249149;dup
237485;241440;dup
237488;255772;dup
237495;240057;dup
237557;247365;dup
237562;246830;dup
237571;237572;dup
237592;239447;dup
237592;241470;dup
237599;237600;dup
237606;237608;dup
237609;238387;dup
237609;239662;dup
237614;237615;dup
237640;242343;dup
237640;242767;dup
237661;242577;dup
237662;242347;dup
237666;237973;dup
237666;238183;dup
237666;242202;dup
237667;240087;dup
237667;249660;dup
237667;252367;dup
237667;257988;dup
237672;239675;dup
237680;244881;dup
237680;245279;dup
237687;242817;dup
237702;247443;dup
237708;249998;dup
237727;240453;dup
237727;245789;dup
237727;218197;dup
237743;253258;dup
237763;239357;dup
237767;241400;dup
237792;238527;dup
237792;239691;dup
237792;239779;dup
237792;239780;dup
237792;240364;dup
237830;244340;dup
237830;255060;dup
237873;237874;dup
237873;237875;dup
237873;237876;dup
237873;237877;dup
237874;237875;dup
237874;237876;dup
237874;237877;dup
237875;237876;dup
237875;237877;dup
237876;237877;dup
237878;245300;dup
237891;238969;dup
237891;242634;dup
237891;244827;dup
237891;244831;dup
237891;255413;dup
237891;258334;dup
237894;218119;dup
237896;237976;dup
237912;238484;dup
237912;238534;dup
237912;241502;dup
237923;238785;dup
237937;239783;dup
237946;247448;dup
216446;244849;dup
216446;245779;dup
237967;248996;dup
237973;238183;dup
237973;242202;dup
237974;239087;dup
238001;240474;dup
238025;221333;dup
238030;239083;dup
238033;240561;dup
238033;241086;dup
238033;243507;dup
238033;254648;dup
238033;256193;dup
238059;241361;dup
216456;216457;dup
238090;239605;dup
238097;249724;dup
238098;239174;dup
238098;244126;dup
238103;218319;dup
238103;221608;dup
214288;214449;dup
216462;217814;dup
238134;249824;dup
238137;238140;dup
238152;247249;dup
238152;247822;dup
238152;249867;dup
238152;255154;dup
238154;242146;dup
238154;251400;dup
238154;252510;dup
238183;242202;dup
238207;238672;dup
238279;243019;dup
238299;254863;dup
216483;220211;dup
238341;222272;dup
238341;223088;dup
238341;223119;dup
238341;223311;dup
238349;241779;dup
238350;243246;dup
238350;245883;dup
238361;240256;dup
238369;238520;dup
238369;238591;dup
238370;239230;dup
238380;238381;dup
238387;239662;dup
238403;246241;dup
238432;239721;dup
238435;238522;dup
238435;238557;dup
238435;238642;dup
238435;238873;dup
238435;239039;dup
238435;241746;dup
238435;242680;dup
238435;242965;dup
238435;242973;dup
238435;243073;dup
238435;243267;dup
238435;244360;dup
238435;245784;dup
238435;246301;dup
238435;247119;dup
238435;247681;dup
238435;248836;dup
238435;249059;dup
238435;250521;dup
238435;256052;dup
238435;218311;dup
238435;214092;dup
238435;218734;dup
238435;218812;dup
238435;222757;dup
238435;223448;dup
238438;238928;dup
238438;240736;dup
238438;241013;dup
238438;241112;dup
238438;252018;dup
238468;238475;dup
238480;238831;dup
238484;238534;dup
238484;241502;dup
238495;240540;dup
238495;246471;dup
238498;251524;dup
238505;249705;dup
238512;239415;dup
238512;241492;dup
238512;243268;dup
238520;238591;dup
238522;238557;dup
238522;238642;dup
238522;238873;dup
238522;239039;dup
238522;241746;dup
238522;242680;dup
238522;242965;dup
238522;242973;dup
238522;243073;dup
238522;243267;dup
238522;244360;dup
238522;245784;dup
238522;246301;dup
238522;247119;dup
238522;247681;dup
238522;248836;dup
238522;249059;dup
238522;250521;dup
238522;256052;dup
238522;218311;dup
238522;214092;dup
238522;218734;dup
238522;218812;dup
238522;222757;dup
238522;223448;dup
238523;241164;dup
238523;241691;dup
238523;241697;dup
238527;239691;dup
238527;239779;dup
238527;239780;dup
238527;240364;dup
238531;238555;dup
238532;255697;dup
238534;241502;dup
238543;221969;dup
238544;238612;dup
238544;242322;dup
238551;242425;dup
238551;222032;dup
238557;238642;dup
238557;238873;dup
238557;239039;dup
238557;241746;dup
238557;242680;dup
238557;242965;dup
238557;242973;dup
238557;243073;dup
238557;243267;dup
238557;244360;dup
238557;245784;dup
238557;246301;dup
238557;247119;dup
238557;247681;dup
238557;248836;dup
238557;249059;dup
238557;250521;dup
238557;256052;dup
238557;218311;dup
238557;214092;dup
238557;218734;dup
238557;218812;dup
238557;222757;dup
238557;223448;dup
238590;244785;dup
238590;251160;dup
238590;252088;dup
238590;222900;dup
238594;243198;dup
238594;243208;dup
238594;243556;dup
238594;244545;dup
238594;257142;dup
238594;258254;dup
238596;241126;dup
238605;238606;dup
238609;245364;dup
238612;242322;dup
238619;239863;dup
238619;241226;dup
238642;238873;dup
238642;239039;dup
238642;241746;dup
238642;242680;dup
238642;242965;dup
238642;242973;dup
238642;243073;dup
238642;243267;dup
238642;244360;dup
238642;245784;dup
238642;246301;dup
238642;247119;dup
238642;247681;dup
238642;248836;dup
238642;249059;dup
238642;250521;dup
238642;256052;dup
238642;218311;dup
238642;214092;dup
238642;218734;dup
238642;218812;dup
238642;222757;dup
238642;223448;dup
238652;249085;dup
238663;239085;dup
238669;244628;dup
238677;239435;dup
238677;245335;dup
238684;238685;dup
238691;247569;dup
238699;244197;dup
238709;238711;dup
238710;244383;dup
238735;238926;dup
238738;244199;dup
238738;245527;dup
238738;257710;dup
238740;256188;dup
238764;238849;dup
216527;222226;dup
238787;258229;dup
238795;241533;dup
238796;221843;dup
238797;241632;dup
238800;242327;dup
238817;250681;dup
238837;239535;dup
238863;240124;dup
238863;241462;dup
238872;218881;dup
238873;239039;dup
238873;241746;dup
238873;242680;dup
238873;242965;dup
238873;242973;dup
238873;243073;dup
238873;243267;dup
238873;244360;dup
238873;245784;dup
238873;246301;dup
238873;247119;dup
238873;247681;dup
238873;248836;dup
238873;249059;dup
238873;250521;dup
238873;256052;dup
238873;218311;dup
238873;214092;dup
238873;218734;dup
238873;218812;dup
238873;222757;dup
238873;223448;dup
238875;239613;dup
238875;251322;dup
238877;241094;dup
238881;241959;dup
238923;241044;dup
238928;240736;dup
238928;241013;dup
238928;241112;dup
238928;252018;dup
216544;217514;dup
238944;247566;dup
238944;248558;dup
238944;248581;dup
238944;252517;dup
216545;216726;dup
238955;247548;dup
238967;239334;dup
238968;222069;dup
238969;242634;dup
238969;244827;dup
238969;244831;dup
238969;255413;dup
238969;258334;dup
238970;239112;dup
238975;239048;dup
238977;240076;dup
238977;240557;dup
238977;247574;dup
238992;252102;dup
239039;241746;dup
239039;242680;dup
239039;242965;dup
239039;242973;dup
239039;243073;dup
239039;243267;dup
239039;244360;dup
239039;245784;dup
239039;246301;dup
239039;247119;dup
239039;247681;dup
239039;248836;dup
239039;249059;dup
239039;250521;dup
239039;256052;dup
239039;218311;dup
239039;214092;dup
239039;218734;dup
239039;218812;dup
239039;222757;dup
239039;223448;dup
239090;240128;dup
239090;246416;dup
239104;219300;dup
239109;239537;dup
239109;243047;dup
239109;254798;dup
239115;247225;dup
239115;247434;dup
216562;223705;dup
239131;239253;dup
239131;239254;dup
239131;239488;dup
239131;239842;dup
239131;241544;dup
239131;221094;dup
239133;248523;dup
239133;248547;dup
239133;248555;dup
239133;248566;dup
239133;249112;dup
239133;251938;dup
239141;248879;dup
239141;252439;dup
239141;253059;dup
239141;253061;dup
239141;253112;dup
216565;216705;dup
216565;223334;dup
239154;249929;dup
239174;244126;dup
239182;253947;dup
239210;239723;dup
216571;245963;dup
239229;245304;dup
239234;247113;dup
239248;246394;dup
239253;239254;dup
239253;239488;dup
239253;239842;dup
239253;241544;dup
239253;221094;dup
239254;239488;dup
239254;239842;dup
239254;241544;dup
239254;221094;dup
239263;239393;dup
239273;243637;dup
239273;251878;dup
239274;241089;dup
239274;241484;dup
239275;247389;dup
239279;239352;dup
239301;254551;dup
239305;239594;dup
239307;239621;dup
214073;214074;dup
239358;248214;dup
239358;217787;dup
239366;249149;dup
239382;239385;dup
239384;222253;dup
239396;219332;dup
239413;244879;dup
239415;241492;dup
239415;243268;dup
214301;214303;dup
214301;214304;dup
214301;214305;dup
214301;214306;dup
214301;217170;dup
214301;214372;dup
214301;214611;dup
239417;243444;dup
239417;243445;dup
239417;246056;dup
239417;246128;dup
239417;247531;dup
239417;248983;dup
239417;250040;dup
239417;251698;dup
239417;251952;dup
239417;255065;dup
239417;256878;dup
239418;241797;dup
239422;240093;dup
239426;244836;dup
239427;245458;dup
239435;245335;dup
239439;241399;dup
239447;241470;dup
239457;239458;dup
239462;244453;dup
239472;239474;dup
239477;259433;dup
239482;239484;dup
239488;239842;dup
239488;241544;dup
239488;221094;dup
239492;240822;dup
239492;247708;dup
239495;239496;dup
239495;239497;dup
239495;239498;dup
239496;239497;dup
239496;239498;dup
239497;239498;dup
216602;243482;dup
239537;243047;dup
239537;254798;dup
239540;250108;dup
239545;245218;dup
239550;239878;dup
239567;239577;dup
239567;254736;dup
239576;242328;dup
239576;242985;dup
239577;254736;dup
239597;241497;dup
239604;241234;dup
239604;241656;dup
239610;239631;dup
239610;218321;dup
239613;251322;dup
216612;248418;dup
214303;214304;dup
214303;214305;dup
214303;214306;dup
214303;217170;dup
214303;214372;dup
214303;214611;dup
239622;250383;dup
239629;217884;dup
239629;222578;dup
239630;219435;dup
239631;218321;dup
239647;239919;dup
239647;241741;dup
239647;248628;dup
239647;257382;dup
239661;254307;dup
239668;245378;dup
239668;251907;dup
239678;241025;dup
239678;247042;dup
239686;252961;dup
239691;239779;dup
239691;239780;dup
239691;240364;dup
239713;239714;dup
239713;256567;dup
239714;256567;dup
239715;249756;dup
214304;214305;dup
214304;214306;dup
214304;217170;dup
214304;214372;dup
214304;214611;dup
239744;217938;dup
239763;241051;dup
239779;239780;dup
239779;240364;dup
239780;240364;dup
214305;214306;dup
214305;217170;dup
214305;214372;dup
214305;214611;dup
239842;241544;dup
239842;221094;dup
239858;242081;dup
239863;241226;dup
239869;245964;dup
239871;248297;dup
239911;240245;dup
214306;217170;dup
214306;214372;dup
214306;214611;dup
239919;241741;dup
239919;248628;dup
239919;257382;dup
239922;240104;dup
239941;241493;dup
239950;239951;dup
239968;240965;dup
239976;240667;dup
239983;240668;dup
239993;241981;dup
216653;218518;dup
240033;241461;dup
240033;243677;dup
240033;244361;dup
240033;245425;dup
240033;247266;dup
240033;247407;dup
240033;249529;dup
240033;250141;dup
240033;255331;dup
240033;257041;dup
240050;240197;dup
240053;240084;dup
240073;244176;dup
240076;240557;dup
240076;247574;dup
240087;249660;dup
240087;252367;dup
240087;257988;dup
240095;242276;dup
240101;247099;dup
240115;240117;dup
240118;242887;dup
240118;243336;dup
240124;241462;dup
240125;250189;dup
240128;246416;dup
240129;241142;dup
240129;217752;dup
240152;254666;dup
240152;259215;dup
216666;222880;dup
240188;252111;dup
240215;241979;dup
240254;240338;dup
240254;255339;dup
240259;243691;dup
240266;251487;dup
240266;256707;dup
240277;248533;dup
240279;247617;dup
240293;240615;dup
240295;251525;dup
240299;241209;dup
240300;241208;dup
240300;252944;dup
240304;249062;dup
240305;251522;dup
240326;240327;dup
240329;240981;dup
240329;255981;dup
240329;256213;dup
240329;256214;dup
240329;256215;dup
240329;256216;dup
240329;256218;dup
240334;240823;dup
240338;255339;dup
240344;253081;dup
240351;257446;dup
240382;246400;dup
240388;240393;dup
240388;240395;dup
240393;240395;dup
240399;240907;dup
240405;251776;dup
240427;240603;dup
240427;250197;dup
240427;253863;dup
240437;240438;dup
240437;240439;dup
240437;240440;dup
240437;240441;dup
240438;240439;dup
240438;240440;dup
240438;240441;dup
240439;240440;dup
240439;240441;dup
240440;240441;dup
240453;245789;dup
240453;218197;dup
240468;240805;dup
240468;241194;dup
240468;244882;dup
240500;246698;dup
240500;255461;dup
240511;240522;dup
240539;253401;dup
240539;255138;dup
240540;246471;dup
216705;223334;dup
240557;247574;dup
240561;241086;dup
240561;243507;dup
240561;254648;dup
240561;256193;dup
240565;247454;dup
240567;245970;dup
240581;251496;dup
240603;250197;dup
240603;253863;dup
240636;257979;dup
240637;218466;dup
240638;256307;dup
216718;216857;dup
240677;244213;dup
240677;255434;dup
216720;216863;dup
216721;220137;dup
240712;244513;dup
240712;246488;dup
240712;247507;dup
240715;256019;dup
240731;240915;dup
240736;241013;dup
240736;241112;dup
240736;252018;dup
240752;240846;dup
240753;240866;dup
240753;240867;dup
240753;240868;dup
240753;240869;dup
240753;240871;dup
240753;240872;dup
240753;240874;dup
240753;240875;dup
240753;240876;dup
240753;240877;dup
240753;240878;dup
240753;240879;dup
240753;240880;dup
240753;240882;dup
240753;240883;dup
240753;240886;dup
240753;240887;dup
240753;240889;dup
240753;240891;dup
240753;240892;dup
240753;240893;dup
240753;240896;dup
240753;240897;dup
240753;240898;dup
240753;240899;dup
240753;240900;dup
240753;240901;dup
240753;240905;dup
240753;240969;dup
240790;250454;dup
240791;254860;dup
240800;241300;dup
240800;241302;dup
240800;254749;dup
240805;241194;dup
240805;244882;dup
240822;247708;dup
240847;240848;dup
240847;240850;dup
240848;240850;dup
240853;243171;dup
240866;240867;dup
240866;240868;dup
240866;240869;dup
240866;240871;dup
240866;240872;dup
240866;240874;dup
240866;240875;dup
240866;240876;dup
240866;240877;dup
240866;240878;dup
240866;240879;dup
240866;240880;dup
240866;240882;dup
240866;240883;dup
240866;240886;dup
240866;240887;dup
240866;240889;dup
240866;240891;dup
240866;240892;dup
240866;240893;dup
240866;240896;dup
240866;240897;dup
240866;240898;dup
240866;240899;dup
240866;240900;dup
240866;240901;dup
240866;240905;dup
240866;240969;dup
240867;240868;dup
240867;240869;dup
240867;240871;dup
240867;240872;dup
240867;240874;dup
240867;240875;dup
240867;240876;dup
240867;240877;dup
240867;240878;dup
240867;240879;dup
240867;240880;dup
240867;240882;dup
240867;240883;dup
240867;240886;dup
240867;240887;dup
240867;240889;dup
240867;240891;dup
240867;240892;dup
240867;240893;dup
240867;240896;dup
240867;240897;dup
240867;240898;dup
240867;240899;dup
240867;240900;dup
240867;240901;dup
240867;240905;dup
240867;240969;dup
240868;240869;dup
240868;240871;dup
240868;240872;dup
240868;240874;dup
240868;240875;dup
240868;240876;dup
240868;240877;dup
240868;240878;dup
240868;240879;dup
240868;240880;dup
240868;240882;dup
240868;240883;dup
240868;240886;dup
240868;240887;dup
240868;240889;dup
240868;240891;dup
240868;240892;dup
240868;240893;dup
240868;240896;dup
240868;240897;dup
240868;240898;dup
240868;240899;dup
240868;240900;dup
240868;240901;dup
240868;240905;dup
240868;240969;dup
240869;240871;dup
240869;240872;dup
240869;240874;dup
240869;240875;dup
240869;240876;dup
240869;240877;dup
240869;240878;dup
240869;240879;dup
240869;240880;dup
240869;240882;dup
240869;240883;dup
240869;240886;dup
240869;240887;dup
240869;240889;dup
240869;240891;dup
240869;240892;dup
240869;240893;dup
240869;240896;dup
240869;240897;dup
240869;240898;dup
240869;240899;dup
240869;240900;dup
240869;240901;dup
240869;240905;dup
240869;240969;dup
240871;240872;dup
240871;240874;dup
240871;240875;dup
240871;240876;dup
240871;240877;dup
240871;240878;dup
240871;240879;dup
240871;240880;dup
240871;240882;dup
240871;240883;dup
240871;240886;dup
240871;240887;dup
240871;240889;dup
240871;240891;dup
240871;240892;dup
240871;240893;dup
240871;240896;dup
240871;240897;dup
240871;240898;dup
240871;240899;dup
240871;240900;dup
240871;240901;dup
240871;240905;dup
240871;240969;dup
240872;240874;dup
240872;240875;dup
240872;240876;dup
240872;240877;dup
240872;240878;dup
240872;240879;dup
240872;240880;dup
240872;240882;dup
240872;240883;dup
240872;240886;dup
240872;240887;dup
240872;240889;dup
240872;240891;dup
240872;240892;dup
240872;240893;dup
240872;240896;dup
240872;240897;dup
240872;240898;dup
240872;240899;dup
240872;240900;dup
240872;240901;dup
240872;240905;dup
240872;240969;dup
240874;240875;dup
240874;240876;dup
240874;240877;dup
240874;240878;dup
240874;240879;dup
240874;240880;dup
240874;240882;dup
240874;240883;dup
240874;240886;dup
240874;240887;dup
240874;240889;dup
240874;240891;dup
240874;240892;dup
240874;240893;dup
240874;240896;dup
240874;240897;dup
240874;240898;dup
240874;240899;dup
240874;240900;dup
240874;240901;dup
240874;240905;dup
240874;240969;dup
240875;240876;dup
240875;240877;dup
240875;240878;dup
240875;240879;dup
240875;240880;dup
240875;240882;dup
240875;240883;dup
240875;240886;dup
240875;240887;dup
240875;240889;dup
240875;240891;dup
240875;240892;dup
240875;240893;dup
240875;240896;dup
240875;240897;dup
240875;240898;dup
240875;240899;dup
240875;240900;dup
240875;240901;dup
240875;240905;dup
240875;240969;dup
240876;240877;dup
240876;240878;dup
240876;240879;dup
240876;240880;dup
240876;240882;dup
240876;240883;dup
240876;240886;dup
240876;240887;dup
240876;240889;dup
240876;240891;dup
240876;240892;dup
240876;240893;dup
240876;240896;dup
240876;240897;dup
240876;240898;dup
240876;240899;dup
240876;240900;dup
240876;240901;dup
240876;240905;dup
240876;240969;dup
240877;240878;dup
240877;240879;dup
240877;240880;dup
240877;240882;dup
240877;240883;dup
240877;240886;dup
240877;240887;dup
240877;240889;dup
240877;240891;dup
240877;240892;dup
240877;240893;dup
240877;240896;dup
240877;240897;dup
240877;240898;dup
240877;240899;dup
240877;240900;dup
240877;240901;dup
240877;240905;dup
240877;240969;dup
240878;240879;dup
240878;240880;dup
240878;240882;dup
240878;240883;dup
240878;240886;dup
240878;240887;dup
240878;240889;dup
240878;240891;dup
240878;240892;dup
240878;240893;dup
240878;240896;dup
240878;240897;dup
240878;240898;dup
240878;240899;dup
240878;240900;dup
240878;240901;dup
240878;240905;dup
240878;240969;dup
240879;240880;dup
240879;240882;dup
240879;240883;dup
240879;240886;dup
240879;240887;dup
240879;240889;dup
240879;240891;dup
240879;240892;dup
240879;240893;dup
240879;240896;dup
240879;240897;dup
240879;240898;dup
240879;240899;dup
240879;240900;dup
240879;240901;dup
240879;240905;dup
240879;240969;dup
240880;240882;dup
240880;240883;dup
240880;240886;dup
240880;240887;dup
240880;240889;dup
240880;240891;dup
240880;240892;dup
240880;240893;dup
240880;240896;dup
240880;240897;dup
240880;240898;dup
240880;240899;dup
240880;240900;dup
240880;240901;dup
240880;240905;dup
240880;240969;dup
240882;240883;dup
240882;240886;dup
240882;240887;dup
240882;240889;dup
240882;240891;dup
240882;240892;dup
240882;240893;dup
240882;240896;dup
240882;240897;dup
240882;240898;dup
240882;240899;dup
240882;240900;dup
240882;240901;dup
240882;240905;dup
240882;240969;dup
240883;240886;dup
240883;240887;dup
240883;240889;dup
240883;240891;dup
240883;240892;dup
240883;240893;dup
240883;240896;dup
240883;240897;dup
240883;240898;dup
240883;240899;dup
240883;240900;dup
240883;240901;dup
240883;240905;dup
240883;240969;dup
240886;240887;dup
240886;240889;dup
240886;240891;dup
240886;240892;dup
240886;240893;dup
240886;240896;dup
240886;240897;dup
240886;240898;dup
240886;240899;dup
240886;240900;dup
240886;240901;dup
240886;240905;dup
240886;240969;dup
240887;240889;dup
240887;240891;dup
240887;240892;dup
240887;240893;dup
240887;240896;dup
240887;240897;dup
240887;240898;dup
240887;240899;dup
240887;240900;dup
240887;240901;dup
240887;240905;dup
240887;240969;dup
240889;240891;dup
240889;240892;dup
240889;240893;dup
240889;240896;dup
240889;240897;dup
240889;240898;dup
240889;240899;dup
240889;240900;dup
240889;240901;dup
240889;240905;dup
240889;240969;dup
240891;240892;dup
240891;240893;dup
240891;240896;dup
240891;240897;dup
240891;240898;dup
240891;240899;dup
240891;240900;dup
240891;240901;dup
240891;240905;dup
240891;240969;dup
240892;240893;dup
240892;240896;dup
240892;240897;dup
240892;240898;dup
240892;240899;dup
240892;240900;dup
240892;240901;dup
240892;240905;dup
240892;240969;dup
240893;240896;dup
240893;240897;dup
240893;240898;dup
240893;240899;dup
240893;240900;dup
240893;240901;dup
240893;240905;dup
240893;240969;dup
240894;256890;dup
240896;240897;dup
240896;240898;dup
240896;240899;dup
240896;240900;dup
240896;240901;dup
240896;240905;dup
240896;240969;dup
240897;240898;dup
240897;240899;dup
240897;240900;dup
240897;240901;dup
240897;240905;dup
240897;240969;dup
240898;240899;dup
240898;240900;dup
240898;240901;dup
240898;240905;dup
240898;240969;dup
216740;241498;dup
216740;243277;dup
216740;245017;dup
240899;240900;dup
240899;240901;dup
240899;240905;dup
240899;240969;dup
240900;240901;dup
240900;240905;dup
240900;240969;dup
240901;240905;dup
240901;240969;dup
240905;240969;dup
240906;249680;dup
240910;240911;dup
240910;240922;dup
240911;240922;dup
240914;258882;dup
216742;219147;dup
240926;248828;dup
240944;240956;dup
240967;244262;dup
240981;255981;dup
240981;256213;dup
240981;256214;dup
240981;256215;dup
240981;256216;dup
240981;256218;dup
241007;245671;dup
241013;241112;dup
241013;252018;dup
241025;247042;dup
241065;254421;dup
241072;251316;dup
241086;243507;dup
241086;254648;dup
241086;256193;dup
241087;247968;dup
241089;241484;dup
241099;241230;dup
241112;252018;dup
241129;241131;dup
241134;242410;dup
241135;243260;dup
241142;217752;dup
241146;255458;dup
241152;241201;dup
241155;249677;dup
241160;216892;dup
241164;241691;dup
241164;241697;dup
241171;217021;dup
241194;244882;dup
241207;241788;dup
241208;252944;dup
241229;241736;dup
241234;241656;dup
241245;256952;dup
216775;216777;dup
241271;243789;dup
241275;241965;dup
241284;219339;dup
241288;249555;dup
241300;241302;dup
241300;254749;dup
241302;254749;dup
241307;246876;dup
241313;241770;dup
241315;241406;dup
241322;244569;dup
241365;241366;dup
241365;241367;dup
241366;241367;dup
241368;241481;dup
241369;241690;dup
241377;251832;dup
241377;215030;dup
241384;245035;dup
241384;258737;dup
241394;249073;dup
241410;241413;dup
241430;248633;dup
241454;241455;dup
241461;243677;dup
241461;244361;dup
241461;245425;dup
241461;247266;dup
241461;247407;dup
241461;249529;dup
241461;250141;dup
241461;255331;dup
241461;257041;dup
241465;214110;dup
241466;254676;dup
241476;248919;dup
241476;257425;dup
241477;248629;dup
241477;220944;dup
241492;243268;dup
241498;243277;dup
241498;245017;dup
241501;255792;dup
241544;221094;dup
241553;258876;dup
241572;241941;dup
241574;248601;dup
241592;251504;dup
241592;254415;dup
241594;247523;dup
241607;241675;dup
241635;241636;dup
241635;242496;dup
241636;242496;dup
241637;244935;dup
241649;247837;dup
241663;247410;dup
241671;246411;dup
241691;241697;dup
241713;242888;dup
241730;242520;dup
241730;247979;dup
241730;224145;dup
241741;248628;dup
241741;257382;dup
241746;242680;dup
241746;242965;dup
241746;242973;dup
241746;243073;dup
241746;243267;dup
241746;244360;dup
241746;245784;dup
241746;246301;dup
241746;247119;dup
241746;247681;dup
241746;248836;dup
241746;249059;dup
241746;250521;dup
241746;256052;dup
241746;218311;dup
241746;214092;dup
241746;218734;dup
241746;218812;dup
241746;222757;dup
241746;223448;dup
241754;242972;dup
241768;252915;dup
241777;241911;dup
241794;249069;dup
241795;244859;dup
241795;257687;dup
241826;241975;dup
241830;247171;dup
241836;242906;dup
241905;242755;dup
241915;241946;dup
241915;241948;dup
241915;241972;dup
241927;241930;dup
241942;241951;dup
241943;241944;dup
241946;241948;dup
241946;241972;dup
241948;241972;dup
241978;244762;dup
242046;221181;dup
242051;243375;dup
242060;244081;dup
242073;246515;dup
242092;249289;dup
242106;243816;dup
242109;243916;dup
242112;244253;dup
242115;246466;dup
242128;255561;dup
242146;251400;dup
242146;252510;dup
242176;254560;dup
216867;222192;dup
242187;248550;dup
242200;248446;dup
242205;242206;dup
242208;242404;dup
242252;218437;dup
242266;243877;dup
242266;253893;dup
242323;243398;dup
242323;244086;dup
242328;242985;dup
242335;246218;dup
242335;246331;dup
242341;245565;dup
242343;242767;dup
242344;242509;dup
242353;242550;dup
242403;252218;dup
242423;242428;dup
242425;222032;dup
242454;259768;dup
242467;249500;dup
242513;242551;dup
242517;242518;dup
242520;247979;dup
242520;224145;dup
242548;242549;dup
242564;245080;dup
242574;244203;dup
242587;242591;dup
242613;244929;dup
242623;243229;dup
242634;244827;dup
242634;244831;dup
242634;255413;dup
242634;258334;dup
242666;255927;dup
242666;258920;dup
242677;243887;dup
242680;242965;dup
242680;242973;dup
242680;243073;dup
242680;243267;dup
242680;244360;dup
242680;245784;dup
242680;246301;dup
242680;247119;dup
242680;247681;dup
242680;248836;dup
242680;249059;dup
242680;250521;dup
242680;256052;dup
242680;218311;dup
242680;214092;dup
242680;218734;dup
242680;218812;dup
242680;222757;dup
242680;223448;dup
242692;242694;dup
242715;242716;dup
242720;258767;dup
242815;243209;dup
242825;242858;dup
242847;242848;dup
242870;245484;dup
242871;251207;dup
242884;222755;dup
242887;243336;dup
242902;250282;dup
242902;250461;dup
242902;250505;dup
242902;251411;dup
242902;258886;dup
242904;255121;dup
242907;242908;dup
242916;257313;dup
242921;254650;dup
242924;244821;dup
242933;245942;dup
216945;250428;dup
242965;242973;dup
242965;243073;dup
242965;243267;dup
242965;244360;dup
242965;245784;dup
242965;246301;dup
242965;247119;dup
242965;247681;dup
242965;248836;dup
242965;249059;dup
242965;250521;dup
242965;256052;dup
242965;218311;dup
242965;214092;dup
242965;218734;dup
242965;218812;dup
242965;222757;dup
242965;223448;dup
242971;243308;dup
242973;243073;dup
242973;243267;dup
242973;244360;dup
242973;245784;dup
242973;246301;dup
242973;247119;dup
242973;247681;dup
242973;248836;dup
242973;249059;dup
242973;250521;dup
242973;256052;dup
242973;218311;dup
242973;214092;dup
242973;218734;dup
242973;218812;dup
242973;222757;dup
242973;223448;dup
242980;242981;dup
242983;243830;dup
243013;243144;dup
243033;246092;dup
243047;254798;dup
243059;256198;dup
243059;258199;dup
243073;243267;dup
243073;244360;dup
243073;245784;dup
243073;246301;dup
243073;247119;dup
243073;247681;dup
243073;248836;dup
243073;249059;dup
243073;250521;dup
243073;256052;dup
243073;218311;dup
243073;214092;dup
243073;218734;dup
243073;218812;dup
243073;222757;dup
243073;223448;dup
243085;244562;dup
243089;243090;dup
243095;247753;dup
243095;251622;dup
243095;259134;dup
243101;247848;dup
243101;254449;dup
243113;256281;dup
243125;243126;dup
243140;246719;dup
243170;259108;dup
243179;248329;dup
243198;243208;dup
243198;243556;dup
243198;244545;dup
243198;257142;dup
243198;258254;dup
243207;243620;dup
243208;243556;dup
243208;244545;dup
243208;257142;dup
243208;258254;dup
243213;243426;dup
243213;243517;dup
243213;243784;dup
243234;250450;dup
243246;245883;dup
243267;244360;dup
243267;245784;dup
243267;246301;dup
243267;247119;dup
243267;247681;dup
243267;248836;dup
243267;249059;dup
243267;250521;dup
243267;256052;dup
243267;218311;dup
243267;214092;dup
243267;218734;dup
243267;218812;dup
243267;222757;dup
243267;223448;dup
243271;244119;dup
243277;245017;dup
243280;243283;dup
243291;254911;dup
243297;246392;dup
243303;243344;dup
243331;243333;dup
243352;245367;dup
216985;224042;dup
243372;243963;dup
243378;246797;dup
243381;254643;dup
243383;250940;dup
243387;245024;dup
243398;244086;dup
243402;243403;dup
243417;244651;dup
243419;243423;dup
216999;217606;dup
243426;243517;dup
243426;243784;dup
243444;243445;dup
243444;246056;dup
243444;246128;dup
243444;247531;dup
243444;248983;dup
243444;250040;dup
243444;251698;dup
243444;251952;dup
243444;255065;dup
243444;256878;dup
243445;246056;dup
243445;246128;dup
243445;247531;dup
243445;248983;dup
243445;250040;dup
243445;251698;dup
243445;251952;dup
243445;255065;dup
243445;256878;dup
243458;243459;dup
243458;243462;dup
243458;243463;dup
243459;243462;dup
243459;243463;dup
243462;243463;dup
243467;243470;dup
243472;243475;dup
243476;248181;dup
243476;250114;dup
243476;254481;dup
243507;254648;dup
243507;256193;dup
243508;243509;dup
243508;243510;dup
243509;243510;dup
243517;243784;dup
243526;243527;dup
243526;243528;dup
243527;243528;dup
243552;243554;dup
243556;244545;dup
243556;257142;dup
243556;258254;dup
243568;243569;dup
243580;244109;dup
243597;243598;dup
243597;223086;dup
243598;223086;dup
243599;243600;dup
243599;243601;dup
243600;243601;dup
243604;243605;dup
243604;243607;dup
243605;243607;dup
243615;246732;dup
243630;243631;dup
243633;243692;dup
243633;243693;dup
243633;246637;dup
243633;246659;dup
243633;246685;dup
243633;247178;dup
243633;248560;dup
243633;254630;dup
243633;258746;dup
243637;251878;dup
243677;244361;dup
243677;245425;dup
243677;247266;dup
243677;247407;dup
243677;249529;dup
243677;250141;dup
243677;255331;dup
243677;257041;dup
243679;248240;dup
243692;243693;dup
243692;246637;dup
243692;246659;dup
243692;246685;dup
243692;247178;dup
243692;248560;dup
243692;254630;dup
243692;258746;dup
243693;246637;dup
243693;246659;dup
243693;246685;dup
243693;247178;dup
243693;248560;dup
243693;254630;dup
243693;258746;dup
243701;243704;dup
243716;244392;dup
243716;248206;dup
243716;251274;dup
243731;250160;dup
243731;250162;dup
243736;253684;dup
243737;243985;dup
243744;248300;dup
243747;244024;dup
243758;253078;dup
243761;250704;dup
243817;255971;dup
217039;217040;dup
243877;253893;dup
243883;222587;dup
243896;244187;dup
243896;244188;dup
243896;244189;dup
243896;244265;dup
243962;246387;dup
243975;245934;dup
243981;244877;dup
244000;256582;dup
244063;244065;dup
244063;244066;dup
244063;244150;dup
244065;244066;dup
244065;244150;dup
244066;244150;dup
244105;244177;dup
244107;244113;dup
244108;244181;dup
244121;244160;dup
244123;253798;dup
244129;244131;dup
244129;244135;dup
244131;244135;dup
244136;244944;dup
244187;244188;dup
244187;244189;dup
244187;244265;dup
244188;244189;dup
244188;244265;dup
244189;244265;dup
244190;246397;dup
244199;245527;dup
244199;257710;dup
244200;247716;dup
244213;255434;dup
217085;217711;dup
244302;244745;dup
244310;245626;dup
217087;217424;dup
244318;256730;dup
244323;259023;dup
217088;217089;dup
217088;217090;dup
217088;217091;dup
244329;244578;dup
244331;247971;dup
244331;254487;dup
244331;258766;dup
217089;217090;dup
217089;217091;dup
244340;255060;dup
217090;217091;dup
244360;245784;dup
244360;246301;dup
244360;247119;dup
244360;247681;dup
244360;248836;dup
244360;249059;dup
244360;250521;dup
244360;256052;dup
244360;218311;dup
244360;214092;dup
244360;218734;dup
244360;218812;dup
244360;222757;dup
244360;223448;dup
244361;245425;dup
244361;247266;dup
244361;247407;dup
244361;249529;dup
244361;250141;dup
244361;255331;dup
244361;257041;dup
244391;258243;dup
244392;248206;dup
244392;251274;dup
244407;246609;dup
217096;217121;dup
244425;254654;dup
244452;251436;dup
244504;244979;dup
244513;246488;dup
244513;247507;dup
244545;257142;dup
244545;258254;dup
244550;245899;dup
244564;254572;dup
244572;252103;dup
244572;252543;dup
244580;244973;dup
244580;245490;dup
244580;246231;dup
244581;244972;dup
244596;244659;dup
244609;245056;dup
244611;249245;dup
244643;250666;dup
244667;256009;dup
244670;244671;dup
244676;256450;dup
244716;246692;dup
244716;248080;dup
244726;244727;dup
217128;217155;dup
217128;217479;dup
244770;244771;dup
244770;245859;dup
244771;245859;dup
244782;245241;dup
244785;251160;dup
244785;252088;dup
244785;222900;dup
244802;259404;dup
244816;247717;dup
244827;244831;dup
244827;255413;dup
244827;258334;dup
244831;255413;dup
244831;258334;dup
244834;249169;dup
244845;249530;dup
244849;245779;dup
217141;222507;dup
244859;257687;dup
244881;245279;dup
244973;245490;dup
244973;246231;dup
244983;251983;dup
217155;217479;dup
245013;247934;dup
245035;258737;dup
217160;217696;dup
245075;222945;dup
245082;245085;dup
245094;251168;dup
217170;214372;dup
217170;214611;dup
245152;257707;dup
245164;259207;dup
245200;245230;dup
245207;245357;dup
245227;251459;dup
245235;245679;dup
245251;247522;dup
217190;219695;dup
245334;245338;dup
245340;253031;dup
245340;256186;dup
245345;245465;dup
245378;251907;dup
245425;247266;dup
245425;247407;dup
245425;249529;dup
245425;250141;dup
245425;255331;dup
245425;257041;dup
245435;256035;dup
245447;246226;dup
245447;246229;dup
245447;246910;dup
245466;245561;dup
245469;246208;dup
245482;245914;dup
245490;246231;dup
245527;257710;dup
245534;245536;dup
245534;245888;dup
245536;245888;dup
245554;248893;dup
245595;259170;dup
245596;258575;dup
245596;259174;dup
217218;219289;dup
245624;245816;dup
245632;245828;dup
245633;250264;dup
245655;245657;dup
245655;246211;dup
245657;246211;dup
245658;256931;dup
245664;219946;dup
245666;246678;dup
245667;248829;dup
245667;250764;dup
245667;251175;dup
245667;251730;dup
245667;251788;dup
245667;252292;dup
245667;253731;dup
245667;254559;dup
245667;256480;dup
245667;258444;dup
245698;251251;dup
217234;217235;dup
245782;219343;dup
245784;246301;dup
245784;247119;dup
245784;247681;dup
245784;248836;dup
245784;249059;dup
245784;250521;dup
245784;256052;dup
245784;218311;dup
245784;214092;dup
245784;218734;dup
245784;218812;dup
245784;222757;dup
245784;223448;dup
245789;218197;dup
245912;248682;dup
245921;245924;dup
245973;248781;dup
245976;218420;dup
217260;220790;dup
217261;219786;dup
246042;256243;dup
246047;246542;dup
217263;259429;dup
246056;246128;dup
246056;247531;dup
246056;248983;dup
246056;250040;dup
246056;251698;dup
246056;251952;dup
246056;255065;dup
246056;256878;dup
246065;247529;dup
246068;257443;dup
246118;250833;dup
246128;247531;dup
246128;248983;dup
246128;250040;dup
246128;251698;dup
246128;251952;dup
246128;255065;dup
246128;256878;dup
246191;253641;dup
246198;246308;dup
246201;255195;dup
246205;255500;dup
246206;247316;dup
246218;246331;dup
246221;258987;dup
246226;246229;dup
246226;246910;dup
246229;246910;dup
246243;258984;dup
246280;247346;dup
246282;222588;dup
246301;247119;dup
246301;247681;dup
246301;248836;dup
246301;249059;dup
246301;250521;dup
246301;256052;dup
246301;218311;dup
246301;214092;dup
246301;218734;dup
246301;218812;dup
246301;222757;dup
246301;223448;dup
246309;247414;dup
246362;246911;dup
217294;219336;dup
246373;253218;dup
214080;214089;dup
246420;248908;dup
217303;220224;dup
246461;246802;dup
246461;247212;dup
246463;246869;dup
246488;247507;dup
246507;250238;dup
246538;246557;dup
246579;248536;dup
246585;247392;dup
214372;214611;dup
246593;252309;dup
246593;222973;dup
246632;250198;dup
246637;246659;dup
246637;246685;dup
246637;247178;dup
246637;248560;dup
246637;254630;dup
246637;258746;dup
246658;247819;dup
246659;246685;dup
246659;247178;dup
246659;248560;dup
246659;254630;dup
246659;258746;dup
246669;254051;dup
246672;255320;dup
246685;247178;dup
246685;248560;dup
246685;254630;dup
246685;258746;dup
246689;259662;dup
246692;248080;dup
246693;250645;dup
246697;246739;dup
246698;255461;dup
246712;246715;dup
246737;246738;dup
246748;246749;dup
246750;246814;dup
246751;246815;dup
246757;249852;dup
246766;246767;dup
246788;252329;dup
246802;247212;dup
246803;248666;dup
246803;248667;dup
246804;246834;dup
246808;256852;dup
246822;247235;dup
246856;247814;dup
246861;246882;dup
246908;247185;dup
246939;258999;dup
246956;220577;dup
246994;249668;dup
246999;248719;dup
247001;248579;dup
217361;217717;dup
247046;255021;dup
247058;259463;dup
247069;259371;dup
247092;247093;dup
217366;214095;dup
217366;223554;dup
247119;247681;dup
247119;248836;dup
247119;249059;dup
247119;250521;dup
247119;256052;dup
247119;218311;dup
247119;214092;dup
247119;218734;dup
247119;218812;dup
247119;222757;dup
247119;223448;dup
247128;248540;dup
247135;251656;dup
247153;258496;dup
247156;250205;dup
247177;252740;dup
247177;258740;dup
247178;248560;dup
247178;254630;dup
247178;258746;dup
247182;259713;dup
247189;247381;dup
217379;217381;dup
247225;247434;dup
247249;247822;dup
247249;249867;dup
247249;255154;dup
247266;247407;dup
247266;249529;dup
247266;250141;dup
247266;255331;dup
247266;257041;dup
247274;250929;dup
247285;253209;dup
217388;217393;dup
247327;252664;dup
217390;217550;dup
217390;217565;dup
247379;247445;dup
247379;247619;dup
247390;247391;dup
247394;247395;dup
247407;249529;dup
247407;250141;dup
247407;255331;dup
247407;257041;dup
247445;247619;dup
217405;217577;dup
247511;250144;dup
247511;256930;dup
247531;248983;dup
247531;250040;dup
247531;251698;dup
247531;251952;dup
247531;255065;dup
247531;256878;dup
247555;252485;dup
247566;248558;dup
247566;248581;dup
247566;252517;dup
247631;255389;dup
247632;247655;dup
247657;250132;dup
247657;253826;dup
247666;252288;dup
247666;258248;dup
247671;249260;dup
247681;248836;dup
247681;249059;dup
247681;250521;dup
247681;256052;dup
247681;218311;dup
247681;214092;dup
247681;218734;dup
247681;218812;dup
247681;222757;dup
247681;223448;dup
247704;259322;dup
247719;214465;dup
217431;217449;dup
247753;251622;dup
247753;259134;dup
247771;247774;dup
247805;247881;dup
247813;251193;dup
247822;249867;dup
247822;255154;dup
247832;247833;dup
247848;254449;dup
247859;254586;dup
247866;253063;dup
247897;247898;dup
247914;223446;dup
247918;251853;dup
247923;220553;dup
247969;248330;dup
247971;254487;dup
247971;258766;dup
247979;224145;dup
247983;223734;dup
247985;248651;dup
247985;251127;dup
247988;254440;dup
248010;258545;dup
248028;251673;dup
217462;219243;dup
248068;248415;dup
248090;248257;dup
248136;248137;dup
248136;252369;dup
248137;252369;dup
248163;253915;dup
248163;259324;dup
248166;248210;dup
248181;250114;dup
248181;254481;dup
248187;248429;dup
248193;248194;dup
248203;248205;dup
248206;251274;dup
248214;217787;dup
248267;249309;dup
248268;248270;dup
214389;218876;dup
248303;249456;dup
248303;249726;dup
248334;249070;dup
248347;248668;dup
248347;251306;dup
248393;255091;dup
248423;249303;dup
248438;248641;dup
248438;248648;dup
248474;251338;dup
217507;214986;dup
248489;250442;dup
248500;248706;dup
248500;220717;dup
248514;249753;dup
248523;248547;dup
248523;248555;dup
248523;248566;dup
248523;249112;dup
248523;251938;dup
248526;253952;dup
248538;258908;dup
248547;248555;dup
248547;248566;dup
248547;249112;dup
248547;251938;dup
248551;249639;dup
248555;248566;dup
248555;249112;dup
248555;251938;dup
248558;248581;dup
248558;252517;dup
248560;254630;dup
248560;258746;dup
248561;221935;dup
248566;249112;dup
248566;251938;dup
248567;249361;dup
248581;252517;dup
248597;248598;dup
248597;248609;dup
248598;248609;dup
248604;251885;dup
248604;258896;dup
248617;256842;dup
248628;257382;dup
248629;220944;dup
248641;248648;dup
248651;251127;dup
248666;248667;dup
248668;251306;dup
248670;254956;dup
248670;256353;dup
248671;248758;dup
248683;249324;dup
248683;249688;dup
248683;249804;dup
248683;250603;dup
248683;250610;dup
248683;250618;dup
248683;250620;dup
248683;250634;dup
248683;250758;dup
248683;250760;dup
248683;250888;dup
248683;250927;dup
248683;251147;dup
248683;251211;dup
248683;251254;dup
248683;251350;dup
248683;251355;dup
248683;251534;dup
248683;251903;dup
248683;253079;dup
248683;253975;dup
248692;249266;dup
248692;259537;dup
248693;248694;dup
248706;220717;dup
248714;223173;dup
217530;217531;dup
248720;253140;dup
248751;257520;dup
217536;217537;dup
248829;250764;dup
248829;251175;dup
248829;251730;dup
248829;251788;dup
248829;252292;dup
248829;253731;dup
248829;254559;dup
248829;256480;dup
248829;258444;dup
248836;249059;dup
248836;250521;dup
248836;256052;dup
248836;218311;dup
248836;214092;dup
248836;218734;dup
248836;218812;dup
248836;222757;dup
248836;223448;dup
248874;250526;dup
248879;252439;dup
248879;253059;dup
248879;253061;dup
248879;253112;dup
248880;251024;dup
248919;257425;dup
217550;217565;dup
248927;255007;dup
217552;218908;dup
248956;249060;dup
248957;248960;dup
248959;248961;dup
248963;257258;dup
248974;249068;dup
248983;250040;dup
248983;251698;dup
248983;251952;dup
248983;255065;dup
248983;256878;dup
249023;258664;dup
249059;250521;dup
249059;256052;dup
249059;218311;dup
249059;214092;dup
249059;218734;dup
249059;218812;dup
249059;222757;dup
249059;223448;dup
217563;217659;dup
249066;256282;dup
249101;249201;dup
249112;251938;dup
217570;217599;dup
249145;220218;dup
249156;251453;dup
249159;256174;dup
217574;218907;dup
249224;252009;dup
249266;259537;dup
249285;249719;dup
249285;252592;dup
249285;252974;dup
249285;253917;dup
249285;253985;dup
249285;253986;dup
249285;254543;dup
249285;254544;dup
249291;252376;dup
249304;249306;dup
249308;252393;dup
249308;222680;dup
249310;249357;dup
249310;249485;dup
249324;249688;dup
249324;249804;dup
249324;250603;dup
249324;250610;dup
249324;250618;dup
249324;250620;dup
249324;250634;dup
249324;250758;dup
249324;250760;dup
249324;250888;dup
249324;250927;dup
249324;251147;dup
249324;251211;dup
249324;251254;dup
249324;251350;dup
249324;251355;dup
249324;251534;dup
249324;251903;dup
249324;253079;dup
249324;253975;dup
217589;217598;dup
249335;249911;dup
249357;249485;dup
249359;250742;dup
249359;253869;dup
249371;250339;dup
249372;250164;dup
249434;256640;dup
249442;249445;dup
249442;252597;dup
249445;252597;dup
217601;214577;dup
217601;220722;dup
249450;256633;dup
249456;249726;dup
249459;255602;dup
249467;255584;dup
249482;249886;dup
217605;214532;dup
249529;250141;dup
249529;255331;dup
249529;257041;dup
249562;249854;dup
249572;250378;dup
249595;249596;dup
249595;249597;dup
249596;249597;dup
249641;249898;dup
249660;252367;dup
249660;257988;dup
249672;252544;dup
249688;249804;dup
249688;250603;dup
249688;250610;dup
249688;250618;dup
249688;250620;dup
249688;250634;dup
249688;250758;dup
249688;250760;dup
249688;250888;dup
249688;250927;dup
249688;251147;dup
249688;251211;dup
249688;251254;dup
249688;251350;dup
249688;251355;dup
249688;251534;dup
249688;251903;dup
249688;253079;dup
249688;253975;dup
249692;257177;dup
249699;250533;dup
249700;249701;dup
249718;250608;dup
249719;252592;dup
249719;252974;dup
249719;253917;dup
249719;253985;dup
249719;253986;dup
249719;254543;dup
249719;254544;dup
249723;249885;dup
249773;249775;dup
249773;249780;dup
249773;249781;dup
249773;249782;dup
249775;249780;dup
249775;249781;dup
249775;249782;dup
249780;249781;dup
249780;249782;dup
249781;249782;dup
249799;253205;dup
249799;253699;dup
249799;253787;dup
249804;250603;dup
249804;250610;dup
249804;250618;dup
249804;250620;dup
249804;250634;dup
249804;250758;dup
249804;250760;dup
249804;250888;dup
249804;250927;dup
249804;251147;dup
249804;251211;dup
249804;251254;dup
249804;251350;dup
249804;251355;dup
249804;251534;dup
249804;251903;dup
249804;253079;dup
249804;253975;dup
249817;254674;dup
249846;255210;dup
249846;255885;dup
249863;249864;dup
249867;255154;dup
249892;251857;dup
249919;219570;dup
249962;249967;dup
249963;256998;dup
249990;250740;dup
217656;217857;dup
217656;223613;dup
250030;250031;dup
250040;251698;dup
250040;251952;dup
250040;255065;dup
250040;256878;dup
250052;258178;dup
250081;250082;dup
250111;250113;dup
250114;254481;dup
250126;253658;dup
250132;253826;dup
250141;255331;dup
250141;257041;dup
250144;256930;dup
250160;250162;dup
250170;257236;dup
250197;253863;dup
250211;251737;dup
250211;252315;dup
250211;254611;dup
250213;250214;dup
250223;250224;dup
217677;217678;dup
217682;220493;dup
250282;250461;dup
250282;250505;dup
250282;251411;dup
250282;258886;dup
250305;255165;dup
250331;250332;dup
250394;250546;dup
250401;250431;dup
250405;250899;dup
250461;250505;dup
250461;251411;dup
250461;258886;dup
250505;251411;dup
250505;258886;dup
250510;252728;dup
250521;256052;dup
250521;218311;dup
250521;214092;dup
250521;218734;dup
250521;218812;dup
250521;222757;dup
250521;223448;dup
250530;250531;dup
250539;251058;dup
250548;250549;dup
250548;250550;dup
250549;250550;dup
250551;250552;dup
250551;250553;dup
250552;250553;dup
250555;258803;dup
250559;250561;dup
250559;250563;dup
250560;250562;dup
250560;250564;dup
250561;250563;dup
250562;250564;dup
250576;250577;dup
250603;250610;dup
250603;250618;dup
250603;250620;dup
250603;250634;dup
250603;250758;dup
250603;250760;dup
250603;250888;dup
250603;250927;dup
250603;251147;dup
250603;251211;dup
250603;251254;dup
250603;251350;dup
250603;251355;dup
250603;251534;dup
250603;251903;dup
250603;253079;dup
250603;253975;dup
250610;250618;dup
250610;250620;dup
250610;250634;dup
250610;250758;dup
250610;250760;dup
250610;250888;dup
250610;250927;dup
250610;251147;dup
250610;251211;dup
250610;251254;dup
250610;251350;dup
250610;251355;dup
250610;251534;dup
250610;251903;dup
250610;253079;dup
250610;253975;dup
250618;250620;dup
250618;250634;dup
250618;250758;dup
250618;250760;dup
250618;250888;dup
250618;250927;dup
250618;251147;dup
250618;251211;dup
250618;251254;dup
250618;251350;dup
250618;251355;dup
250618;251534;dup
250618;251903;dup
250618;253079;dup
250618;253975;dup
250620;250634;dup
250620;250758;dup
250620;250760;dup
250620;250888;dup
250620;250927;dup
250620;251147;dup
250620;251211;dup
250620;251254;dup
250620;251350;dup
250620;251355;dup
250620;251534;dup
250620;251903;dup
250620;253079;dup
250620;253975;dup
250634;250758;dup
250634;250760;dup
250634;250888;dup
250634;250927;dup
250634;251147;dup
250634;251211;dup
250634;251254;dup
250634;251350;dup
250634;251355;dup
250634;251534;dup
250634;251903;dup
250634;253079;dup
250634;253975;dup
250712;250731;dup
250716;251897;dup
250718;219234;dup
250724;250725;dup
250727;250907;dup
250742;253869;dup
250758;250760;dup
250758;250888;dup
250758;250927;dup
250758;251147;dup
250758;251211;dup
250758;251254;dup
250758;251350;dup
250758;251355;dup
250758;251534;dup
250758;251903;dup
250758;253079;dup
250758;253975;dup
250760;250888;dup
250760;250927;dup
250760;251147;dup
250760;251211;dup
250760;251254;dup
250760;251350;dup
250760;251355;dup
250760;251534;dup
250760;251903;dup
250760;253079;dup
250760;253975;dup
250764;251175;dup
250764;251730;dup
250764;251788;dup
250764;252292;dup
250764;253731;dup
250764;254559;dup
250764;256480;dup
250764;258444;dup
250766;251246;dup
250776;250777;dup
250778;251317;dup
250796;255334;dup
250796;256452;dup
250834;256311;dup
250835;258211;dup
250858;252273;dup
250881;250883;dup
250888;250927;dup
250888;251147;dup
250888;251211;dup
250888;251254;dup
250888;251350;dup
250888;251355;dup
250888;251534;dup
250888;251903;dup
250888;253079;dup
250888;253975;dup
250906;251804;dup
250927;251147;dup
250927;251211;dup
250927;251254;dup
250927;251350;dup
250927;251355;dup
250927;251534;dup
250927;251903;dup
250927;253079;dup
250927;253975;dup
250946;250973;dup
250961;250990;dup
250967;257451;dup
250987;252682;dup
251003;251267;dup
251015;251083;dup
251021;253295;dup
251021;258995;dup
251031;251183;dup
251044;252720;dup
251056;251059;dup
251063;253662;dup
251077;257295;dup
251079;251363;dup
251095;251098;dup
251138;251139;dup
251138;251140;dup
251139;251140;dup
251141;251182;dup
251147;251211;dup
251147;251254;dup
251147;251350;dup
251147;251355;dup
251147;251534;dup
251147;251903;dup
251147;253079;dup
251147;253975;dup
251160;252088;dup
251160;222900;dup
251175;251730;dup
251175;251788;dup
251175;252292;dup
251175;253731;dup
251175;254559;dup
251175;256480;dup
251175;258444;dup
251185;252640;dup
251200;252458;dup
251211;251254;dup
251211;251350;dup
251211;251355;dup
251211;251534;dup
251211;251903;dup
251211;253079;dup
251211;253975;dup
251214;251265;dup
251233;253665;dup
251235;256888;dup
251250;251291;dup
251254;251350;dup
251254;251355;dup
251254;251534;dup
251254;251903;dup
251254;253079;dup
251254;253975;dup
251294;253800;dup
217788;222361;dup
251347;258763;dup
251350;251355;dup
251350;251534;dup
251350;251903;dup
251350;253079;dup
251350;253975;dup
251355;251534;dup
251355;251903;dup
251355;253079;dup
251355;253975;dup
251369;251465;dup
251370;251408;dup
251400;252510;dup
251411;258886;dup
251421;251424;dup
251460;256953;dup
251475;252278;dup
251475;252465;dup
251487;256707;dup
251495;222859;dup
251504;254415;dup
251534;251903;dup
251534;253079;dup
251534;253975;dup
217809;217874;dup
251536;255223;dup
251536;255632;dup
251560;252265;dup
251565;251566;dup
251569;251570;dup
251610;259392;dup
251622;259134;dup
251676;251703;dup
251698;251952;dup
251698;255065;dup
251698;256878;dup
251730;251788;dup
251730;252292;dup
251730;253731;dup
251730;254559;dup
251730;256480;dup
251730;258444;dup
251737;252315;dup
251737;254611;dup
251758;251780;dup
251788;252292;dup
251788;253731;dup
251788;254559;dup
251788;256480;dup
251788;258444;dup
251832;215030;dup
251833;259017;dup
251837;258066;dup
251837;258997;dup
217842;218025;dup
217842;221897;dup
251885;258896;dup
251903;253079;dup
251903;253975;dup
251928;251929;dup
251928;221342;dup
251929;221342;dup
251952;255065;dup
251952;256878;dup
251955;257805;dup
251979;252417;dup
251986;257063;dup
217857;223613;dup
252050;252051;dup
252050;252052;dup
252050;252053;dup
252050;252054;dup
252051;252052;dup
252051;252053;dup
252051;252054;dup
252052;252053;dup
252052;252054;dup
252053;252054;dup
252088;222900;dup
252090;258990;dup
252090;223315;dup
252103;252543;dup
217868;220229;dup
252223;252232;dup
252223;252238;dup
252224;252282;dup
252232;252238;dup
252234;253903;dup
252264;252364;dup
252278;252465;dup
252288;258248;dup
217884;222578;dup
252292;253731;dup
252292;254559;dup
252292;256480;dup
252292;258444;dup
252297;259421;dup
252303;258383;dup
252309;222973;dup
252315;254611;dup
252321;252392;dup
252367;257988;dup
252386;255147;dup
252386;256291;dup
252393;222680;dup
252439;253059;dup
252439;253061;dup
252439;253112;dup
252449;252455;dup
252452;254822;dup
252461;259621;dup
252461;259710;dup
252470;258069;dup
217902;222028;dup
252553;252558;dup
252561;257676;dup
252592;252974;dup
252592;253917;dup
252592;253985;dup
252592;253986;dup
252592;254543;dup
252592;254544;dup
252680;252752;dup
252714;254529;dup
217927;218180;dup
252740;258740;dup
252744;253744;dup
252759;255551;dup
252848;252849;dup
252904;253082;dup
252908;256832;dup
252910;255730;dup
252974;253917;dup
252974;253985;dup
252974;253986;dup
252974;254543;dup
252974;254544;dup
252983;259157;dup
252983;259560;dup
253030;219178;dup
253031;256186;dup
253050;257905;dup
253059;253061;dup
253059;253112;dup
253061;253112;dup
253065;253069;dup
253079;253975;dup
253092;253651;dup
253171;222983;dup
217974;257788;dup
217974;258750;dup
253205;253699;dup
253205;253787;dup
253239;222967;dup
253267;253782;dup
253289;253290;dup
253295;258995;dup
253297;255351;dup
217987;215015;dup
253351;258435;dup
253401;255138;dup
253642;257880;dup
253674;254664;dup
253690;258944;dup
253699;253787;dup
218025;221897;dup
253718;256995;dup
253731;254559;dup
253731;256480;dup
253731;258444;dup
253751;255643;dup
253753;257804;dup
253759;255330;dup
214445;214451;dup
253862;257775;dup
253864;253865;dup
253915;259324;dup
253917;253985;dup
253917;253986;dup
253917;254543;dup
253917;254544;dup
218046;218196;dup
253985;253986;dup
253985;254543;dup
253985;254544;dup
253986;254543;dup
253986;254544;dup
254030;254031;dup
218060;220548;dup
254399;254400;dup
254402;254403;dup
254477;257343;dup
254486;218847;dup
254487;258766;dup
254495;255168;dup
214452;214466;dup
254538;257484;dup
254543;254544;dup
254559;256480;dup
254559;258444;dup
254566;255490;dup
254571;257569;dup
254575;223980;dup
254581;256252;dup
254581;256430;dup
254608;259801;dup
254630;258746;dup
218117;220264;dup
218118;219534;dup
218118;220197;dup
218118;214788;dup
218118;221738;dup
254648;256193;dup
254655;258263;dup
254666;259215;dup
218120;218277;dup
254680;219040;dup
254751;255239;dup
254768;259148;dup
254821;254868;dup
254829;254830;dup
254865;254890;dup
254896;255014;dup
254925;254926;dup
254936;259464;dup
254956;256353;dup
254981;255744;dup
254984;255005;dup
254988;255614;dup
255000;223760;dup
255054;257824;dup
255065;256878;dup
255069;255081;dup
255072;255181;dup
255092;257668;dup
255144;255203;dup
255147;256291;dup
255163;222782;dup
255200;255201;dup
255210;255885;dup
255211;255874;dup
255212;255873;dup
255214;255889;dup
255217;255892;dup
255219;255891;dup
255223;255632;dup
255228;255266;dup
255295;258780;dup
255331;257041;dup
255334;256452;dup
218186;221588;dup
218186;224003;dup
255362;255363;dup
255362;259763;dup
255363;259763;dup
255403;256265;dup
255413;258334;dup
255460;214923;dup
255594;255595;dup
255594;255596;dup
255595;255596;dup
255624;222155;dup
255625;256111;dup
255694;256374;dup
255733;221766;dup
255756;258398;dup
255787;255803;dup
255787;256676;dup
255788;255797;dup
255803;256676;dup
255822;256921;dup
255915;257652;dup
255915;258187;dup
255920;256027;dup
255927;258920;dup
255931;257347;dup
255981;256213;dup
255981;256214;dup
255981;256215;dup
255981;256216;dup
255981;256218;dup
256052;218311;dup
256052;214092;dup
256052;218734;dup
256052;218812;dup
256052;222757;dup
256052;223448;dup
256055;256056;dup
256169;256540;dup
256196;256419;dup
256196;256423;dup
256198;258199;dup
256200;256221;dup
256200;256222;dup
256200;256223;dup
256200;256224;dup
256200;256225;dup
256200;256226;dup
256213;256214;dup
256213;256215;dup
256213;256216;dup
256213;256218;dup
256214;256215;dup
256214;256216;dup
256214;256218;dup
256215;256216;dup
256215;256218;dup
256216;256218;dup
256221;256222;dup
256221;256223;dup
256221;256224;dup
256221;256225;dup
256221;256226;dup
256222;256223;dup
256222;256224;dup
256222;256225;dup
256222;256226;dup
256223;256224;dup
256223;256225;dup
256223;256226;dup
256224;256225;dup
256224;256226;dup
256225;256226;dup
256234;256235;dup
256239;259332;dup
256250;256279;dup
256250;256300;dup
256250;256306;dup
256252;256430;dup
256279;256300;dup
256279;256306;dup
256300;256306;dup
256320;256472;dup
256326;256331;dup
256344;256346;dup
256345;258150;dup
256351;256950;dup
256364;258962;dup
256418;256457;dup
256419;256423;dup
256444;256446;dup
256460;256643;dup
256460;256662;dup
256460;256665;dup
256480;258444;dup
218304;219166;dup
256523;256675;dup
256523;256919;dup
256523;222862;dup
256585;256639;dup
218311;214092;dup
218311;218734;dup
218311;218812;dup
218311;222757;dup
218311;223448;dup
256610;256955;dup
256643;256662;dup
256643;256665;dup
256662;256665;dup
256666;256940;dup
218319;221608;dup
256675;256919;dup
256675;222862;dup
256691;221410;dup
218323;218670;dup
256728;256729;dup
256748;256754;dup
256755;257058;dup
256908;257067;dup
256908;257078;dup
256919;222862;dup
256977;257060;dup
257001;257002;dup
257008;257870;dup
257057;259122;dup
257067;257078;dup
257088;258686;dup
257112;257786;dup
218363;218380;dup
257142;258254;dup
257145;257613;dup
257175;258236;dup
257181;257182;dup
257215;257217;dup
257246;257331;dup
257250;258353;dup
257278;257392;dup
257373;258941;dup
257454;220006;dup
257456;257474;dup
257491;258293;dup
218400;218401;dup
218400;218403;dup
218401;218403;dup
218405;218406;dup
257573;257574;dup
218412;218413;dup
218412;214832;dup
218413;214832;dup
257635;259444;dup
257652;258187;dup
257675;258329;dup
257675;259394;dup
257788;258750;dup
257790;258357;dup
257815;259013;dup
257899;257900;dup
257928;258980;dup
257957;258035;dup
258026;258777;dup
258029;258034;dup
258066;258997;dup
258119;258223;dup
258119;258754;dup
258153;258158;dup
258155;258179;dup
258163;259062;dup
258163;259063;dup
258223;258754;dup
258274;259365;dup
258304;258589;dup
258329;259394;dup
258363;258506;dup
258365;258834;dup
258365;258935;dup
258395;221389;dup
258407;258951;dup
214092;218734;dup
214092;218812;dup
214092;222757;dup
214092;223448;dup
258575;259174;dup
258615;258616;dup
258637;219481;dup
258657;259745;dup
218527;218531;dup
258799;259717;dup
258834;258935;dup
258846;258856;dup
218539;218776;dup
258877;259496;dup
258915;258917;dup
258960;259101;dup
258983;259113;dup
258983;259391;dup
258990;223315;dup
259033;259034;dup
259033;259035;dup
259034;259035;dup
259039;214519;dup
259062;259063;dup
259113;259391;dup
259157;259560;dup
218575;219209;dup
218575;221363;dup
259329;259405;dup
259342;259344;dup
259342;259346;dup
259342;259347;dup
259344;259346;dup
259344;259347;dup
259346;259347;dup
218587;220374;dup
259382;259538;dup
218597;259690;dup
218597;259691;dup
218606;220367;dup
259621;259710;dup
259690;259691;dup
218699;218709;dup
218734;218812;dup
218734;222757;dup
218734;223448;dup
218754;222051;dup
218804;219744;dup
218812;222757;dup
218812;223448;dup
214095;223554;dup
218836;218844;dup
218853;218858;dup
218855;223231;dup
218911;218912;dup
218914;219554;dup
218922;219519;dup
218947;221556;dup
218981;223259;dup
218989;219375;dup
218989;220794;dup
218989;221768;dup
218989;222033;dup
218989;224147;dup
219027;221802;dup
219047;221258;dup
214546;219183;dup
219185;222818;dup
219209;221363;dup
219229;222005;dup
219229;222586;dup
219236;219385;dup
219246;219594;dup
219265;219267;dup
214577;220722;dup
219375;220794;dup
219375;221768;dup
219375;222033;dup
219375;224147;dup
214578;214580;dup
219396;219533;dup
219498;220240;dup
219501;219510;dup
219534;220197;dup
219534;214788;dup
219534;221738;dup
219540;219541;dup
219540;219542;dup
219540;219543;dup
219541;219542;dup
219541;219543;dup
219542;219543;dup
219627;221996;dup
219629;219726;dup
214603;220727;dup
219663;219710;dup
219738;220899;dup
219741;221239;dup
219809;223481;dup
219883;219886;dup
219904;221703;dup
219936;220193;dup
219947;219948;dup
219958;219986;dup
220025;220026;dup
220036;223421;dup
220057;221092;dup
220057;221884;dup
220057;214841;dup
220057;222692;dup
220156;223502;dup
220158;223136;dup
220197;214788;dup
220197;221738;dup
220208;220679;dup
220259;221244;dup
220268;221718;dup
220347;220514;dup
220368;220428;dup
220390;220391;dup
220416;220469;dup
220500;221132;dup
220526;221870;dup
220529;220599;dup
214112;222302;dup
220604;220610;dup
220605;220606;dup
220605;220607;dup
220606;220607;dup
220625;220638;dup
220636;220664;dup
220641;220648;dup
220642;220644;dup
220671;221290;dup
220676;220823;dup
220694;221519;dup
220694;221881;dup
220701;220702;dup
220701;220703;dup
220701;220704;dup
220701;220705;dup
220701;220706;dup
220701;220707;dup
220702;220703;dup
220702;220704;dup
220702;220705;dup
220702;220706;dup
220702;220707;dup
220703;220704;dup
220703;220705;dup
220703;220706;dup
220703;220707;dup
220704;220705;dup
220704;220706;dup
220704;220707;dup
220705;220706;dup
220705;220707;dup
220706;220707;dup
220783;221011;dup
220794;221768;dup
220794;222033;dup
220794;224147;dup
220869;221243;dup
220901;221470;dup
220936;221841;dup
220939;221148;dup
220947;221565;dup
220963;222525;dup
220995;220999;dup
221021;221343;dup
214744;214755;dup
221067;221682;dup
221077;221284;dup
221089;221090;dup
221092;221884;dup
221092;214841;dup
221092;222692;dup
221103;222357;dup
221110;221785;dup
221115;222029;dup
214759;214862;dup
221176;223223;dup
221209;221771;dup
221222;222145;dup
221330;221618;dup
221340;221341;dup
221365;221368;dup
214788;221738;dup
221512;221516;dup
221519;221881;dup
221588;224003;dup
221636;221831;dup
221641;222954;dup
221713;222288;dup
221715;221732;dup
221715;221751;dup
221719;221975;dup
221732;221751;dup
221733;221736;dup
221768;222033;dup
221768;224147;dup
221776;222328;dup
221812;222065;dup
221863;221864;dup
221878;222021;dup
221884;214841;dup
221884;222692;dup
221946;222085;dup
214841;222692;dup
222005;222586;dup
222015;222067;dup
222033;224147;dup
222060;222177;dup
222090;224069;dup
222205;222206;dup
222272;223088;dup
222272;223119;dup
222272;223311;dup
222321;222681;dup
222321;222682;dup
222323;222367;dup
222341;222362;dup
222392;222743;dup
222504;223272;dup
222509;222812;dup
222509;224006;dup
222512;223743;dup
222535;222901;dup
222576;222580;dup
222576;223073;dup
222580;223073;dup
222590;222627;dup
222672;222673;dup
222672;222730;dup
222673;222730;dup
222681;222682;dup
222757;223448;dup
222812;224006;dup
222838;223981;dup
222921;223746;dup
214934;214935;dup
214934;214936;dup
214935;214936;dup
222947;223074;dup
223004;223694;dup
223037;223038;dup
223088;223119;dup
223088;223311;dup
223105;223157;dup
223119;223311;dup
223122;224011;dup
223255;223256;dup
223338;223735;dup
223341;223931;dup
223347;223451;dup
223413;223821;dup
223433;223583;dup
223463;223796;dup
214988;214989;dup
214988;214990;dup
214988;214991;dup
214988;215040;dup
214989;214990;dup
214989;214991;dup
214989;215040;dup
214990;214991;dup
214990;215040;dup
214991;215040;dup
223529;224138;dup
223544;224000;dup
223597;223618;dup
223597;223622;dup
223600;223601;dup
223600;223602;dup
223601;223602;dup
223618;223622;dup
223646;224106;dup
223688;223706;dup
223790;223801;dup
223790;224103;dup
223801;224103;dup
223813;224052;dup
223816;223847;dup
223828;224050;dup
223866;223895;dup
223878;223936;dup
223888;223893;dup
224021;224023;dup
224033;224036;dup
224101;224153;dup
224107;224156;dup
224141;224142;dup
