
J48 pruned tree
------------------

cosine_similarity <= 0.995
|   comp <= 0
|   |   bmfu <= 2.37
|   |   |    datastructures2 <= 1.1
|   |   |   |    syscalls2 <= 2.91
|   |   |   |   |   bmfu <= 1.16: non (72.0/1.0)
|   |   |   |   |   bmfu > 1.16
|   |   |   |   |   |    basics2 <= 0.89: dup (5.0)
|   |   |   |   |   |    basics2 > 0.89: non (5.0)
|   |   |   |    syscalls2 > 2.91
|   |   |   |   |    datastructures2 <= 1.01: non (4.0)
|   |   |   |   |    datastructures2 > 1.01: dup (27.0/1.0)
|   |   |    datastructures2 > 1.1
|   |   |   |    interrupts2 <= 1.78
|   |   |   |   |    interrupts2 <= 1.77
|   |   |   |   |   |    syscalls2 <= 6.08
|   |   |   |   |   |   |   bmfu <= 1.33: non (321.0/1.0)
|   |   |   |   |   |   |   bmfu > 1.33
|   |   |   |   |   |   |   |   bmfu <= 1.37: dup (2.0)
|   |   |   |   |   |   |   |   bmfu > 1.37
|   |   |   |   |   |   |   |   |    synchronisation2 <= 2.08
|   |   |   |   |   |   |   |   |   |    memory2 <= 1: non (5.0)
|   |   |   |   |   |   |   |   |   |    memory2 > 1: dup (2.0)
|   |   |   |   |   |   |   |   |    synchronisation2 > 2.08: non (24.0)
|   |   |   |   |   |    syscalls2 > 6.08
|   |   |   |   |   |   |    memory2 <= 6.12: non (11.0)
|   |   |   |   |   |   |    memory2 > 6.12: dup (8.0/1.0)
|   |   |   |   |    interrupts2 > 1.77
|   |   |   |   |   |    basics2 <= 6.72: non (2.0)
|   |   |   |   |   |    basics2 > 6.72: dup (31.0/1.0)
|   |   |   |    interrupts2 > 1.78
|   |   |   |   |    IO2 <= 2.66
|   |   |   |   |   |   bmfu <= 0.71
|   |   |   |   |   |   |   cosine_similarity <= 0.94: non (59.0)
|   |   |   |   |   |   |   cosine_similarity > 0.94
|   |   |   |   |   |   |   |   type <= 0: non (4.0)
|   |   |   |   |   |   |   |   type > 0: dup (2.0)
|   |   |   |   |   |   bmfu > 0.71
|   |   |   |   |   |   |     process2 <= 2.44
|   |   |   |   |   |   |   |    basics2 <= 3.77: dup (15.0)
|   |   |   |   |   |   |   |    basics2 > 3.77: non (4.0/1.0)
|   |   |   |   |   |   |     process2 > 2.44: non (10.0)
|   |   |   |   |    IO2 > 2.66
|   |   |   |   |   |    IO1 <= 2.41
|   |   |   |   |   |   |    devices1 <= 3.56
|   |   |   |   |   |   |   |   bmfu <= 1.29: non (165.0/1.0)
|   |   |   |   |   |   |   |   bmfu > 1.29
|   |   |   |   |   |   |   |   |    debugging1 <= 2.53
|   |   |   |   |   |   |   |   |   |   bmfu <= 1.34: dup (7.0)
|   |   |   |   |   |   |   |   |   |   bmfu > 1.34
|   |   |   |   |   |   |   |   |   |   |    IO1 <= 1.33
|   |   |   |   |   |   |   |   |   |   |   |    syscalls1 <= 1.85
|   |   |   |   |   |   |   |   |   |   |   |   |    portability1 <= 0.64: dup (5.0/1.0)
|   |   |   |   |   |   |   |   |   |   |   |   |    portability1 > 0.64: non (5.0)
|   |   |   |   |   |   |   |   |   |   |   |    syscalls1 > 1.85: dup (3.0)
|   |   |   |   |   |   |   |   |   |   |    IO1 > 1.33: non (7.0)
|   |   |   |   |   |   |   |   |    debugging1 > 2.53: non (12.0)
|   |   |   |   |   |   |    devices1 > 3.56
|   |   |   |   |   |   |   |    debugging2 <= 11.59: dup (15.0)
|   |   |   |   |   |   |   |    debugging2 > 11.59: non (3.0)
|   |   |   |   |   |    IO1 > 2.41
|   |   |   |   |   |   |   bmfu <= 1.28
|   |   |   |   |   |   |   |     memoryManagement1 <= 1.11
|   |   |   |   |   |   |   |   |     memoryManagement1 <= 1.05: non (54.0)
|   |   |   |   |   |   |   |   |     memoryManagement1 > 1.05
|   |   |   |   |   |   |   |   |   |    basics2 <= 7.94: non (2.0)
|   |   |   |   |   |   |   |   |   |    basics2 > 7.94: dup (5.0)
|   |   |   |   |   |   |   |     memoryManagement1 > 1.11: non (6523.0/44.0)
|   |   |   |   |   |   |   bmfu > 1.28
|   |   |   |   |   |   |   |   type <= 0
|   |   |   |   |   |   |   |   |    synchronisation2 <= 6.43
|   |   |   |   |   |   |   |   |   |    maintaninence2 <= 10.63
|   |   |   |   |   |   |   |   |   |   |   vers <= 0.09
|   |   |   |   |   |   |   |   |   |   |   |    synchronisation2 <= 6.23
|   |   |   |   |   |   |   |   |   |   |   |   |    basics2 <= 2.81: dup (6.0/1.0)
|   |   |   |   |   |   |   |   |   |   |   |   |    basics2 > 2.81: non (19.0/1.0)
|   |   |   |   |   |   |   |   |   |   |   |    synchronisation2 > 6.23: dup (4.0)
|   |   |   |   |   |   |   |   |   |   |   vers > 0.09: non (9.0)
|   |   |   |   |   |   |   |   |   |    maintaninence2 > 10.63: dup (7.0)
|   |   |   |   |   |   |   |   |    synchronisation2 > 6.43
|   |   |   |   |   |   |   |   |   |    debugging2 <= 8.77
|   |   |   |   |   |   |   |   |   |   |    IO1 <= 9.88
|   |   |   |   |   |   |   |   |   |   |   |    datastructures2 <= 7.6: non (13.0)
|   |   |   |   |   |   |   |   |   |   |   |    datastructures2 > 7.6
|   |   |   |   |   |   |   |   |   |   |   |   |    basics1 <= 7.78
|   |   |   |   |   |   |   |   |   |   |   |   |   |    basics1 <= 2.88: dup (3.0)
|   |   |   |   |   |   |   |   |   |   |   |   |   |    basics1 > 2.88
|   |   |   |   |   |   |   |   |   |   |   |   |   |   |    datastructures2 <= 8.61: dup (3.0/1.0)
|   |   |   |   |   |   |   |   |   |   |   |   |   |   |    datastructures2 > 8.61: non (10.0)
|   |   |   |   |   |   |   |   |   |   |   |   |    basics1 > 7.78: dup (9.0)
|   |   |   |   |   |   |   |   |   |   |    IO1 > 9.88: non (65.0/2.0)
|   |   |   |   |   |   |   |   |   |    debugging2 > 8.77: non (253.0/4.0)
|   |   |   |   |   |   |   |   type > 0
|   |   |   |   |   |   |   |   |   cosine_similarity <= 0.92
|   |   |   |   |   |   |   |   |   |   vers <= 0
|   |   |   |   |   |   |   |   |   |   |     process2 <= 4.79: non (64.0/2.0)
|   |   |   |   |   |   |   |   |   |   |     process2 > 4.79
|   |   |   |   |   |   |   |   |   |   |   |    basics2 <= 4.1: dup (5.0)
|   |   |   |   |   |   |   |   |   |   |   |    basics2 > 4.1
|   |   |   |   |   |   |   |   |   |   |   |   |     memoryManagement1 <= 2.38
|   |   |   |   |   |   |   |   |   |   |   |   |   |     memoryManagement2 <= 7.57: non (4.0)
|   |   |   |   |   |   |   |   |   |   |   |   |   |     memoryManagement2 > 7.57: dup (5.0)
|   |   |   |   |   |   |   |   |   |   |   |   |     memoryManagement1 > 2.38
|   |   |   |   |   |   |   |   |   |   |   |   |   |    datastructures2 <= 9.93
|   |   |   |   |   |   |   |   |   |   |   |   |   |   |    synchronisation1 <= 5.56: non (6.0)
|   |   |   |   |   |   |   |   |   |   |   |   |   |   |    synchronisation1 > 5.56: dup (4.0/1.0)
|   |   |   |   |   |   |   |   |   |   |   |   |   |    datastructures2 > 9.93: non (26.0)
|   |   |   |   |   |   |   |   |   |   vers > 0: non (56.0)
|   |   |   |   |   |   |   |   |   cosine_similarity > 0.92: non (1667.0/38.0)
|   |   bmfu > 2.37
|   |   |    IO1 <= 3.13
|   |   |   |    synchronisation1 <= 3.67
|   |   |   |   |    portability1 <= 3.14
|   |   |   |   |   |     process2 <= 0.76
|   |   |   |   |   |   |     process1 <= 0.49: non (5.0)
|   |   |   |   |   |   |     process1 > 0.49: dup (2.0)
|   |   |   |   |   |     process2 > 0.76
|   |   |   |   |   |   |    debugging2 <= 13.8
|   |   |   |   |   |   |   |    basics1 <= 1.95
|   |   |   |   |   |   |   |   |    datastructures1 <= 0.92: dup (22.0)
|   |   |   |   |   |   |   |   |    datastructures1 > 0.92: non (4.0)
|   |   |   |   |   |   |   |    basics1 > 1.95: dup (94.0/1.0)
|   |   |   |   |   |   |    debugging2 > 13.8: non (4.0/1.0)
|   |   |   |   |    portability1 > 3.14
|   |   |   |   |   |    IO1 <= 1.89: dup (5.0)
|   |   |   |   |   |    IO1 > 1.89: non (6.0)
|   |   |   |    synchronisation1 > 3.67
|   |   |   |   |   bmfb <= 5.79: non (13.0)
|   |   |   |   |   bmfb > 5.79: dup (8.0/1.0)
|   |   |    IO1 > 3.13
|   |   |   |    debugging1 <= 3.78
|   |   |   |   |   vers <= 0.34
|   |   |   |   |   |   bmfu <= 4.71
|   |   |   |   |   |   |   bmfb <= 0.3
|   |   |   |   |   |   |   |    datastructures1 <= 2.19: non (4.0)
|   |   |   |   |   |   |   |    datastructures1 > 2.19
|   |   |   |   |   |   |   |   |    basics2 <= 10.67
|   |   |   |   |   |   |   |   |   |   cosine_similarity <= 0.92
|   |   |   |   |   |   |   |   |   |   |    interrupts1 <= 1.23: non (3.0/1.0)
|   |   |   |   |   |   |   |   |   |   |    interrupts1 > 1.23: dup (16.0/1.0)
|   |   |   |   |   |   |   |   |   |   cosine_similarity > 0.92: non (10.0/2.0)
|   |   |   |   |   |   |   |   |    basics2 > 10.67: dup (10.0)
|   |   |   |   |   |   |   bmfb > 0.3
|   |   |   |   |   |   |   |    devices1 <= 4.21
|   |   |   |   |   |   |   |   |    devices1 <= 1.23
|   |   |   |   |   |   |   |   |   |    maintaninence1 <= 3.71: non (5.0)
|   |   |   |   |   |   |   |   |   |    maintaninence1 > 3.71: dup (7.0)
|   |   |   |   |   |   |   |   |    devices1 > 1.23: non (31.0)
|   |   |   |   |   |   |   |    devices1 > 4.21: dup (5.0/1.0)
|   |   |   |   |   |   bmfu > 4.71
|   |   |   |   |   |   |    syscalls2 <= 5.93
|   |   |   |   |   |   |   |    portability1 <= 3.08
|   |   |   |   |   |   |   |   |    basics1 <= 2.19
|   |   |   |   |   |   |   |   |   |   bmfb <= 3.27: dup (3.0)
|   |   |   |   |   |   |   |   |   |   bmfb > 3.27: non (5.0)
|   |   |   |   |   |   |   |   |    basics1 > 2.19: dup (36.0/1.0)
|   |   |   |   |   |   |   |    portability1 > 3.08
|   |   |   |   |   |   |   |   |     memoryManagement1 <= 6.25
|   |   |   |   |   |   |   |   |   |    maintaninence1 <= 2.13: dup (3.0)
|   |   |   |   |   |   |   |   |   |    maintaninence1 > 2.13
|   |   |   |   |   |   |   |   |   |   |     memoryManagement2 <= 9.44: non (20.0)
|   |   |   |   |   |   |   |   |   |   |     memoryManagement2 > 9.44: dup (2.0)
|   |   |   |   |   |   |   |   |     memoryManagement1 > 6.25: dup (4.0)
|   |   |   |   |   |   |    syscalls2 > 5.93: dup (40.0)
|   |   |   |   |   vers > 0.34: dup (40.0/1.0)
|   |   |   |    debugging1 > 3.78
|   |   |   |   |   type <= 0
|   |   |   |   |   |    debugging2 <= 11.46
|   |   |   |   |   |   |    basics2 <= 4.55: dup (56.0/2.0)
|   |   |   |   |   |   |    basics2 > 4.55
|   |   |   |   |   |   |   |    portability1 <= 8.58
|   |   |   |   |   |   |   |   |    syscalls2 <= 5.93
|   |   |   |   |   |   |   |   |   |     memoryManagement2 <= 8.97
|   |   |   |   |   |   |   |   |   |   |   vers <= 0.09
|   |   |   |   |   |   |   |   |   |   |   |    basics2 <= 6.73
|   |   |   |   |   |   |   |   |   |   |   |   |    syscalls1 <= 4.38: non (11.0)
|   |   |   |   |   |   |   |   |   |   |   |   |    syscalls1 > 4.38
|   |   |   |   |   |   |   |   |   |   |   |   |   |    maintaninence1 <= 8.58: dup (4.0)
|   |   |   |   |   |   |   |   |   |   |   |   |   |    maintaninence1 > 8.58: non (4.0)
|   |   |   |   |   |   |   |   |   |   |   |    basics2 > 6.73
|   |   |   |   |   |   |   |   |   |   |   |   |    debugging2 <= 10.68
|   |   |   |   |   |   |   |   |   |   |   |   |   |    syscalls2 <= 4.47: non (3.0)
|   |   |   |   |   |   |   |   |   |   |   |   |   |    syscalls2 > 4.47
|   |   |   |   |   |   |   |   |   |   |   |   |   |   |    portability1 <= 3.99
|   |   |   |   |   |   |   |   |   |   |   |   |   |   |   |   bmfu <= 3.4: non (2.0)
|   |   |   |   |   |   |   |   |   |   |   |   |   |   |   |   bmfu > 3.4: dup (2.0)
|   |   |   |   |   |   |   |   |   |   |   |   |   |   |    portability1 > 3.99: dup (19.0)
|   |   |   |   |   |   |   |   |   |   |   |   |    debugging2 > 10.68: non (3.0)
|   |   |   |   |   |   |   |   |   |   |   vers > 0.09: dup (4.0)
|   |   |   |   |   |   |   |   |   |     memoryManagement2 > 8.97: non (9.0)
|   |   |   |   |   |   |   |   |    syscalls2 > 5.93
|   |   |   |   |   |   |   |   |   |    IO2 <= 8.37: dup (54.0/1.0)
|   |   |   |   |   |   |   |   |   |    IO2 > 8.37
|   |   |   |   |   |   |   |   |   |   |    devices2 <= 8.41
|   |   |   |   |   |   |   |   |   |   |   |    interrupts2 <= 9.78
|   |   |   |   |   |   |   |   |   |   |   |   |    debugging2 <= 7.8
|   |   |   |   |   |   |   |   |   |   |   |   |   |     process1 <= 2.38: dup (2.0)
|   |   |   |   |   |   |   |   |   |   |   |   |   |     process1 > 2.38: non (8.0)
|   |   |   |   |   |   |   |   |   |   |   |   |    debugging2 > 7.8
|   |   |   |   |   |   |   |   |   |   |   |   |   |    memory1 <= 9.34
|   |   |   |   |   |   |   |   |   |   |   |   |   |   |    interrupts1 <= 3.07: non (6.0/1.0)
|   |   |   |   |   |   |   |   |   |   |   |   |   |   |    interrupts1 > 3.07
|   |   |   |   |   |   |   |   |   |   |   |   |   |   |   |    basics1 <= 5.49
|   |   |   |   |   |   |   |   |   |   |   |   |   |   |   |   |    datastructures1 <= 5.5: dup (2.0)
|   |   |   |   |   |   |   |   |   |   |   |   |   |   |   |   |    datastructures1 > 5.5: non (3.0)
|   |   |   |   |   |   |   |   |   |   |   |   |   |   |   |    basics1 > 5.49: dup (39.0/1.0)
|   |   |   |   |   |   |   |   |   |   |   |   |   |    memory1 > 9.34: non (4.0)
|   |   |   |   |   |   |   |   |   |   |   |    interrupts2 > 9.78: non (6.0)
|   |   |   |   |   |   |   |   |   |   |    devices2 > 8.41: dup (37.0/1.0)
|   |   |   |   |   |   |   |    portability1 > 8.58
|   |   |   |   |   |   |   |   |   bmfu <= 4.14
|   |   |   |   |   |   |   |   |   |    synchronisation2 <= 6.21: dup (2.0)
|   |   |   |   |   |   |   |   |   |    synchronisation2 > 6.21: non (33.0/1.0)
|   |   |   |   |   |   |   |   |   bmfu > 4.14
|   |   |   |   |   |   |   |   |   |    memory1 <= 9.8
|   |   |   |   |   |   |   |   |   |   |    IO2 <= 10.89
|   |   |   |   |   |   |   |   |   |   |   |    basics2 <= 8.57: dup (7.0/1.0)
|   |   |   |   |   |   |   |   |   |   |   |    basics2 > 8.57: non (6.0/1.0)
|   |   |   |   |   |   |   |   |   |   |    IO2 > 10.89: dup (11.0)
|   |   |   |   |   |   |   |   |   |    memory1 > 9.8: non (11.0/1.0)
|   |   |   |   |   |    debugging2 > 11.46
|   |   |   |   |   |   |   bmfb <= 1.4
|   |   |   |   |   |   |   |    synchronisation1 <= 6.12
|   |   |   |   |   |   |   |   |   bmfu <= 3.97: non (7.0)
|   |   |   |   |   |   |   |   |   bmfu > 3.97: dup (4.0)
|   |   |   |   |   |   |   |    synchronisation1 > 6.12: non (96.0/3.0)
|   |   |   |   |   |   |   bmfb > 1.4
|   |   |   |   |   |   |   |    maintaninence1 <= 14.9
|   |   |   |   |   |   |   |   |    synchronisation1 <= 13.92
|   |   |   |   |   |   |   |   |   |    datastructures1 <= 5.9: dup (4.0)
|   |   |   |   |   |   |   |   |   |    datastructures1 > 5.9
|   |   |   |   |   |   |   |   |   |   |     memoryManagement1 <= 8.12
|   |   |   |   |   |   |   |   |   |   |   |    basics1 <= 9.21: non (13.0/1.0)
|   |   |   |   |   |   |   |   |   |   |   |    basics1 > 9.21: dup (9.0/1.0)
|   |   |   |   |   |   |   |   |   |   |     memoryManagement1 > 8.12: non (19.0/1.0)
|   |   |   |   |   |   |   |   |    synchronisation1 > 13.92: dup (14.0/1.0)
|   |   |   |   |   |   |   |    maintaninence1 > 14.9: non (12.0)
|   |   |   |   |   type > 0
|   |   |   |   |   |   prior <= 0.5
|   |   |   |   |   |   |    IO1 <= 15.52: dup (20.0)
|   |   |   |   |   |   |    IO1 > 15.52
|   |   |   |   |   |   |   |    debugging2 <= 10.23: dup (4.0)
|   |   |   |   |   |   |   |    debugging2 > 10.23: non (7.0)
|   |   |   |   |   |   prior > 0.5
|   |   |   |   |   |   |   bmfu <= 3.62
|   |   |   |   |   |   |   |     memoryManagement2 <= 2.99
|   |   |   |   |   |   |   |   |    basics2 <= 3.5
|   |   |   |   |   |   |   |   |   |     memoryManagement2 <= 0.97: non (5.0)
|   |   |   |   |   |   |   |   |   |     memoryManagement2 > 0.97
|   |   |   |   |   |   |   |   |   |   |    portability1 <= 8.45
|   |   |   |   |   |   |   |   |   |   |   |     process1 <= 2.67: non (2.0)
|   |   |   |   |   |   |   |   |   |   |   |     process1 > 2.67: dup (19.0)
|   |   |   |   |   |   |   |   |   |   |    portability1 > 8.45: non (5.0/1.0)
|   |   |   |   |   |   |   |   |    basics2 > 3.5: non (16.0/1.0)
|   |   |   |   |   |   |   |     memoryManagement2 > 2.99
|   |   |   |   |   |   |   |   |    debugging2 <= 4.86
|   |   |   |   |   |   |   |   |   |    basics2 <= 6.6
|   |   |   |   |   |   |   |   |   |   |    portability2 <= 2: dup (4.0/1.0)
|   |   |   |   |   |   |   |   |   |   |    portability2 > 2
|   |   |   |   |   |   |   |   |   |   |   |    debugging2 <= 4.56: non (31.0)
|   |   |   |   |   |   |   |   |   |   |   |    debugging2 > 4.56
|   |   |   |   |   |   |   |   |   |   |   |   |     memoryManagement1 <= 7.78: non (4.0)
|   |   |   |   |   |   |   |   |   |   |   |   |     memoryManagement1 > 7.78: dup (3.0)
|   |   |   |   |   |   |   |   |   |    basics2 > 6.6: dup (7.0/1.0)
|   |   |   |   |   |   |   |   |    debugging2 > 4.86: non (920.0/56.0)
|   |   |   |   |   |   |   bmfu > 3.62
|   |   |   |   |   |   |   |   bmfb <= 0.08
|   |   |   |   |   |   |   |   |    portability2 <= 12.11
|   |   |   |   |   |   |   |   |   |    debugging2 <= 6.35
|   |   |   |   |   |   |   |   |   |   |   vers <= 0.09: dup (32.0/1.0)
|   |   |   |   |   |   |   |   |   |   |   vers > 0.09
|   |   |   |   |   |   |   |   |   |   |   |   vers <= 0.25: non (2.0)
|   |   |   |   |   |   |   |   |   |   |   |   vers > 0.25: dup (8.0/1.0)
|   |   |   |   |   |   |   |   |   |    debugging2 > 6.35
|   |   |   |   |   |   |   |   |   |   |   bmfu <= 4.94
|   |   |   |   |   |   |   |   |   |   |   |    debugging1 <= 9.08
|   |   |   |   |   |   |   |   |   |   |   |   |    memory1 <= 4.66: non (13.0/1.0)
|   |   |   |   |   |   |   |   |   |   |   |   |    memory1 > 4.66
|   |   |   |   |   |   |   |   |   |   |   |   |   |   vers <= 0.34
|   |   |   |   |   |   |   |   |   |   |   |   |   |   |    maintaninence1 <= 5.8: non (2.0)
|   |   |   |   |   |   |   |   |   |   |   |   |   |   |    maintaninence1 > 5.8
|   |   |   |   |   |   |   |   |   |   |   |   |   |   |   |   vers <= 0
|   |   |   |   |   |   |   |   |   |   |   |   |   |   |   |   |    basics1 <= 5.9: non (2.0)
|   |   |   |   |   |   |   |   |   |   |   |   |   |   |   |   |    basics1 > 5.9
|   |   |   |   |   |   |   |   |   |   |   |   |   |   |   |   |   |    syscalls1 <= 7.62: dup (17.0)
|   |   |   |   |   |   |   |   |   |   |   |   |   |   |   |   |   |    syscalls1 > 7.62: non (2.0)
|   |   |   |   |   |   |   |   |   |   |   |   |   |   |   |   vers > 0: dup (6.0)
|   |   |   |   |   |   |   |   |   |   |   |   |   |   vers > 0.34: non (3.0)
|   |   |   |   |   |   |   |   |   |   |   |    debugging1 > 9.08
|   |   |   |   |   |   |   |   |   |   |   |   |   cosine_similarity <= 0.956
|   |   |   |   |   |   |   |   |   |   |   |   |   |    basics1 <= 8.18: non (2.0)
|   |   |   |   |   |   |   |   |   |   |   |   |   |    basics1 > 8.18: dup (4.0)
|   |   |   |   |   |   |   |   |   |   |   |   |   cosine_similarity > 0.956
|   |   |   |   |   |   |   |   |   |   |   |   |   |     process2 <= 10.33
|   |   |   |   |   |   |   |   |   |   |   |   |   |   |    portability2 <= 7.73
|   |   |   |   |   |   |   |   |   |   |   |   |   |   |   |    basics2 <= 9.7: non (4.0)
|   |   |   |   |   |   |   |   |   |   |   |   |   |   |   |    basics2 > 9.7: dup (2.0)
|   |   |   |   |   |   |   |   |   |   |   |   |   |   |    portability2 > 7.73: non (28.0)
|   |   |   |   |   |   |   |   |   |   |   |   |   |     process2 > 10.33: dup (2.0)
|   |   |   |   |   |   |   |   |   |   |   bmfu > 4.94
|   |   |   |   |   |   |   |   |   |   |   |    debugging2 <= 11.51
|   |   |   |   |   |   |   |   |   |   |   |   |     memoryManagement1 <= 9.48: dup (38.0)
|   |   |   |   |   |   |   |   |   |   |   |   |     memoryManagement1 > 9.48
|   |   |   |   |   |   |   |   |   |   |   |   |   |     process2 <= 4.69: non (4.0)
|   |   |   |   |   |   |   |   |   |   |   |   |   |     process2 > 4.69: dup (6.0)
|   |   |   |   |   |   |   |   |   |   |   |    debugging2 > 11.51
|   |   |   |   |   |   |   |   |   |   |   |   |    maintaninence2 <= 10.93: non (6.0)
|   |   |   |   |   |   |   |   |   |   |   |   |    maintaninence2 > 10.93
|   |   |   |   |   |   |   |   |   |   |   |   |   |    syscalls2 <= 9.54: dup (10.0/1.0)
|   |   |   |   |   |   |   |   |   |   |   |   |   |    syscalls2 > 9.54: non (3.0)
|   |   |   |   |   |   |   |   |    portability2 > 12.11
|   |   |   |   |   |   |   |   |   |    debugging2 <= 20.71: non (35.0/1.0)
|   |   |   |   |   |   |   |   |   |    debugging2 > 20.71: dup (2.0)
|   |   |   |   |   |   |   |   bmfb > 0.08
|   |   |   |   |   |   |   |   |   vers <= 0.22
|   |   |   |   |   |   |   |   |   |    maintaninence2 <= 10.24
|   |   |   |   |   |   |   |   |   |   |    portability2 <= 2.55
|   |   |   |   |   |   |   |   |   |   |   |    maintaninence1 <= 11
|   |   |   |   |   |   |   |   |   |   |   |   |    devices1 <= 2.78: non (6.0)
|   |   |   |   |   |   |   |   |   |   |   |   |    devices1 > 2.78
|   |   |   |   |   |   |   |   |   |   |   |   |   |     process1 <= 2.98: dup (5.0)
|   |   |   |   |   |   |   |   |   |   |   |   |   |     process1 > 2.98
|   |   |   |   |   |   |   |   |   |   |   |   |   |   |    maintaninence2 <= 4.67
|   |   |   |   |   |   |   |   |   |   |   |   |   |   |   |    synchronisation1 <= 9: non (9.0)
|   |   |   |   |   |   |   |   |   |   |   |   |   |   |   |    synchronisation1 > 9: dup (3.0/1.0)
|   |   |   |   |   |   |   |   |   |   |   |   |   |   |    maintaninence2 > 4.67: dup (3.0)
|   |   |   |   |   |   |   |   |   |   |   |    maintaninence1 > 11: dup (8.0)
|   |   |   |   |   |   |   |   |   |   |    portability2 > 2.55
|   |   |   |   |   |   |   |   |   |   |   |    synchronisation1 <= 8.72
|   |   |   |   |   |   |   |   |   |   |   |   |    synchronisation2 <= 10.33
|   |   |   |   |   |   |   |   |   |   |   |   |   |    memory2 <= 4.78: non (316.0/6.0)
|   |   |   |   |   |   |   |   |   |   |   |   |   |    memory2 > 4.78
|   |   |   |   |   |   |   |   |   |   |   |   |   |   |    devices2 <= 5.5
|   |   |   |   |   |   |   |   |   |   |   |   |   |   |   |    memory1 <= 9.06
|   |   |   |   |   |   |   |   |   |   |   |   |   |   |   |   |    interrupts1 <= 3.56
|   |   |   |   |   |   |   |   |   |   |   |   |   |   |   |   |   |    devices2 <= 3.95: non (12.0)
|   |   |   |   |   |   |   |   |   |   |   |   |   |   |   |   |   |    devices2 > 3.95
|   |   |   |   |   |   |   |   |   |   |   |   |   |   |   |   |   |   |    syscalls1 <= 4.36: dup (8.0)
|   |   |   |   |   |   |   |   |   |   |   |   |   |   |   |   |   |   |    syscalls1 > 4.36: non (2.0)
|   |   |   |   |   |   |   |   |   |   |   |   |   |   |   |   |    interrupts1 > 3.56: non (122.0/9.0)
|   |   |   |   |   |   |   |   |   |   |   |   |   |   |   |    memory1 > 9.06
|   |   |   |   |   |   |   |   |   |   |   |   |   |   |   |   |     process1 <= 5.03: dup (5.0)
|   |   |   |   |   |   |   |   |   |   |   |   |   |   |   |   |     process1 > 5.03: non (3.0)
|   |   |   |   |   |   |   |   |   |   |   |   |   |   |    devices2 > 5.5: non (87.0/1.0)
|   |   |   |   |   |   |   |   |   |   |   |   |    synchronisation2 > 10.33
|   |   |   |   |   |   |   |   |   |   |   |   |   |     process1 <= 1.7: dup (4.0)
|   |   |   |   |   |   |   |   |   |   |   |   |   |     process1 > 1.7
|   |   |   |   |   |   |   |   |   |   |   |   |   |   |    memory2 <= 11.06
|   |   |   |   |   |   |   |   |   |   |   |   |   |   |   |    debugging2 <= 10.16
|   |   |   |   |   |   |   |   |   |   |   |   |   |   |   |   |    debugging1 <= 7: dup (3.0)
|   |   |   |   |   |   |   |   |   |   |   |   |   |   |   |   |    debugging1 > 7: non (10.0/1.0)
|   |   |   |   |   |   |   |   |   |   |   |   |   |   |   |    debugging2 > 10.16: non (20.0)
|   |   |   |   |   |   |   |   |   |   |   |   |   |   |    memory2 > 11.06: dup (3.0)
|   |   |   |   |   |   |   |   |   |   |   |    synchronisation1 > 8.72
|   |   |   |   |   |   |   |   |   |   |   |   |    synchronisation1 <= 15.13
|   |   |   |   |   |   |   |   |   |   |   |   |   |    debugging1 <= 8.27
|   |   |   |   |   |   |   |   |   |   |   |   |   |   |    IO1 <= 8.01: non (16.0)
|   |   |   |   |   |   |   |   |   |   |   |   |   |   |    IO1 > 8.01
|   |   |   |   |   |   |   |   |   |   |   |   |   |   |   |    devices2 <= 4.52
|   |   |   |   |   |   |   |   |   |   |   |   |   |   |   |   |    debugging1 <= 5.48: dup (4.0)
|   |   |   |   |   |   |   |   |   |   |   |   |   |   |   |   |    debugging1 > 5.48
|   |   |   |   |   |   |   |   |   |   |   |   |   |   |   |   |   |    datastructures1 <= 10.07: non (20.0)
|   |   |   |   |   |   |   |   |   |   |   |   |   |   |   |   |   |    datastructures1 > 10.07: dup (4.0/1.0)
|   |   |   |   |   |   |   |   |   |   |   |   |   |   |   |    devices2 > 4.52
|   |   |   |   |   |   |   |   |   |   |   |   |   |   |   |   |     process1 <= 2.75: non (4.0)
|   |   |   |   |   |   |   |   |   |   |   |   |   |   |   |   |     process1 > 2.75
|   |   |   |   |   |   |   |   |   |   |   |   |   |   |   |   |   |    maintaninence2 <= 9.93: dup (28.0/1.0)
|   |   |   |   |   |   |   |   |   |   |   |   |   |   |   |   |   |    maintaninence2 > 9.93: non (2.0)
|   |   |   |   |   |   |   |   |   |   |   |   |   |    debugging1 > 8.27
|   |   |   |   |   |   |   |   |   |   |   |   |   |   |    interrupts2 <= 4.35
|   |   |   |   |   |   |   |   |   |   |   |   |   |   |   |   bmfu <= 17.64
|   |   |   |   |   |   |   |   |   |   |   |   |   |   |   |   |    syscalls2 <= 5.87
|   |   |   |   |   |   |   |   |   |   |   |   |   |   |   |   |   |    synchronisation1 <= 8.92: dup (3.0)
|   |   |   |   |   |   |   |   |   |   |   |   |   |   |   |   |   |    synchronisation1 > 8.92
|   |   |   |   |   |   |   |   |   |   |   |   |   |   |   |   |   |   |    IO1 <= 11.05: non (25.0)
|   |   |   |   |   |   |   |   |   |   |   |   |   |   |   |   |   |   |    IO1 > 11.05
|   |   |   |   |   |   |   |   |   |   |   |   |   |   |   |   |   |   |   |    datastructures2 <= 5.93
|   |   |   |   |   |   |   |   |   |   |   |   |   |   |   |   |   |   |   |   |    portability1 <= 7.45: dup (2.0)
|   |   |   |   |   |   |   |   |   |   |   |   |   |   |   |   |   |   |   |   |    portability1 > 7.45: non (18.0/1.0)
|   |   |   |   |   |   |   |   |   |   |   |   |   |   |   |   |   |   |   |    datastructures2 > 5.93: dup (5.0/1.0)
|   |   |   |   |   |   |   |   |   |   |   |   |   |   |   |   |    syscalls2 > 5.87
|   |   |   |   |   |   |   |   |   |   |   |   |   |   |   |   |   |    devices1 <= 7.87: dup (9.0)
|   |   |   |   |   |   |   |   |   |   |   |   |   |   |   |   |   |    devices1 > 7.87: non (2.0)
|   |   |   |   |   |   |   |   |   |   |   |   |   |   |   |   bmfu > 17.64: dup (7.0)
|   |   |   |   |   |   |   |   |   |   |   |   |   |   |    interrupts2 > 4.35
|   |   |   |   |   |   |   |   |   |   |   |   |   |   |   |    datastructures1 <= 13.39
|   |   |   |   |   |   |   |   |   |   |   |   |   |   |   |   |     memoryManagement2 <= 6.71: non (89.0)
|   |   |   |   |   |   |   |   |   |   |   |   |   |   |   |   |     memoryManagement2 > 6.71
|   |   |   |   |   |   |   |   |   |   |   |   |   |   |   |   |   |    interrupts2 <= 6.99
|   |   |   |   |   |   |   |   |   |   |   |   |   |   |   |   |   |   |    syscalls2 <= 7.74
|   |   |   |   |   |   |   |   |   |   |   |   |   |   |   |   |   |   |   |    interrupts1 <= 6.98
|   |   |   |   |   |   |   |   |   |   |   |   |   |   |   |   |   |   |   |   |    maintaninence1 <= 11.19
|   |   |   |   |   |   |   |   |   |   |   |   |   |   |   |   |   |   |   |   |   |    IO1 <= 9.82: dup (3.0/1.0)
|   |   |   |   |   |   |   |   |   |   |   |   |   |   |   |   |   |   |   |   |   |    IO1 > 9.82: non (8.0)
|   |   |   |   |   |   |   |   |   |   |   |   |   |   |   |   |   |   |   |   |    maintaninence1 > 11.19: dup (4.0)
|   |   |   |   |   |   |   |   |   |   |   |   |   |   |   |   |   |   |   |    interrupts1 > 6.98
|   |   |   |   |   |   |   |   |   |   |   |   |   |   |   |   |   |   |   |   |   cosine_similarity <= 0.989: non (27.0)
|   |   |   |   |   |   |   |   |   |   |   |   |   |   |   |   |   |   |   |   |   cosine_similarity > 0.989
|   |   |   |   |   |   |   |   |   |   |   |   |   |   |   |   |   |   |   |   |   |   bmfu <= 14.24: dup (2.0)
|   |   |   |   |   |   |   |   |   |   |   |   |   |   |   |   |   |   |   |   |   |   bmfu > 14.24: non (2.0)
|   |   |   |   |   |   |   |   |   |   |   |   |   |   |   |   |   |   |    syscalls2 > 7.74: dup (5.0/1.0)
|   |   |   |   |   |   |   |   |   |   |   |   |   |   |   |   |   |    interrupts2 > 6.99: non (38.0)
|   |   |   |   |   |   |   |   |   |   |   |   |   |   |   |    datastructures1 > 13.39
|   |   |   |   |   |   |   |   |   |   |   |   |   |   |   |   |    debugging1 <= 13.59: dup (5.0)
|   |   |   |   |   |   |   |   |   |   |   |   |   |   |   |   |    debugging1 > 13.59: non (5.0/1.0)
|   |   |   |   |   |   |   |   |   |   |   |   |    synchronisation1 > 15.13
|   |   |   |   |   |   |   |   |   |   |   |   |   |    portability1 <= 9.09: non (2.0)
|   |   |   |   |   |   |   |   |   |   |   |   |   |    portability1 > 9.09
|   |   |   |   |   |   |   |   |   |   |   |   |   |   |   bmfu <= 5.27: non (3.0/1.0)
|   |   |   |   |   |   |   |   |   |   |   |   |   |   |   bmfu > 5.27: dup (14.0)
|   |   |   |   |   |   |   |   |   |    maintaninence2 > 10.24
|   |   |   |   |   |   |   |   |   |   |   bmfu <= 5.46
|   |   |   |   |   |   |   |   |   |   |   |   cosine_similarity <= 0.951
|   |   |   |   |   |   |   |   |   |   |   |   |    portability1 <= 6.41
|   |   |   |   |   |   |   |   |   |   |   |   |   |    basics1 <= 8.4
|   |   |   |   |   |   |   |   |   |   |   |   |   |   |    synchronisation1 <= 8.86: non (13.0)
|   |   |   |   |   |   |   |   |   |   |   |   |   |   |    synchronisation1 > 8.86: dup (2.0)
|   |   |   |   |   |   |   |   |   |   |   |   |   |    basics1 > 8.4: dup (2.0)
|   |   |   |   |   |   |   |   |   |   |   |   |    portability1 > 6.41: dup (9.0)
|   |   |   |   |   |   |   |   |   |   |   |   cosine_similarity > 0.951: non (127.0/17.0)
|   |   |   |   |   |   |   |   |   |   |   bmfu > 5.46
|   |   |   |   |   |   |   |   |   |   |   |    debugging2 <= 8.08
|   |   |   |   |   |   |   |   |   |   |   |   |     memoryManagement1 <= 4.27: non (3.0)
|   |   |   |   |   |   |   |   |   |   |   |   |     memoryManagement1 > 4.27
|   |   |   |   |   |   |   |   |   |   |   |   |   |    IO2 <= 11.02: dup (25.0/1.0)
|   |   |   |   |   |   |   |   |   |   |   |   |   |    IO2 > 11.02
|   |   |   |   |   |   |   |   |   |   |   |   |   |   |    interrupts1 <= 6.4: dup (2.0)
|   |   |   |   |   |   |   |   |   |   |   |   |   |   |    interrupts1 > 6.4: non (4.0)
|   |   |   |   |   |   |   |   |   |   |   |    debugging2 > 8.08
|   |   |   |   |   |   |   |   |   |   |   |   |   bmfb <= 3.1
|   |   |   |   |   |   |   |   |   |   |   |   |   |   cosine_similarity <= 0.956: dup (14.0)
|   |   |   |   |   |   |   |   |   |   |   |   |   |   cosine_similarity > 0.956
|   |   |   |   |   |   |   |   |   |   |   |   |   |   |    IO2 <= 10.3: dup (7.0)
|   |   |   |   |   |   |   |   |   |   |   |   |   |   |    IO2 > 10.3
|   |   |   |   |   |   |   |   |   |   |   |   |   |   |   |     memoryManagement2 <= 8.84: non (9.0)
|   |   |   |   |   |   |   |   |   |   |   |   |   |   |   |     memoryManagement2 > 8.84
|   |   |   |   |   |   |   |   |   |   |   |   |   |   |   |   |   vers <= 0.09
|   |   |   |   |   |   |   |   |   |   |   |   |   |   |   |   |   |   bmfb <= 1.23: non (7.0/1.0)
|   |   |   |   |   |   |   |   |   |   |   |   |   |   |   |   |   |   bmfb > 1.23
|   |   |   |   |   |   |   |   |   |   |   |   |   |   |   |   |   |   |    IO1 <= 10
|   |   |   |   |   |   |   |   |   |   |   |   |   |   |   |   |   |   |   |    basics1 <= 8.12: dup (2.0)
|   |   |   |   |   |   |   |   |   |   |   |   |   |   |   |   |   |   |   |    basics1 > 8.12: non (3.0)
|   |   |   |   |   |   |   |   |   |   |   |   |   |   |   |   |   |   |    IO1 > 10: dup (11.0)
|   |   |   |   |   |   |   |   |   |   |   |   |   |   |   |   |   vers > 0.09
|   |   |   |   |   |   |   |   |   |   |   |   |   |   |   |   |   |    maintaninence2 <= 13.58: dup (2.0)
|   |   |   |   |   |   |   |   |   |   |   |   |   |   |   |   |   |    maintaninence2 > 13.58: non (2.0)
|   |   |   |   |   |   |   |   |   |   |   |   |   bmfb > 3.1
|   |   |   |   |   |   |   |   |   |   |   |   |   |    memory1 <= 3.82: non (29.0/1.0)
|   |   |   |   |   |   |   |   |   |   |   |   |   |    memory1 > 3.82
|   |   |   |   |   |   |   |   |   |   |   |   |   |   |     memoryManagement2 <= 12.41
|   |   |   |   |   |   |   |   |   |   |   |   |   |   |   |    syscalls1 <= 3.88
|   |   |   |   |   |   |   |   |   |   |   |   |   |   |   |   |    portability1 <= 7.72: dup (9.0)
|   |   |   |   |   |   |   |   |   |   |   |   |   |   |   |   |    portability1 > 7.72: non (2.0)
|   |   |   |   |   |   |   |   |   |   |   |   |   |   |   |    syscalls1 > 3.88
|   |   |   |   |   |   |   |   |   |   |   |   |   |   |   |   |    syscalls1 <= 5.23
|   |   |   |   |   |   |   |   |   |   |   |   |   |   |   |   |   |    maintaninence1 <= 10.18: non (23.0)
|   |   |   |   |   |   |   |   |   |   |   |   |   |   |   |   |   |    maintaninence1 > 10.18
|   |   |   |   |   |   |   |   |   |   |   |   |   |   |   |   |   |   |    interrupts1 <= 4.09: dup (2.0)
|   |   |   |   |   |   |   |   |   |   |   |   |   |   |   |   |   |   |    interrupts1 > 4.09: non (3.0)
|   |   |   |   |   |   |   |   |   |   |   |   |   |   |   |   |    syscalls1 > 5.23
|   |   |   |   |   |   |   |   |   |   |   |   |   |   |   |   |   |   cosine_similarity <= 0.976
|   |   |   |   |   |   |   |   |   |   |   |   |   |   |   |   |   |   |   bmfu <= 15.02
|   |   |   |   |   |   |   |   |   |   |   |   |   |   |   |   |   |   |   |   cosine_similarity <= 0.955: non (4.0)
|   |   |   |   |   |   |   |   |   |   |   |   |   |   |   |   |   |   |   |   cosine_similarity > 0.955
|   |   |   |   |   |   |   |   |   |   |   |   |   |   |   |   |   |   |   |   |    basics1 <= 9.23: dup (12.0)
|   |   |   |   |   |   |   |   |   |   |   |   |   |   |   |   |   |   |   |   |    basics1 > 9.23
|   |   |   |   |   |   |   |   |   |   |   |   |   |   |   |   |   |   |   |   |   |    debugging1 <= 11.08
|   |   |   |   |   |   |   |   |   |   |   |   |   |   |   |   |   |   |   |   |   |   |    maintaninence2 <= 11.38: non (3.0)
|   |   |   |   |   |   |   |   |   |   |   |   |   |   |   |   |   |   |   |   |   |   |    maintaninence2 > 11.38: dup (10.0)
|   |   |   |   |   |   |   |   |   |   |   |   |   |   |   |   |   |   |   |   |   |    debugging1 > 11.08: non (7.0)
|   |   |   |   |   |   |   |   |   |   |   |   |   |   |   |   |   |   |   bmfu > 15.02: non (5.0)
|   |   |   |   |   |   |   |   |   |   |   |   |   |   |   |   |   |   cosine_similarity > 0.976: non (125.0/36.0)
|   |   |   |   |   |   |   |   |   |   |   |   |   |   |     memoryManagement2 > 12.41
|   |   |   |   |   |   |   |   |   |   |   |   |   |   |   |    basics2 <= 11.37: dup (15.0)
|   |   |   |   |   |   |   |   |   |   |   |   |   |   |   |    basics2 > 11.37
|   |   |   |   |   |   |   |   |   |   |   |   |   |   |   |   |     memoryManagement1 <= 13.8
|   |   |   |   |   |   |   |   |   |   |   |   |   |   |   |   |   |    syscalls2 <= 14.19
|   |   |   |   |   |   |   |   |   |   |   |   |   |   |   |   |   |   |    synchronisation1 <= 15.32: non (15.0/1.0)
|   |   |   |   |   |   |   |   |   |   |   |   |   |   |   |   |   |   |    synchronisation1 > 15.32: dup (2.0)
|   |   |   |   |   |   |   |   |   |   |   |   |   |   |   |   |   |    syscalls2 > 14.19: dup (2.0)
|   |   |   |   |   |   |   |   |   |   |   |   |   |   |   |   |     memoryManagement1 > 13.8: dup (5.0)
|   |   |   |   |   |   |   |   |   vers > 0.22
|   |   |   |   |   |   |   |   |   |   vers <= 0.91
|   |   |   |   |   |   |   |   |   |   |     process1 <= 2.39: dup (14.0)
|   |   |   |   |   |   |   |   |   |   |     process1 > 2.39
|   |   |   |   |   |   |   |   |   |   |   |    portability2 <= 7.22
|   |   |   |   |   |   |   |   |   |   |   |   |   vers <= 0.3
|   |   |   |   |   |   |   |   |   |   |   |   |   |    portability2 <= 6.7
|   |   |   |   |   |   |   |   |   |   |   |   |   |   |    portability2 <= 5.81: non (4.0)
|   |   |   |   |   |   |   |   |   |   |   |   |   |   |    portability2 > 5.81: dup (8.0)
|   |   |   |   |   |   |   |   |   |   |   |   |   |    portability2 > 6.7: non (5.0)
|   |   |   |   |   |   |   |   |   |   |   |   |   vers > 0.3
|   |   |   |   |   |   |   |   |   |   |   |   |   |    memory2 <= 6.38
|   |   |   |   |   |   |   |   |   |   |   |   |   |   |    devices2 <= 7.2
|   |   |   |   |   |   |   |   |   |   |   |   |   |   |   |     memoryManagement2 <= 5.57
|   |   |   |   |   |   |   |   |   |   |   |   |   |   |   |   |   bmfb <= 2.81: dup (2.0)
|   |   |   |   |   |   |   |   |   |   |   |   |   |   |   |   |   bmfb > 2.81: non (2.0)
|   |   |   |   |   |   |   |   |   |   |   |   |   |   |   |     memoryManagement2 > 5.57: dup (14.0)
|   |   |   |   |   |   |   |   |   |   |   |   |   |   |    devices2 > 7.2: non (2.0)
|   |   |   |   |   |   |   |   |   |   |   |   |   |    memory2 > 6.38: dup (22.0)
|   |   |   |   |   |   |   |   |   |   |   |    portability2 > 7.22
|   |   |   |   |   |   |   |   |   |   |   |   |   bmfb <= 0.74: non (14.0)
|   |   |   |   |   |   |   |   |   |   |   |   |   bmfb > 0.74
|   |   |   |   |   |   |   |   |   |   |   |   |   |    synchronisation1 <= 6.95: non (9.0)
|   |   |   |   |   |   |   |   |   |   |   |   |   |    synchronisation1 > 6.95
|   |   |   |   |   |   |   |   |   |   |   |   |   |   |    debugging1 <= 7.59: dup (8.0)
|   |   |   |   |   |   |   |   |   |   |   |   |   |   |    debugging1 > 7.59
|   |   |   |   |   |   |   |   |   |   |   |   |   |   |   |    devices1 <= 9.11
|   |   |   |   |   |   |   |   |   |   |   |   |   |   |   |   |    devices2 <= 10.8
|   |   |   |   |   |   |   |   |   |   |   |   |   |   |   |   |   |    IO1 <= 11.64: non (22.0/1.0)
|   |   |   |   |   |   |   |   |   |   |   |   |   |   |   |   |   |    IO1 > 11.64
|   |   |   |   |   |   |   |   |   |   |   |   |   |   |   |   |   |   |    devices1 <= 6.8
|   |   |   |   |   |   |   |   |   |   |   |   |   |   |   |   |   |   |   |    debugging1 <= 10.09: non (4.0/1.0)
|   |   |   |   |   |   |   |   |   |   |   |   |   |   |   |   |   |   |   |    debugging1 > 10.09: dup (12.0)
|   |   |   |   |   |   |   |   |   |   |   |   |   |   |   |   |   |   |    devices1 > 6.8
|   |   |   |   |   |   |   |   |   |   |   |   |   |   |   |   |   |   |   |    synchronisation2 <= 13.53: non (18.0/1.0)
|   |   |   |   |   |   |   |   |   |   |   |   |   |   |   |   |   |   |   |    synchronisation2 > 13.53
|   |   |   |   |   |   |   |   |   |   |   |   |   |   |   |   |   |   |   |   |    interrupts2 <= 10.32: dup (4.0)
|   |   |   |   |   |   |   |   |   |   |   |   |   |   |   |   |   |   |   |   |    interrupts2 > 10.32: non (2.0)
|   |   |   |   |   |   |   |   |   |   |   |   |   |   |   |   |    devices2 > 10.8
|   |   |   |   |   |   |   |   |   |   |   |   |   |   |   |   |   |    maintaninence2 <= 15.95: dup (10.0)
|   |   |   |   |   |   |   |   |   |   |   |   |   |   |   |   |   |    maintaninence2 > 15.95: non (2.0)
|   |   |   |   |   |   |   |   |   |   |   |   |   |   |   |    devices1 > 9.11
|   |   |   |   |   |   |   |   |   |   |   |   |   |   |   |   |    interrupts1 <= 12.62: dup (18.0)
|   |   |   |   |   |   |   |   |   |   |   |   |   |   |   |   |    interrupts1 > 12.62: non (3.0)
|   |   |   |   |   |   |   |   |   |   vers > 0.91
|   |   |   |   |   |   |   |   |   |   |    IO1 <= 13.43
|   |   |   |   |   |   |   |   |   |   |   |    interrupts1 <= 7.24
|   |   |   |   |   |   |   |   |   |   |   |   |   bmfu <= 7.16: non (19.0)
|   |   |   |   |   |   |   |   |   |   |   |   |   bmfu > 7.16
|   |   |   |   |   |   |   |   |   |   |   |   |   |     memoryManagement2 <= 8.16
|   |   |   |   |   |   |   |   |   |   |   |   |   |   |    devices2 <= 2.04: dup (2.0)
|   |   |   |   |   |   |   |   |   |   |   |   |   |   |    devices2 > 2.04: non (16.0)
|   |   |   |   |   |   |   |   |   |   |   |   |   |     memoryManagement2 > 8.16: dup (10.0/1.0)
|   |   |   |   |   |   |   |   |   |   |   |    interrupts1 > 7.24: non (29.0)
|   |   |   |   |   |   |   |   |   |   |    IO1 > 13.43
|   |   |   |   |   |   |   |   |   |   |   |     process1 <= 5.82: dup (6.0)
|   |   |   |   |   |   |   |   |   |   |   |     process1 > 5.82
|   |   |   |   |   |   |   |   |   |   |   |   |    IO2 <= 12.18
|   |   |   |   |   |   |   |   |   |   |   |   |   |     memoryManagement1 <= 12.61: dup (7.0)
|   |   |   |   |   |   |   |   |   |   |   |   |   |     memoryManagement1 > 12.61: non (2.0)
|   |   |   |   |   |   |   |   |   |   |   |   |    IO2 > 12.18: non (6.0)
|   comp > 0
|   |   bmfu <= 2.84
|   |   |    memory2 <= 14.11
|   |   |   |    devices2 <= 1.5
|   |   |   |   |    syscalls2 <= 1.19: non (8.0/1.0)
|   |   |   |   |    syscalls2 > 1.19
|   |   |   |   |   |    interrupts1 <= 11.45: dup (20.0/1.0)
|   |   |   |   |   |    interrupts1 > 11.45: non (3.0)
|   |   |   |    devices2 > 1.5
|   |   |   |   |   vers <= 0.38
|   |   |   |   |   |    syscalls2 <= 4.22
|   |   |   |   |   |   |    devices2 <= 3.98
|   |   |   |   |   |   |   |   cosine_similarity <= 0.932: non (22.0)
|   |   |   |   |   |   |   |   cosine_similarity > 0.932
|   |   |   |   |   |   |   |   |    IO1 <= 9.73: dup (5.0)
|   |   |   |   |   |   |   |   |    IO1 > 9.73
|   |   |   |   |   |   |   |   |   |    memory1 <= 9.67: non (9.0)
|   |   |   |   |   |   |   |   |   |    memory1 > 9.67: dup (4.0/1.0)
|   |   |   |   |   |   |    devices2 > 3.98
|   |   |   |   |   |   |   |    memory2 <= 4.23: non (3.0)
|   |   |   |   |   |   |   |    memory2 > 4.23: dup (14.0/1.0)
|   |   |   |   |   |    syscalls2 > 4.22
|   |   |   |   |   |   |   bmfu <= 2.06: non (120.0/3.0)
|   |   |   |   |   |   |   bmfu > 2.06
|   |   |   |   |   |   |   |   type <= 0: non (10.0)
|   |   |   |   |   |   |   |   type > 0
|   |   |   |   |   |   |   |   |    syscalls1 <= 5.15: dup (8.0/1.0)
|   |   |   |   |   |   |   |   |    syscalls1 > 5.15
|   |   |   |   |   |   |   |   |   |    devices1 <= 9.79: non (10.0)
|   |   |   |   |   |   |   |   |   |    devices1 > 9.79
|   |   |   |   |   |   |   |   |   |   |    synchronisation1 <= 16.53: dup (4.0)
|   |   |   |   |   |   |   |   |   |   |    synchronisation1 > 16.53: non (2.0)
|   |   |   |   |   vers > 0.38
|   |   |   |   |   |    memory2 <= 9.43
|   |   |   |   |   |   |    syscalls2 <= 5.01: dup (8.0/1.0)
|   |   |   |   |   |   |    syscalls2 > 5.01: non (18.0/1.0)
|   |   |   |   |   |    memory2 > 9.43: dup (6.0)
|   |   |    memory2 > 14.11: dup (17.0/1.0)
|   |   bmfu > 2.84
|   |   |   prior <= 0.33: dup (26.0)
|   |   |   prior > 0.33
|   |   |   |   type <= 0
|   |   |   |   |    synchronisation2 <= 7.87: dup (24.0)
|   |   |   |   |    synchronisation2 > 7.87
|   |   |   |   |   |    memory2 <= 11.87
|   |   |   |   |   |   |    interrupts2 <= 10.31
|   |   |   |   |   |   |   |     process1 <= 2.98: dup (3.0)
|   |   |   |   |   |   |   |     process1 > 2.98: non (29.0/5.0)
|   |   |   |   |   |   |    interrupts2 > 10.31: dup (4.0)
|   |   |   |   |   |    memory2 > 11.87: dup (6.0)
|   |   |   |   type > 0
|   |   |   |   |    IO1 <= 4.57
|   |   |   |   |   |     process1 <= 0.99: dup (10.0)
|   |   |   |   |   |     process1 > 0.99
|   |   |   |   |   |   |    memory1 <= 4.75
|   |   |   |   |   |   |   |    debugging1 <= 2.85
|   |   |   |   |   |   |   |   |     process1 <= 1.64: non (2.0)
|   |   |   |   |   |   |   |   |     process1 > 1.64: dup (4.0/1.0)
|   |   |   |   |   |   |   |    debugging1 > 2.85: non (12.0)
|   |   |   |   |   |   |    memory1 > 4.75: dup (4.0)
|   |   |   |   |    IO1 > 4.57
|   |   |   |   |   |    portability1 <= 4.14
|   |   |   |   |   |   |    interrupts2 <= 2.94
|   |   |   |   |   |   |   |    IO2 <= 6.61: dup (4.0)
|   |   |   |   |   |   |   |    IO2 > 6.61: non (2.0)
|   |   |   |   |   |   |    interrupts2 > 2.94: dup (93.0)
|   |   |   |   |   |    portability1 > 4.14
|   |   |   |   |   |   |    synchronisation2 <= 14.9
|   |   |   |   |   |   |   |    synchronisation2 <= 14.06
|   |   |   |   |   |   |   |   |     memoryManagement2 <= 11.99
|   |   |   |   |   |   |   |   |   |    maintaninence1 <= 12.15
|   |   |   |   |   |   |   |   |   |   |    basics1 <= 7.76
|   |   |   |   |   |   |   |   |   |   |   |    basics1 <= 3.78
|   |   |   |   |   |   |   |   |   |   |   |   |   vers <= 0.5
|   |   |   |   |   |   |   |   |   |   |   |   |   |    interrupts1 <= 6.61: dup (4.0)
|   |   |   |   |   |   |   |   |   |   |   |   |   |    interrupts1 > 6.61: non (2.0)
|   |   |   |   |   |   |   |   |   |   |   |   |   vers > 0.5: non (4.0)
|   |   |   |   |   |   |   |   |   |   |   |    basics1 > 3.78
|   |   |   |   |   |   |   |   |   |   |   |   |    IO2 <= 6.38
|   |   |   |   |   |   |   |   |   |   |   |   |   |    syscalls2 <= 5.25
|   |   |   |   |   |   |   |   |   |   |   |   |   |   |    portability2 <= 3.23
|   |   |   |   |   |   |   |   |   |   |   |   |   |   |   |    memory1 <= 7.04: non (4.0)
|   |   |   |   |   |   |   |   |   |   |   |   |   |   |   |    memory1 > 7.04: dup (3.0)
|   |   |   |   |   |   |   |   |   |   |   |   |   |   |    portability2 > 3.23: dup (14.0)
|   |   |   |   |   |   |   |   |   |   |   |   |   |    syscalls2 > 5.25: non (5.0)
|   |   |   |   |   |   |   |   |   |   |   |   |    IO2 > 6.38: dup (129.0/5.0)
|   |   |   |   |   |   |   |   |   |   |    basics1 > 7.76
|   |   |   |   |   |   |   |   |   |   |   |     memoryManagement1 <= 9.44
|   |   |   |   |   |   |   |   |   |   |   |   |    synchronisation2 <= 3.88: dup (10.0)
|   |   |   |   |   |   |   |   |   |   |   |   |    synchronisation2 > 3.88
|   |   |   |   |   |   |   |   |   |   |   |   |   |    maintaninence2 <= 10.36
|   |   |   |   |   |   |   |   |   |   |   |   |   |   |    portability1 <= 11.44
|   |   |   |   |   |   |   |   |   |   |   |   |   |   |   |   vers <= 0.67
|   |   |   |   |   |   |   |   |   |   |   |   |   |   |   |   |    syscalls1 <= 5.74
|   |   |   |   |   |   |   |   |   |   |   |   |   |   |   |   |   |   cosine_similarity <= 0.944: non (4.0)
|   |   |   |   |   |   |   |   |   |   |   |   |   |   |   |   |   |   cosine_similarity > 0.944
|   |   |   |   |   |   |   |   |   |   |   |   |   |   |   |   |   |   |    interrupts1 <= 6.92: dup (10.0)
|   |   |   |   |   |   |   |   |   |   |   |   |   |   |   |   |   |   |    interrupts1 > 6.92: non (3.0/1.0)
|   |   |   |   |   |   |   |   |   |   |   |   |   |   |   |   |    syscalls1 > 5.74
|   |   |   |   |   |   |   |   |   |   |   |   |   |   |   |   |   |    synchronisation1 <= 7.76: dup (2.0)
|   |   |   |   |   |   |   |   |   |   |   |   |   |   |   |   |   |    synchronisation1 > 7.76
|   |   |   |   |   |   |   |   |   |   |   |   |   |   |   |   |   |   |    devices1 <= 7.04: non (21.0)
|   |   |   |   |   |   |   |   |   |   |   |   |   |   |   |   |   |   |    devices1 > 7.04
|   |   |   |   |   |   |   |   |   |   |   |   |   |   |   |   |   |   |   |    synchronisation1 <= 10.67: non (2.0)
|   |   |   |   |   |   |   |   |   |   |   |   |   |   |   |   |   |   |   |    synchronisation1 > 10.67: dup (3.0)
|   |   |   |   |   |   |   |   |   |   |   |   |   |   |   |   vers > 0.67: non (5.0)
|   |   |   |   |   |   |   |   |   |   |   |   |   |   |    portability1 > 11.44: dup (7.0)
|   |   |   |   |   |   |   |   |   |   |   |   |   |    maintaninence2 > 10.36
|   |   |   |   |   |   |   |   |   |   |   |   |   |   |     memoryManagement1 <= 3.72: non (3.0)
|   |   |   |   |   |   |   |   |   |   |   |   |   |   |     memoryManagement1 > 3.72
|   |   |   |   |   |   |   |   |   |   |   |   |   |   |   |    maintaninence1 <= 11.68
|   |   |   |   |   |   |   |   |   |   |   |   |   |   |   |   |    memory1 <= 7.78: dup (24.0/1.0)
|   |   |   |   |   |   |   |   |   |   |   |   |   |   |   |   |    memory1 > 7.78
|   |   |   |   |   |   |   |   |   |   |   |   |   |   |   |   |   |     memoryManagement1 <= 7.83: non (4.0)
|   |   |   |   |   |   |   |   |   |   |   |   |   |   |   |   |   |     memoryManagement1 > 7.83: dup (5.0)
|   |   |   |   |   |   |   |   |   |   |   |   |   |   |   |    maintaninence1 > 11.68: non (3.0/1.0)
|   |   |   |   |   |   |   |   |   |   |   |     memoryManagement1 > 9.44
|   |   |   |   |   |   |   |   |   |   |   |   |   cosine_similarity <= 0.941: non (2.0)
|   |   |   |   |   |   |   |   |   |   |   |   |   cosine_similarity > 0.941
|   |   |   |   |   |   |   |   |   |   |   |   |   |    basics2 <= 3.98: non (2.0)
|   |   |   |   |   |   |   |   |   |   |   |   |   |    basics2 > 3.98: dup (32.0)
|   |   |   |   |   |   |   |   |   |    maintaninence1 > 12.15
|   |   |   |   |   |   |   |   |   |   |    interrupts2 <= 6.96
|   |   |   |   |   |   |   |   |   |   |   |    basics1 <= 7.92
|   |   |   |   |   |   |   |   |   |   |   |   |    interrupts1 <= 5.46: non (3.0)
|   |   |   |   |   |   |   |   |   |   |   |   |    interrupts1 > 5.46: dup (9.0)
|   |   |   |   |   |   |   |   |   |   |   |    basics1 > 7.92: dup (135.0/4.0)
|   |   |   |   |   |   |   |   |   |   |    interrupts2 > 6.96
|   |   |   |   |   |   |   |   |   |   |   |    devices1 <= 9.01: dup (69.0/6.0)
|   |   |   |   |   |   |   |   |   |   |   |    devices1 > 9.01
|   |   |   |   |   |   |   |   |   |   |   |   |     process2 <= 7.36: dup (8.0/1.0)
|   |   |   |   |   |   |   |   |   |   |   |   |     process2 > 7.36: non (5.0)
|   |   |   |   |   |   |   |   |     memoryManagement2 > 11.99
|   |   |   |   |   |   |   |   |   |    interrupts2 <= 7.24: non (9.0)
|   |   |   |   |   |   |   |   |   |    interrupts2 > 7.24
|   |   |   |   |   |   |   |   |   |   |    datastructures2 <= 11.45
|   |   |   |   |   |   |   |   |   |   |   |   vers <= 0.17
|   |   |   |   |   |   |   |   |   |   |   |   |     memoryManagement1 <= 7.67: dup (2.0)
|   |   |   |   |   |   |   |   |   |   |   |   |     memoryManagement1 > 7.67: non (7.0/1.0)
|   |   |   |   |   |   |   |   |   |   |   |   vers > 0.17: dup (3.0)
|   |   |   |   |   |   |   |   |   |   |    datastructures2 > 11.45: dup (12.0)
|   |   |   |   |   |   |   |    synchronisation2 > 14.06
|   |   |   |   |   |   |   |   |   bmfb <= 11.99
|   |   |   |   |   |   |   |   |   |   bmfu <= 6.59: non (10.0/1.0)
|   |   |   |   |   |   |   |   |   |   bmfu > 6.59: dup (10.0/1.0)
|   |   |   |   |   |   |   |   |   bmfb > 11.99: non (8.0)
|   |   |   |   |   |   |    synchronisation2 > 14.9
|   |   |   |   |   |   |   |    debugging2 <= 17.64
|   |   |   |   |   |   |   |   |     memoryManagement1 <= 12.12: dup (112.0)
|   |   |   |   |   |   |   |   |     memoryManagement1 > 12.12
|   |   |   |   |   |   |   |   |   |    interrupts1 <= 8.27
|   |   |   |   |   |   |   |   |   |   |   vers <= 0.25
|   |   |   |   |   |   |   |   |   |   |   |    debugging1 <= 11.57: dup (3.0)
|   |   |   |   |   |   |   |   |   |   |   |    debugging1 > 11.57: non (7.0/1.0)
|   |   |   |   |   |   |   |   |   |   |   vers > 0.25: dup (2.0)
|   |   |   |   |   |   |   |   |   |    interrupts1 > 8.27: dup (31.0)
|   |   |   |   |   |   |   |    debugging2 > 17.64
|   |   |   |   |   |   |   |   |    interrupts2 <= 13.63
|   |   |   |   |   |   |   |   |   |    interrupts2 <= 9.57: dup (4.0/1.0)
|   |   |   |   |   |   |   |   |   |    interrupts2 > 9.57: non (5.0)
|   |   |   |   |   |   |   |   |    interrupts2 > 13.63: dup (6.0)
cosine_similarity > 0.995
|    syscalls2 <= 8.51
|   |   bmfb <= 40.88
|   |   |    interrupts2 <= 2.62: dup (39.0)
|   |   |    interrupts2 > 2.62
|   |   |   |     process1 <= 6.99
|   |   |   |   |    portability1 <= 9.11
|   |   |   |   |   |    maintaninence1 <= 11.24
|   |   |   |   |   |   |    maintaninence1 <= 10.51
|   |   |   |   |   |   |   |   type <= 0: non (4.0/1.0)
|   |   |   |   |   |   |   |   type > 0
|   |   |   |   |   |   |   |   |    devices1 <= 2.37: dup (9.0/1.0)
|   |   |   |   |   |   |   |   |    devices1 > 2.37
|   |   |   |   |   |   |   |   |   |    memory1 <= 5.62: non (21.0/2.0)
|   |   |   |   |   |   |   |   |   |    memory1 > 5.62
|   |   |   |   |   |   |   |   |   |   |    basics1 <= 8.62: dup (7.0)
|   |   |   |   |   |   |   |   |   |   |    basics1 > 8.62
|   |   |   |   |   |   |   |   |   |   |   |    portability1 <= 7.06: non (9.0/1.0)
|   |   |   |   |   |   |   |   |   |   |   |    portability1 > 7.06: dup (4.0)
|   |   |   |   |   |   |    maintaninence1 > 10.51: dup (11.0)
|   |   |   |   |   |    maintaninence1 > 11.24
|   |   |   |   |   |   |   cosine_similarity <= 0.996: dup (2.0)
|   |   |   |   |   |   |   cosine_similarity > 0.996: non (14.0)
|   |   |   |   |    portability1 > 9.11: dup (8.0)
|   |   |   |     process1 > 6.99: non (9.0)
|   |   bmfb > 40.88
|   |   |   cosine_similarity <= 0.998
|   |   |   |     process2 <= 6.43
|   |   |   |   |    datastructures1 <= 7.86: dup (4.0/1.0)
|   |   |   |   |    datastructures1 > 7.86: non (8.0)
|   |   |   |     process2 > 6.43: dup (7.0)
|   |   |   cosine_similarity > 0.998: dup (289.0/60.0)
|    syscalls2 > 8.51
|   |     process2 <= 9.75: dup (361.0/1.0)
|   |     process2 > 9.75
|   |   |   bmfb <= 76.95: non (10.0/1.0)
|   |   |   bmfb > 76.95
|   |   |   |   vers <= 0.32
|   |   |   |   |    syscalls2 <= 11.67: dup (28.0)
|   |   |   |   |    syscalls2 > 11.67
|   |   |   |   |   |     process1 <= 12.59: non (2.0)
|   |   |   |   |   |     process1 > 12.59: dup (3.0)
|   |   |   |   vers > 0.32: non (2.0)

Number of Leaves  : 	374

Size of the tree : 	747


Time taken to build model: 5.39 seconds
Time taken to test model on training data: 0.42 seconds

=== Error on training data ===

Correctly Classified Instances       15410               97.5316 %
Incorrectly Classified Instances       390                2.4684 %
Kappa statistic                          0.9215
Mean absolute error                      0.0438
Root mean squared error                  0.148 
Relative absolute error                 13.6874 %
Root relative squared error             36.9978 %
Total Number of Instances            15800     


=== Confusion Matrix ===

     a     b   <-- classified as
  2893   267 |     a = dup
   123 12517 |     b = non



=== Stratified cross-validation ===

Correctly Classified Instances       14477               91.6266 %
Incorrectly Classified Instances      1323                8.3734 %
Kappa statistic                          0.7354
Mean absolute error                      0.0969
Root mean squared error                  0.2796
Relative absolute error                 30.2785 %
Root relative squared error             69.8997 %
Total Number of Instances            15800     


=== Confusion Matrix ===

     a     b   <-- classified as
  2452   708 |     a = dup
   615 12025 |     b = non

