
J48 pruned tree
------------------

bmfu <= 3.36
|   comp <= 0
|   |   prod <= 0
|   |   |   bmfu <= 1.33: non (14253.0/31.0)
|   |   |   bmfu > 1.33
|   |   |   |   PCh081 <= 1.14
|   |   |   |   |   PCh071 <= 1
|   |   |   |   |   |   PCh051 <= 0.65
|   |   |   |   |   |   |   PCh011 <= 1.7
|   |   |   |   |   |   |   |   PCh071 <= 0.95
|   |   |   |   |   |   |   |   |   bmfu <= 2.81: non (25.0/2.0)
|   |   |   |   |   |   |   |   |   bmfu > 2.81: dup (3.0/1.0)
|   |   |   |   |   |   |   |   PCh071 > 0.95: dup (2.0)
|   |   |   |   |   |   |   PCh011 > 1.7: dup (2.0)
|   |   |   |   |   |   PCh051 > 0.65: dup (5.0)
|   |   |   |   |   PCh071 > 1
|   |   |   |   |   |   bmfb <= 1.6
|   |   |   |   |   |   |   bmfu <= 2.77: non (52.0)
|   |   |   |   |   |   |   bmfu > 2.77
|   |   |   |   |   |   |   |   PCh121 <= 1.68: non (6.0)
|   |   |   |   |   |   |   |   PCh121 > 1.68: dup (2.0)
|   |   |   |   |   |   bmfb > 1.6
|   |   |   |   |   |   |   bmfu <= 2.47: dup (2.0)
|   |   |   |   |   |   |   bmfu > 2.47: non (2.0)
|   |   |   |   PCh081 > 1.14
|   |   |   |   |   PCh101 <= 6.32
|   |   |   |   |   |   PCh062 <= 7.69: non (3062.0/62.0)
|   |   |   |   |   |   PCh062 > 7.69
|   |   |   |   |   |   |   PCh032 <= 7.07
|   |   |   |   |   |   |   |   PCh092 <= 6.1: non (26.0)
|   |   |   |   |   |   |   |   PCh092 > 6.1
|   |   |   |   |   |   |   |   |   PCh071 <= 5.94: non (5.0)
|   |   |   |   |   |   |   |   |   PCh071 > 5.94: dup (14.0)
|   |   |   |   |   |   |   PCh032 > 7.07
|   |   |   |   |   |   |   |   PCh121 <= 3.29
|   |   |   |   |   |   |   |   |   PCh121 <= 3.24
|   |   |   |   |   |   |   |   |   |   PCh112 <= 5.02: non (146.0/1.0)
|   |   |   |   |   |   |   |   |   |   PCh112 > 5.02
|   |   |   |   |   |   |   |   |   |   |   PCh042 <= 11.96: dup (3.0)
|   |   |   |   |   |   |   |   |   |   |   PCh042 > 11.96: non (5.0)
|   |   |   |   |   |   |   |   |   PCh121 > 3.24
|   |   |   |   |   |   |   |   |   |   PCh011 <= 1.25: non (3.0)
|   |   |   |   |   |   |   |   |   |   PCh011 > 1.25: dup (6.0)
|   |   |   |   |   |   |   |   PCh121 > 3.29: non (223.0)
|   |   |   |   |   PCh101 > 6.32
|   |   |   |   |   |   PCh031 <= 9.23
|   |   |   |   |   |   |   PCh012 <= 1.87: dup (8.0)
|   |   |   |   |   |   |   PCh012 > 1.87
|   |   |   |   |   |   |   |   PCh032 <= 9.99: non (10.0)
|   |   |   |   |   |   |   |   PCh032 > 9.99: dup (2.0)
|   |   |   |   |   |   PCh031 > 9.23
|   |   |   |   |   |   |   bmfb <= 0.13: non (57.0)
|   |   |   |   |   |   |   bmfb > 0.13
|   |   |   |   |   |   |   |   PCh111 <= 1.31: dup (3.0)
|   |   |   |   |   |   |   |   PCh111 > 1.31: non (11.0)
|   |   prod > 0
|   |   |   bmfu <= 1.25
|   |   |   |   PCh032 <= 0.37
|   |   |   |   |   PCh072 <= 0.5: non (11.0)
|   |   |   |   |   PCh072 > 0.5
|   |   |   |   |   |   bmfu <= 0.14: non (5.0/1.0)
|   |   |   |   |   |   bmfu > 0.14: dup (9.0)
|   |   |   |   PCh032 > 0.37
|   |   |   |   |   PCh102 <= 1.01
|   |   |   |   |   |   PCh122 <= 1.25: non (66.0/2.0)
|   |   |   |   |   |   PCh122 > 1.25
|   |   |   |   |   |   |   prior <= 0.33: non (12.0)
|   |   |   |   |   |   |   prior > 0.33
|   |   |   |   |   |   |   |   PCh081 <= 5.86
|   |   |   |   |   |   |   |   |   PCh112 <= 1.27
|   |   |   |   |   |   |   |   |   |   PCh051 <= 2.86
|   |   |   |   |   |   |   |   |   |   |   bmfu <= 0.34: non (26.0/3.0)
|   |   |   |   |   |   |   |   |   |   |   bmfu > 0.34
|   |   |   |   |   |   |   |   |   |   |   |   PCh092 <= 1.47
|   |   |   |   |   |   |   |   |   |   |   |   |   PCh052 <= 0.67: dup (2.0)
|   |   |   |   |   |   |   |   |   |   |   |   |   PCh052 > 0.67: non (8.0)
|   |   |   |   |   |   |   |   |   |   |   |   PCh092 > 1.47: dup (6.0)
|   |   |   |   |   |   |   |   |   |   PCh051 > 2.86: dup (4.0)
|   |   |   |   |   |   |   |   |   PCh112 > 1.27
|   |   |   |   |   |   |   |   |   |   PCh122 <= 4.88: non (33.0)
|   |   |   |   |   |   |   |   |   |   PCh122 > 4.88: dup (3.0/1.0)
|   |   |   |   |   |   |   |   PCh081 > 5.86: non (29.0)
|   |   |   |   |   PCh102 > 1.01: non (411.0/9.0)
|   |   |   bmfu > 1.25
|   |   |   |   PCh062 <= 1.23
|   |   |   |   |   PCh052 <= 0.45
|   |   |   |   |   |   PCh041 <= 10.14: non (10.0/1.0)
|   |   |   |   |   |   PCh041 > 10.14: dup (3.0)
|   |   |   |   |   PCh052 > 0.45: dup (18.0/1.0)
|   |   |   |   PCh062 > 1.23
|   |   |   |   |   PCh051 <= 4
|   |   |   |   |   |   PCh072 <= 10.63
|   |   |   |   |   |   |   bmfu <= 1.95
|   |   |   |   |   |   |   |   PCh071 <= 3.17: non (51.0/1.0)
|   |   |   |   |   |   |   |   PCh071 > 3.17
|   |   |   |   |   |   |   |   |   PCh021 <= 8.65
|   |   |   |   |   |   |   |   |   |   PCh041 <= 8.25
|   |   |   |   |   |   |   |   |   |   |   type <= 0
|   |   |   |   |   |   |   |   |   |   |   |   PCh021 <= 5.4: dup (5.0)
|   |   |   |   |   |   |   |   |   |   |   |   PCh021 > 5.4
|   |   |   |   |   |   |   |   |   |   |   |   |   PCh021 <= 6.05: non (5.0/1.0)
|   |   |   |   |   |   |   |   |   |   |   |   |   PCh021 > 6.05: dup (3.0)
|   |   |   |   |   |   |   |   |   |   |   type > 0
|   |   |   |   |   |   |   |   |   |   |   |   PCh091 <= 2.43: dup (9.0/1.0)
|   |   |   |   |   |   |   |   |   |   |   |   PCh091 > 2.43
|   |   |   |   |   |   |   |   |   |   |   |   |   PCh032 <= 8.1: non (16.0)
|   |   |   |   |   |   |   |   |   |   |   |   |   PCh032 > 8.1: dup (2.0)
|   |   |   |   |   |   |   |   |   |   PCh041 > 8.25
|   |   |   |   |   |   |   |   |   |   |   PCh112 <= 1.09: non (19.0)
|   |   |   |   |   |   |   |   |   |   |   PCh112 > 1.09
|   |   |   |   |   |   |   |   |   |   |   |   bmfu <= 1.87: dup (4.0/1.0)
|   |   |   |   |   |   |   |   |   |   |   |   bmfu > 1.87: non (2.0)
|   |   |   |   |   |   |   |   |   PCh021 > 8.65: non (24.0)
|   |   |   |   |   |   |   bmfu > 1.95
|   |   |   |   |   |   |   |   PCh082 <= 8.21
|   |   |   |   |   |   |   |   |   bmfu <= 3.25
|   |   |   |   |   |   |   |   |   |   prior <= 0.5
|   |   |   |   |   |   |   |   |   |   |   PCh111 <= 1.69: non (6.0/1.0)
|   |   |   |   |   |   |   |   |   |   |   PCh111 > 1.69: dup (4.0)
|   |   |   |   |   |   |   |   |   |   prior > 0.5
|   |   |   |   |   |   |   |   |   |   |   PCh022 <= 5
|   |   |   |   |   |   |   |   |   |   |   |   PCh102 <= 2.35
|   |   |   |   |   |   |   |   |   |   |   |   |   PCh122 <= 1.3: non (9.0/1.0)
|   |   |   |   |   |   |   |   |   |   |   |   |   PCh122 > 1.3
|   |   |   |   |   |   |   |   |   |   |   |   |   |   type <= 0
|   |   |   |   |   |   |   |   |   |   |   |   |   |   |   PCh081 <= 5.64: dup (15.0)
|   |   |   |   |   |   |   |   |   |   |   |   |   |   |   PCh081 > 5.64
|   |   |   |   |   |   |   |   |   |   |   |   |   |   |   |   PCh021 <= 7.14: non (2.0)
|   |   |   |   |   |   |   |   |   |   |   |   |   |   |   |   PCh021 > 7.14: dup (2.0)
|   |   |   |   |   |   |   |   |   |   |   |   |   |   type > 0
|   |   |   |   |   |   |   |   |   |   |   |   |   |   |   PCh031 <= 7
|   |   |   |   |   |   |   |   |   |   |   |   |   |   |   |   bmfb <= 2.22: dup (11.0/1.0)
|   |   |   |   |   |   |   |   |   |   |   |   |   |   |   |   bmfb > 2.22: non (2.0)
|   |   |   |   |   |   |   |   |   |   |   |   |   |   |   PCh031 > 7: non (3.0)
|   |   |   |   |   |   |   |   |   |   |   |   PCh102 > 2.35: non (8.0)
|   |   |   |   |   |   |   |   |   |   |   PCh022 > 5
|   |   |   |   |   |   |   |   |   |   |   |   PCh032 <= 8.19
|   |   |   |   |   |   |   |   |   |   |   |   |   PCh062 <= 2.03: dup (6.0/1.0)
|   |   |   |   |   |   |   |   |   |   |   |   |   PCh062 > 2.03
|   |   |   |   |   |   |   |   |   |   |   |   |   |   type <= 0
|   |   |   |   |   |   |   |   |   |   |   |   |   |   |   cosine_similarity <= 0.834: dup (2.0)
|   |   |   |   |   |   |   |   |   |   |   |   |   |   |   cosine_similarity > 0.834
|   |   |   |   |   |   |   |   |   |   |   |   |   |   |   |   PCh022 <= 5.57: dup (3.0/1.0)
|   |   |   |   |   |   |   |   |   |   |   |   |   |   |   |   PCh022 > 5.57: non (21.0)
|   |   |   |   |   |   |   |   |   |   |   |   |   |   type > 0
|   |   |   |   |   |   |   |   |   |   |   |   |   |   |   cosine_similarity <= 0.974: non (33.0)
|   |   |   |   |   |   |   |   |   |   |   |   |   |   |   cosine_similarity > 0.974
|   |   |   |   |   |   |   |   |   |   |   |   |   |   |   |   PCh032 <= 5.47: dup (2.0)
|   |   |   |   |   |   |   |   |   |   |   |   |   |   |   |   PCh032 > 5.47: non (3.0)
|   |   |   |   |   |   |   |   |   |   |   |   PCh032 > 8.19
|   |   |   |   |   |   |   |   |   |   |   |   |   cosine_similarity <= 0.968
|   |   |   |   |   |   |   |   |   |   |   |   |   |   bmfu <= 2.89
|   |   |   |   |   |   |   |   |   |   |   |   |   |   |   PCh011 <= 2.72
|   |   |   |   |   |   |   |   |   |   |   |   |   |   |   |   PCh112 <= 0.69: dup (3.0/1.0)
|   |   |   |   |   |   |   |   |   |   |   |   |   |   |   |   PCh112 > 0.69: non (12.0)
|   |   |   |   |   |   |   |   |   |   |   |   |   |   |   PCh011 > 2.72: dup (3.0)
|   |   |   |   |   |   |   |   |   |   |   |   |   |   bmfu > 2.89: dup (3.0)
|   |   |   |   |   |   |   |   |   |   |   |   |   cosine_similarity > 0.968: dup (6.0)
|   |   |   |   |   |   |   |   |   bmfu > 3.25: dup (9.0/1.0)
|   |   |   |   |   |   |   |   PCh082 > 8.21
|   |   |   |   |   |   |   |   |   PCh021 <= 4.56
|   |   |   |   |   |   |   |   |   |   PCh051 <= 1.14: non (2.0)
|   |   |   |   |   |   |   |   |   |   PCh051 > 1.14: dup (2.0)
|   |   |   |   |   |   |   |   |   PCh021 > 4.56: non (27.0)
|   |   |   |   |   |   PCh072 > 10.63: non (28.0)
|   |   |   |   |   PCh051 > 4
|   |   |   |   |   |   bmfb <= 0.6: non (51.0)
|   |   |   |   |   |   bmfb > 0.6
|   |   |   |   |   |   |   PCh011 <= 3.17: dup (2.0)
|   |   |   |   |   |   |   PCh011 > 3.17: non (8.0)
|   comp > 0
|   |   prod <= 0
|   |   |   bmfu <= 2.09: non (244.0/1.0)
|   |   |   bmfu > 2.09
|   |   |   |   PCh041 <= 4.94: dup (4.0)
|   |   |   |   PCh041 > 4.94
|   |   |   |   |   PCh082 <= 3.55: dup (4.0/1.0)
|   |   |   |   |   PCh082 > 3.55: non (30.0/1.0)
|   |   prod > 0
|   |   |   bmfu <= 0.91
|   |   |   |   PCh012 <= 4.24
|   |   |   |   |   PCh052 <= 0.68
|   |   |   |   |   |   PCh082 <= 1.89
|   |   |   |   |   |   |   PCh071 <= 0.86: dup (3.0)
|   |   |   |   |   |   |   PCh071 > 0.86
|   |   |   |   |   |   |   |   PCh102 <= 0.55: non (37.0/1.0)
|   |   |   |   |   |   |   |   PCh102 > 0.55
|   |   |   |   |   |   |   |   |   prior <= 0.5: non (3.0)
|   |   |   |   |   |   |   |   |   prior > 0.5
|   |   |   |   |   |   |   |   |   |   PCh032 <= 2.66: dup (4.0)
|   |   |   |   |   |   |   |   |   |   PCh032 > 2.66: non (2.0)
|   |   |   |   |   |   PCh082 > 1.89: non (51.0)
|   |   |   |   |   PCh052 > 0.68
|   |   |   |   |   |   PCh052 <= 0.79
|   |   |   |   |   |   |   PCh081 <= 5.06: dup (10.0)
|   |   |   |   |   |   |   PCh081 > 5.06: non (2.0)
|   |   |   |   |   |   PCh052 > 0.79
|   |   |   |   |   |   |   prior <= 0.5
|   |   |   |   |   |   |   |   prior <= 0.33
|   |   |   |   |   |   |   |   |   PCh021 <= 2.09: non (2.0)
|   |   |   |   |   |   |   |   |   PCh021 > 2.09: dup (4.0)
|   |   |   |   |   |   |   |   prior > 0.33
|   |   |   |   |   |   |   |   |   PCh011 <= 1.1
|   |   |   |   |   |   |   |   |   |   bmfu <= 0.29: non (2.0)
|   |   |   |   |   |   |   |   |   |   bmfu > 0.29: dup (2.0)
|   |   |   |   |   |   |   |   |   PCh011 > 1.1: non (13.0)
|   |   |   |   |   |   |   prior > 0.5
|   |   |   |   |   |   |   |   type <= 0
|   |   |   |   |   |   |   |   |   cosine_similarity <= 0.868: non (15.0)
|   |   |   |   |   |   |   |   |   cosine_similarity > 0.868
|   |   |   |   |   |   |   |   |   |   PCh031 <= 4.71
|   |   |   |   |   |   |   |   |   |   |   PCh062 <= 4.36
|   |   |   |   |   |   |   |   |   |   |   |   PCh042 <= 5.28: dup (3.0)
|   |   |   |   |   |   |   |   |   |   |   |   PCh042 > 5.28
|   |   |   |   |   |   |   |   |   |   |   |   |   PCh112 <= 1.11: non (10.0)
|   |   |   |   |   |   |   |   |   |   |   |   |   PCh112 > 1.11: dup (3.0/1.0)
|   |   |   |   |   |   |   |   |   |   |   PCh062 > 4.36: dup (7.0)
|   |   |   |   |   |   |   |   |   |   PCh031 > 4.71
|   |   |   |   |   |   |   |   |   |   |   PCh081 <= 11.52: non (27.0/1.0)
|   |   |   |   |   |   |   |   |   |   |   PCh081 > 11.52: dup (2.0)
|   |   |   |   |   |   |   |   type > 0
|   |   |   |   |   |   |   |   |   PCh021 <= 5.02: non (58.0/5.0)
|   |   |   |   |   |   |   |   |   PCh021 > 5.02
|   |   |   |   |   |   |   |   |   |   PCh082 <= 4.76
|   |   |   |   |   |   |   |   |   |   |   PCh022 <= 5.55
|   |   |   |   |   |   |   |   |   |   |   |   PCh072 <= 2.05: dup (4.0)
|   |   |   |   |   |   |   |   |   |   |   |   PCh072 > 2.05
|   |   |   |   |   |   |   |   |   |   |   |   |   PCh021 <= 10.52
|   |   |   |   |   |   |   |   |   |   |   |   |   |   PCh071 <= 2.8: dup (3.0/1.0)
|   |   |   |   |   |   |   |   |   |   |   |   |   |   PCh071 > 2.8: non (15.0)
|   |   |   |   |   |   |   |   |   |   |   |   |   PCh021 > 10.52: dup (2.0)
|   |   |   |   |   |   |   |   |   |   |   PCh022 > 5.55: dup (7.0)
|   |   |   |   |   |   |   |   |   |   PCh082 > 4.76: non (20.0/1.0)
|   |   |   |   PCh012 > 4.24: non (29.0)
|   |   |   bmfu > 0.91
|   |   |   |   PCh051 <= 3.68
|   |   |   |   |   type <= 0
|   |   |   |   |   |   PCh022 <= 1.25: dup (14.0)
|   |   |   |   |   |   PCh022 > 1.25
|   |   |   |   |   |   |   PCh062 <= 8.22
|   |   |   |   |   |   |   |   PCh122 <= 6.62
|   |   |   |   |   |   |   |   |   prior <= 0.5
|   |   |   |   |   |   |   |   |   |   PCh022 <= 6.73
|   |   |   |   |   |   |   |   |   |   |   PCh112 <= 1.38: non (6.0/1.0)
|   |   |   |   |   |   |   |   |   |   |   PCh112 > 1.38: dup (2.0)
|   |   |   |   |   |   |   |   |   |   PCh022 > 6.73: dup (9.0)
|   |   |   |   |   |   |   |   |   prior > 0.5
|   |   |   |   |   |   |   |   |   |   PCh072 <= 6.04
|   |   |   |   |   |   |   |   |   |   |   bmfu <= 1.02: non (9.0/1.0)
|   |   |   |   |   |   |   |   |   |   |   bmfu > 1.02
|   |   |   |   |   |   |   |   |   |   |   |   PCh062 <= 1.78
|   |   |   |   |   |   |   |   |   |   |   |   |   PCh101 <= 2.53
|   |   |   |   |   |   |   |   |   |   |   |   |   |   PCh011 <= 0.9
|   |   |   |   |   |   |   |   |   |   |   |   |   |   |   PCh072 <= 1.27: dup (3.0/1.0)
|   |   |   |   |   |   |   |   |   |   |   |   |   |   |   PCh072 > 1.27: non (9.0)
|   |   |   |   |   |   |   |   |   |   |   |   |   |   PCh011 > 0.9
|   |   |   |   |   |   |   |   |   |   |   |   |   |   |   bmfu <= 1.23: non (5.0/1.0)
|   |   |   |   |   |   |   |   |   |   |   |   |   |   |   bmfu > 1.23: dup (18.0/2.0)
|   |   |   |   |   |   |   |   |   |   |   |   |   PCh101 > 2.53: non (6.0)
|   |   |   |   |   |   |   |   |   |   |   |   PCh062 > 1.78
|   |   |   |   |   |   |   |   |   |   |   |   |   PCh021 <= 7.86
|   |   |   |   |   |   |   |   |   |   |   |   |   |   PCh102 <= 1.15: dup (29.0)
|   |   |   |   |   |   |   |   |   |   |   |   |   |   PCh102 > 1.15
|   |   |   |   |   |   |   |   |   |   |   |   |   |   |   bmfu <= 1.79: dup (20.0)
|   |   |   |   |   |   |   |   |   |   |   |   |   |   |   bmfu > 1.79
|   |   |   |   |   |   |   |   |   |   |   |   |   |   |   |   PCh031 <= 4.06
|   |   |   |   |   |   |   |   |   |   |   |   |   |   |   |   |   PCh011 <= 2.93
|   |   |   |   |   |   |   |   |   |   |   |   |   |   |   |   |   |   PCh011 <= 1.34
|   |   |   |   |   |   |   |   |   |   |   |   |   |   |   |   |   |   |   PCh031 <= 3.32: dup (7.0/1.0)
|   |   |   |   |   |   |   |   |   |   |   |   |   |   |   |   |   |   |   PCh031 > 3.32: non (2.0)
|   |   |   |   |   |   |   |   |   |   |   |   |   |   |   |   |   |   PCh011 > 1.34: non (7.0)
|   |   |   |   |   |   |   |   |   |   |   |   |   |   |   |   |   PCh011 > 2.93: dup (3.0)
|   |   |   |   |   |   |   |   |   |   |   |   |   |   |   |   PCh031 > 4.06: dup (19.0/1.0)
|   |   |   |   |   |   |   |   |   |   |   |   |   PCh021 > 7.86
|   |   |   |   |   |   |   |   |   |   |   |   |   |   PCh021 <= 10.3
|   |   |   |   |   |   |   |   |   |   |   |   |   |   |   PCh071 <= 6.39
|   |   |   |   |   |   |   |   |   |   |   |   |   |   |   |   PCh122 <= 3.26: dup (5.0)
|   |   |   |   |   |   |   |   |   |   |   |   |   |   |   |   PCh122 > 3.26: non (3.0)
|   |   |   |   |   |   |   |   |   |   |   |   |   |   |   PCh071 > 6.39: non (8.0)
|   |   |   |   |   |   |   |   |   |   |   |   |   |   PCh021 > 10.3: dup (7.0)
|   |   |   |   |   |   |   |   |   |   PCh072 > 6.04
|   |   |   |   |   |   |   |   |   |   |   PCh011 <= 2.29
|   |   |   |   |   |   |   |   |   |   |   |   PCh121 <= 1.19: non (4.0)
|   |   |   |   |   |   |   |   |   |   |   |   PCh121 > 1.19
|   |   |   |   |   |   |   |   |   |   |   |   |   PCh102 <= 3.38: dup (10.0)
|   |   |   |   |   |   |   |   |   |   |   |   |   PCh102 > 3.38
|   |   |   |   |   |   |   |   |   |   |   |   |   |   PCh031 <= 5.8: non (3.0)
|   |   |   |   |   |   |   |   |   |   |   |   |   |   PCh031 > 5.8: dup (2.0)
|   |   |   |   |   |   |   |   |   |   |   PCh011 > 2.29
|   |   |   |   |   |   |   |   |   |   |   |   PCh032 <= 9.14: non (14.0)
|   |   |   |   |   |   |   |   |   |   |   |   PCh032 > 9.14: dup (3.0/1.0)
|   |   |   |   |   |   |   |   PCh122 > 6.62: dup (13.0)
|   |   |   |   |   |   |   PCh062 > 8.22
|   |   |   |   |   |   |   |   PCh061 <= 5.84: non (10.0)
|   |   |   |   |   |   |   |   PCh061 > 5.84: dup (2.0)
|   |   |   |   |   type > 0
|   |   |   |   |   |   PCh062 <= 7.53
|   |   |   |   |   |   |   prior <= 0.5
|   |   |   |   |   |   |   |   prior <= 0.33: dup (4.0/1.0)
|   |   |   |   |   |   |   |   prior > 0.33
|   |   |   |   |   |   |   |   |   PCh041 <= 10.42
|   |   |   |   |   |   |   |   |   |   PCh051 <= 2.16: non (13.0)
|   |   |   |   |   |   |   |   |   |   PCh051 > 2.16
|   |   |   |   |   |   |   |   |   |   |   PCh011 <= 1.59: dup (2.0)
|   |   |   |   |   |   |   |   |   |   |   PCh011 > 1.59: non (2.0)
|   |   |   |   |   |   |   |   |   PCh041 > 10.42: dup (3.0)
|   |   |   |   |   |   |   prior > 0.5
|   |   |   |   |   |   |   |   PCh091 <= 0.37: non (22.0/3.0)
|   |   |   |   |   |   |   |   PCh091 > 0.37
|   |   |   |   |   |   |   |   |   PCh101 <= 2.79
|   |   |   |   |   |   |   |   |   |   PCh092 <= 6.27
|   |   |   |   |   |   |   |   |   |   |   PCh031 <= 1.21
|   |   |   |   |   |   |   |   |   |   |   |   PCh051 <= 1.07: non (14.0/1.0)
|   |   |   |   |   |   |   |   |   |   |   |   PCh051 > 1.07: dup (2.0)
|   |   |   |   |   |   |   |   |   |   |   PCh031 > 1.21
|   |   |   |   |   |   |   |   |   |   |   |   PCh031 <= 8.14
|   |   |   |   |   |   |   |   |   |   |   |   |   PCh102 <= 1.89: dup (116.0/31.0)
|   |   |   |   |   |   |   |   |   |   |   |   |   PCh102 > 1.89
|   |   |   |   |   |   |   |   |   |   |   |   |   |   PCh082 <= 2.06: non (12.0)
|   |   |   |   |   |   |   |   |   |   |   |   |   |   PCh082 > 2.06
|   |   |   |   |   |   |   |   |   |   |   |   |   |   |   PCh112 <= 1.24
|   |   |   |   |   |   |   |   |   |   |   |   |   |   |   |   bmfu <= 2.95
|   |   |   |   |   |   |   |   |   |   |   |   |   |   |   |   |   PCh051 <= 1.76
|   |   |   |   |   |   |   |   |   |   |   |   |   |   |   |   |   |   PCh041 <= 4.45
|   |   |   |   |   |   |   |   |   |   |   |   |   |   |   |   |   |   |   PCh011 <= 2.34: non (2.0)
|   |   |   |   |   |   |   |   |   |   |   |   |   |   |   |   |   |   |   PCh011 > 2.34: dup (2.0)
|   |   |   |   |   |   |   |   |   |   |   |   |   |   |   |   |   |   PCh041 > 4.45: non (18.0)
|   |   |   |   |   |   |   |   |   |   |   |   |   |   |   |   |   PCh051 > 1.76
|   |   |   |   |   |   |   |   |   |   |   |   |   |   |   |   |   |   PCh051 <= 2.15: dup (5.0)
|   |   |   |   |   |   |   |   |   |   |   |   |   |   |   |   |   |   PCh051 > 2.15
|   |   |   |   |   |   |   |   |   |   |   |   |   |   |   |   |   |   |   bmfu <= 2.47: non (7.0)
|   |   |   |   |   |   |   |   |   |   |   |   |   |   |   |   |   |   |   bmfu > 2.47: dup (4.0/1.0)
|   |   |   |   |   |   |   |   |   |   |   |   |   |   |   |   bmfu > 2.95: dup (4.0)
|   |   |   |   |   |   |   |   |   |   |   |   |   |   |   PCh112 > 1.24
|   |   |   |   |   |   |   |   |   |   |   |   |   |   |   |   PCh122 <= 2.26: non (4.0/1.0)
|   |   |   |   |   |   |   |   |   |   |   |   |   |   |   |   PCh122 > 2.26
|   |   |   |   |   |   |   |   |   |   |   |   |   |   |   |   |   PCh062 <= 6.67: dup (29.0)
|   |   |   |   |   |   |   |   |   |   |   |   |   |   |   |   |   PCh062 > 6.67: non (3.0/1.0)
|   |   |   |   |   |   |   |   |   |   |   |   PCh031 > 8.14
|   |   |   |   |   |   |   |   |   |   |   |   |   PCh021 <= 10.48: non (11.0)
|   |   |   |   |   |   |   |   |   |   |   |   |   PCh021 > 10.48
|   |   |   |   |   |   |   |   |   |   |   |   |   |   PCh052 <= 1.48: dup (5.0)
|   |   |   |   |   |   |   |   |   |   |   |   |   |   PCh052 > 1.48: non (4.0)
|   |   |   |   |   |   |   |   |   |   PCh092 > 6.27
|   |   |   |   |   |   |   |   |   |   |   PCh011 <= 2.09
|   |   |   |   |   |   |   |   |   |   |   |   PCh021 <= 4.47: non (4.0)
|   |   |   |   |   |   |   |   |   |   |   |   PCh021 > 4.47: dup (3.0)
|   |   |   |   |   |   |   |   |   |   |   PCh011 > 2.09: non (10.0)
|   |   |   |   |   |   |   |   |   PCh101 > 2.79
|   |   |   |   |   |   |   |   |   |   PCh102 <= 3.88
|   |   |   |   |   |   |   |   |   |   |   bmfb <= 0.08
|   |   |   |   |   |   |   |   |   |   |   |   PCh091 <= 3.28
|   |   |   |   |   |   |   |   |   |   |   |   |   PCh021 <= 5.24: non (3.0)
|   |   |   |   |   |   |   |   |   |   |   |   |   PCh021 > 5.24: dup (6.0)
|   |   |   |   |   |   |   |   |   |   |   |   PCh091 > 3.28
|   |   |   |   |   |   |   |   |   |   |   |   |   PCh021 <= 9.13: non (20.0/1.0)
|   |   |   |   |   |   |   |   |   |   |   |   |   PCh021 > 9.13
|   |   |   |   |   |   |   |   |   |   |   |   |   |   PCh022 <= 6.11: dup (5.0/1.0)
|   |   |   |   |   |   |   |   |   |   |   |   |   |   PCh022 > 6.11: non (4.0)
|   |   |   |   |   |   |   |   |   |   |   bmfb > 0.08: non (12.0)
|   |   |   |   |   |   |   |   |   |   PCh102 > 3.88: dup (3.0)
|   |   |   |   |   |   PCh062 > 7.53
|   |   |   |   |   |   |   PCh101 <= 0.29: non (2.0)
|   |   |   |   |   |   |   PCh101 > 0.29: dup (17.0)
|   |   |   |   PCh051 > 3.68
|   |   |   |   |   PCh072 <= 7.81
|   |   |   |   |   |   prior <= 0.5: non (11.0)
|   |   |   |   |   |   prior > 0.5
|   |   |   |   |   |   |   PCh122 <= 5.34
|   |   |   |   |   |   |   |   PCh111 <= 1.43
|   |   |   |   |   |   |   |   |   PCh022 <= 3.03
|   |   |   |   |   |   |   |   |   |   bmfu <= 2.93: dup (2.0)
|   |   |   |   |   |   |   |   |   |   bmfu > 2.93: non (2.0)
|   |   |   |   |   |   |   |   |   PCh022 > 3.03: non (23.0)
|   |   |   |   |   |   |   |   PCh111 > 1.43
|   |   |   |   |   |   |   |   |   PCh022 <= 6.79
|   |   |   |   |   |   |   |   |   |   PCh012 <= 2.27
|   |   |   |   |   |   |   |   |   |   |   PCh082 <= 1.56: dup (2.0)
|   |   |   |   |   |   |   |   |   |   |   PCh082 > 1.56: non (11.0)
|   |   |   |   |   |   |   |   |   |   PCh012 > 2.27: dup (3.0)
|   |   |   |   |   |   |   |   |   PCh022 > 6.79: dup (9.0)
|   |   |   |   |   |   |   PCh122 > 5.34: non (17.0)
|   |   |   |   |   PCh072 > 7.81
|   |   |   |   |   |   PCh031 <= 9.37: non (4.0/1.0)
|   |   |   |   |   |   PCh031 > 9.37: dup (7.0)
bmfu > 3.36
|   prod <= 0
|   |   cosine_similarity <= 0.999
|   |   |   bmfb <= 20.29
|   |   |   |   bmfu <= 5.03
|   |   |   |   |   PCh072 <= 1.93
|   |   |   |   |   |   PCh052 <= 0.6: dup (19.0/1.0)
|   |   |   |   |   |   PCh052 > 0.6
|   |   |   |   |   |   |   comp <= 0
|   |   |   |   |   |   |   |   PCh111 <= 1.33: non (10.0)
|   |   |   |   |   |   |   |   PCh111 > 1.33
|   |   |   |   |   |   |   |   |   PCh051 <= 3: dup (3.0)
|   |   |   |   |   |   |   |   |   PCh051 > 3: non (2.0)
|   |   |   |   |   |   |   comp > 0: dup (2.0)
|   |   |   |   |   PCh072 > 1.93
|   |   |   |   |   |   PCh071 <= 2.23
|   |   |   |   |   |   |   PCh092 <= 5.99
|   |   |   |   |   |   |   |   PCh092 <= 2.63: non (10.0/1.0)
|   |   |   |   |   |   |   |   PCh092 > 2.63
|   |   |   |   |   |   |   |   |   PCh031 <= 2.28: dup (12.0)
|   |   |   |   |   |   |   |   |   PCh031 > 2.28
|   |   |   |   |   |   |   |   |   |   PCh071 <= 2.12
|   |   |   |   |   |   |   |   |   |   |   type <= 0
|   |   |   |   |   |   |   |   |   |   |   |   PCh071 <= 1.44: non (3.0)
|   |   |   |   |   |   |   |   |   |   |   |   PCh071 > 1.44: dup (3.0)
|   |   |   |   |   |   |   |   |   |   |   type > 0: non (5.0/1.0)
|   |   |   |   |   |   |   |   |   |   PCh071 > 2.12: dup (6.0)
|   |   |   |   |   |   |   PCh092 > 5.99: non (12.0)
|   |   |   |   |   |   PCh071 > 2.23
|   |   |   |   |   |   |   PCh032 <= 3.81
|   |   |   |   |   |   |   |   PCh032 <= 3.76
|   |   |   |   |   |   |   |   |   PCh062 <= 5.24
|   |   |   |   |   |   |   |   |   |   PCh022 <= 3.93
|   |   |   |   |   |   |   |   |   |   |   PCh122 <= 2.74
|   |   |   |   |   |   |   |   |   |   |   |   PCh102 <= 0.35: dup (3.0)
|   |   |   |   |   |   |   |   |   |   |   |   PCh102 > 0.35
|   |   |   |   |   |   |   |   |   |   |   |   |   PCh032 <= 3.39: non (18.0/1.0)
|   |   |   |   |   |   |   |   |   |   |   |   |   PCh032 > 3.39: dup (2.0)
|   |   |   |   |   |   |   |   |   |   |   PCh122 > 2.74: dup (4.0)
|   |   |   |   |   |   |   |   |   |   PCh022 > 3.93: non (47.0/1.0)
|   |   |   |   |   |   |   |   |   PCh062 > 5.24: dup (4.0)
|   |   |   |   |   |   |   |   PCh032 > 3.76: dup (12.0)
|   |   |   |   |   |   |   PCh032 > 3.81
|   |   |   |   |   |   |   |   PCh011 <= 2.29
|   |   |   |   |   |   |   |   |   PCh101 <= 0.77: non (38.0)
|   |   |   |   |   |   |   |   |   PCh101 > 0.77
|   |   |   |   |   |   |   |   |   |   PCh051 <= 0.64
|   |   |   |   |   |   |   |   |   |   |   PCh101 <= 2: dup (10.0/1.0)
|   |   |   |   |   |   |   |   |   |   |   PCh101 > 2: non (3.0)
|   |   |   |   |   |   |   |   |   |   PCh051 > 0.64
|   |   |   |   |   |   |   |   |   |   |   PCh011 <= 1.99
|   |   |   |   |   |   |   |   |   |   |   |   prior <= 0.5: non (20.0)
|   |   |   |   |   |   |   |   |   |   |   |   prior > 0.5
|   |   |   |   |   |   |   |   |   |   |   |   |   PCh071 <= 3.53: non (30.0)
|   |   |   |   |   |   |   |   |   |   |   |   |   PCh071 > 3.53
|   |   |   |   |   |   |   |   |   |   |   |   |   |   bmfu <= 3.93
|   |   |   |   |   |   |   |   |   |   |   |   |   |   |   PCh112 <= 1.74: non (31.0)
|   |   |   |   |   |   |   |   |   |   |   |   |   |   |   PCh112 > 1.74
|   |   |   |   |   |   |   |   |   |   |   |   |   |   |   |   PCh121 <= 3.93: dup (2.0)
|   |   |   |   |   |   |   |   |   |   |   |   |   |   |   |   PCh121 > 3.93: non (4.0)
|   |   |   |   |   |   |   |   |   |   |   |   |   |   bmfu > 3.93
|   |   |   |   |   |   |   |   |   |   |   |   |   |   |   PCh051 <= 2.49
|   |   |   |   |   |   |   |   |   |   |   |   |   |   |   |   PCh031 <= 4.42: dup (7.0/1.0)
|   |   |   |   |   |   |   |   |   |   |   |   |   |   |   |   PCh031 > 4.42: non (21.0/1.0)
|   |   |   |   |   |   |   |   |   |   |   |   |   |   |   PCh051 > 2.49: dup (5.0)
|   |   |   |   |   |   |   |   |   |   |   PCh011 > 1.99
|   |   |   |   |   |   |   |   |   |   |   |   PCh022 <= 7.44
|   |   |   |   |   |   |   |   |   |   |   |   |   cosine_similarity <= 0.972: non (12.0)
|   |   |   |   |   |   |   |   |   |   |   |   |   cosine_similarity > 0.972: dup (2.0)
|   |   |   |   |   |   |   |   |   |   |   |   PCh022 > 7.44
|   |   |   |   |   |   |   |   |   |   |   |   |   PCh101 <= 3.66: dup (11.0/1.0)
|   |   |   |   |   |   |   |   |   |   |   |   |   PCh101 > 3.66: non (2.0)
|   |   |   |   |   |   |   |   PCh011 > 2.29
|   |   |   |   |   |   |   |   |   PCh092 <= 2.88: non (80.0)
|   |   |   |   |   |   |   |   |   PCh092 > 2.88
|   |   |   |   |   |   |   |   |   |   comp <= 0
|   |   |   |   |   |   |   |   |   |   |   PCh092 <= 7.18
|   |   |   |   |   |   |   |   |   |   |   |   PCh072 <= 5.94
|   |   |   |   |   |   |   |   |   |   |   |   |   PCh062 <= 4.94: non (58.0/3.0)
|   |   |   |   |   |   |   |   |   |   |   |   |   PCh062 > 4.94
|   |   |   |   |   |   |   |   |   |   |   |   |   |   PCh012 <= 1.96: dup (5.0)
|   |   |   |   |   |   |   |   |   |   |   |   |   |   PCh012 > 1.96
|   |   |   |   |   |   |   |   |   |   |   |   |   |   |   PCh011 <= 3.13: dup (4.0)
|   |   |   |   |   |   |   |   |   |   |   |   |   |   |   PCh011 > 3.13: non (20.0)
|   |   |   |   |   |   |   |   |   |   |   |   PCh072 > 5.94: non (131.0/1.0)
|   |   |   |   |   |   |   |   |   |   |   PCh092 > 7.18
|   |   |   |   |   |   |   |   |   |   |   |   type <= 0: non (20.0)
|   |   |   |   |   |   |   |   |   |   |   |   type > 0
|   |   |   |   |   |   |   |   |   |   |   |   |   bmfb <= 0.24: dup (6.0)
|   |   |   |   |   |   |   |   |   |   |   |   |   bmfb > 0.24: non (14.0)
|   |   |   |   |   |   |   |   |   |   comp > 0
|   |   |   |   |   |   |   |   |   |   |   PCh032 <= 8.43: non (5.0)
|   |   |   |   |   |   |   |   |   |   |   PCh032 > 8.43: dup (5.0/1.0)
|   |   |   |   bmfu > 5.03
|   |   |   |   |   PCh011 <= 5.32
|   |   |   |   |   |   PCh122 <= 1.32
|   |   |   |   |   |   |   PCh062 <= 4.11
|   |   |   |   |   |   |   |   PCh072 <= 1.22
|   |   |   |   |   |   |   |   |   PCh082 <= 0.99: non (2.0)
|   |   |   |   |   |   |   |   |   PCh082 > 0.99: dup (6.0)
|   |   |   |   |   |   |   |   PCh072 > 1.22
|   |   |   |   |   |   |   |   |   bmfb <= 3.56
|   |   |   |   |   |   |   |   |   |   PCh112 <= 0.29: non (10.0/1.0)
|   |   |   |   |   |   |   |   |   |   PCh112 > 0.29
|   |   |   |   |   |   |   |   |   |   |   PCh111 <= 1.02: non (2.0)
|   |   |   |   |   |   |   |   |   |   |   PCh111 > 1.02: dup (4.0)
|   |   |   |   |   |   |   |   |   bmfb > 3.56: non (50.0/1.0)
|   |   |   |   |   |   |   PCh062 > 4.11: dup (11.0)
|   |   |   |   |   |   PCh122 > 1.32
|   |   |   |   |   |   |   PCh081 <= 8.74
|   |   |   |   |   |   |   |   PCh011 <= 4.45
|   |   |   |   |   |   |   |   |   PCh091 <= 6.08
|   |   |   |   |   |   |   |   |   |   PCh091 <= 5.46
|   |   |   |   |   |   |   |   |   |   |   PCh082 <= 8.14
|   |   |   |   |   |   |   |   |   |   |   |   prior <= 0.5
|   |   |   |   |   |   |   |   |   |   |   |   |   PCh052 <= 1.51: dup (11.0/1.0)
|   |   |   |   |   |   |   |   |   |   |   |   |   PCh052 > 1.51
|   |   |   |   |   |   |   |   |   |   |   |   |   |   PCh032 <= 9.43
|   |   |   |   |   |   |   |   |   |   |   |   |   |   |   prior <= 0.33
|   |   |   |   |   |   |   |   |   |   |   |   |   |   |   |   PCh111 <= 0.75: dup (2.0)
|   |   |   |   |   |   |   |   |   |   |   |   |   |   |   |   PCh111 > 0.75: non (5.0)
|   |   |   |   |   |   |   |   |   |   |   |   |   |   |   prior > 0.33: non (14.0)
|   |   |   |   |   |   |   |   |   |   |   |   |   |   PCh032 > 9.43: dup (4.0)
|   |   |   |   |   |   |   |   |   |   |   |   prior > 0.5
|   |   |   |   |   |   |   |   |   |   |   |   |   PCh022 <= 8.48
|   |   |   |   |   |   |   |   |   |   |   |   |   |   PCh122 <= 4.71
|   |   |   |   |   |   |   |   |   |   |   |   |   |   |   PCh082 <= 6.69
|   |   |   |   |   |   |   |   |   |   |   |   |   |   |   |   PCh012 <= 1.96
|   |   |   |   |   |   |   |   |   |   |   |   |   |   |   |   |   PCh031 <= 3.28
|   |   |   |   |   |   |   |   |   |   |   |   |   |   |   |   |   |   PCh031 <= 2.89
|   |   |   |   |   |   |   |   |   |   |   |   |   |   |   |   |   |   |   PCh112 <= 0.61
|   |   |   |   |   |   |   |   |   |   |   |   |   |   |   |   |   |   |   |   PCh082 <= 3.9: dup (4.0/1.0)
|   |   |   |   |   |   |   |   |   |   |   |   |   |   |   |   |   |   |   |   PCh082 > 3.9: non (5.0)
|   |   |   |   |   |   |   |   |   |   |   |   |   |   |   |   |   |   |   PCh112 > 0.61: dup (9.0)
|   |   |   |   |   |   |   |   |   |   |   |   |   |   |   |   |   |   PCh031 > 2.89: non (7.0)
|   |   |   |   |   |   |   |   |   |   |   |   |   |   |   |   |   PCh031 > 3.28
|   |   |   |   |   |   |   |   |   |   |   |   |   |   |   |   |   |   PCh112 <= 1.54: dup (62.0/3.0)
|   |   |   |   |   |   |   |   |   |   |   |   |   |   |   |   |   |   PCh112 > 1.54
|   |   |   |   |   |   |   |   |   |   |   |   |   |   |   |   |   |   |   PCh041 <= 5.08: non (3.0)
|   |   |   |   |   |   |   |   |   |   |   |   |   |   |   |   |   |   |   PCh041 > 5.08
|   |   |   |   |   |   |   |   |   |   |   |   |   |   |   |   |   |   |   |   bmfu <= 12.42: dup (10.0/1.0)
|   |   |   |   |   |   |   |   |   |   |   |   |   |   |   |   |   |   |   |   bmfu > 12.42: non (2.0)
|   |   |   |   |   |   |   |   |   |   |   |   |   |   |   |   PCh012 > 1.96
|   |   |   |   |   |   |   |   |   |   |   |   |   |   |   |   |   type <= 0
|   |   |   |   |   |   |   |   |   |   |   |   |   |   |   |   |   |   PCh022 <= 5.41: dup (9.0)
|   |   |   |   |   |   |   |   |   |   |   |   |   |   |   |   |   |   PCh022 > 5.41
|   |   |   |   |   |   |   |   |   |   |   |   |   |   |   |   |   |   |   PCh032 <= 3.81: dup (6.0)
|   |   |   |   |   |   |   |   |   |   |   |   |   |   |   |   |   |   |   PCh032 > 3.81
|   |   |   |   |   |   |   |   |   |   |   |   |   |   |   |   |   |   |   |   PCh062 <= 3.26: non (7.0)
|   |   |   |   |   |   |   |   |   |   |   |   |   |   |   |   |   |   |   |   PCh062 > 3.26
|   |   |   |   |   |   |   |   |   |   |   |   |   |   |   |   |   |   |   |   |   bmfu <= 15.35: dup (23.0/9.0)
|   |   |   |   |   |   |   |   |   |   |   |   |   |   |   |   |   |   |   |   |   bmfu > 15.35: non (4.0)
|   |   |   |   |   |   |   |   |   |   |   |   |   |   |   |   |   type > 0
|   |   |   |   |   |   |   |   |   |   |   |   |   |   |   |   |   |   PCh112 <= 1.18
|   |   |   |   |   |   |   |   |   |   |   |   |   |   |   |   |   |   |   PCh032 <= 4.07
|   |   |   |   |   |   |   |   |   |   |   |   |   |   |   |   |   |   |   |   PCh062 <= 2.55: non (2.0)
|   |   |   |   |   |   |   |   |   |   |   |   |   |   |   |   |   |   |   |   PCh062 > 2.55
|   |   |   |   |   |   |   |   |   |   |   |   |   |   |   |   |   |   |   |   |   PCh042 <= 7.85: dup (18.0)
|   |   |   |   |   |   |   |   |   |   |   |   |   |   |   |   |   |   |   |   |   PCh042 > 7.85: non (2.0)
|   |   |   |   |   |   |   |   |   |   |   |   |   |   |   |   |   |   |   PCh032 > 4.07
|   |   |   |   |   |   |   |   |   |   |   |   |   |   |   |   |   |   |   |   PCh102 <= 0.84: dup (4.0)
|   |   |   |   |   |   |   |   |   |   |   |   |   |   |   |   |   |   |   |   PCh102 > 0.84
|   |   |   |   |   |   |   |   |   |   |   |   |   |   |   |   |   |   |   |   |   PCh062 <= 2.97
|   |   |   |   |   |   |   |   |   |   |   |   |   |   |   |   |   |   |   |   |   |   bmfu <= 5.67: non (2.0)
|   |   |   |   |   |   |   |   |   |   |   |   |   |   |   |   |   |   |   |   |   |   bmfu > 5.67: dup (2.0)
|   |   |   |   |   |   |   |   |   |   |   |   |   |   |   |   |   |   |   |   |   PCh062 > 2.97: non (16.0)
|   |   |   |   |   |   |   |   |   |   |   |   |   |   |   |   |   |   PCh112 > 1.18
|   |   |   |   |   |   |   |   |   |   |   |   |   |   |   |   |   |   |   PCh051 <= 0.78: dup (3.0/1.0)
|   |   |   |   |   |   |   |   |   |   |   |   |   |   |   |   |   |   |   PCh051 > 0.78: non (15.0)
|   |   |   |   |   |   |   |   |   |   |   |   |   |   |   PCh082 > 6.69: dup (25.0)
|   |   |   |   |   |   |   |   |   |   |   |   |   |   PCh122 > 4.71
|   |   |   |   |   |   |   |   |   |   |   |   |   |   |   PCh062 <= 3.93: dup (4.0/1.0)
|   |   |   |   |   |   |   |   |   |   |   |   |   |   |   PCh062 > 3.93: non (21.0)
|   |   |   |   |   |   |   |   |   |   |   |   |   PCh022 > 8.48
|   |   |   |   |   |   |   |   |   |   |   |   |   |   PCh062 <= 5.95
|   |   |   |   |   |   |   |   |   |   |   |   |   |   |   PCh112 <= 0.39
|   |   |   |   |   |   |   |   |   |   |   |   |   |   |   |   bmfu <= 10.44: non (2.0)
|   |   |   |   |   |   |   |   |   |   |   |   |   |   |   |   bmfu > 10.44: dup (2.0)
|   |   |   |   |   |   |   |   |   |   |   |   |   |   |   PCh112 > 0.39: dup (60.0/1.0)
|   |   |   |   |   |   |   |   |   |   |   |   |   |   PCh062 > 5.95
|   |   |   |   |   |   |   |   |   |   |   |   |   |   |   bmfb <= 1.12: non (4.0)
|   |   |   |   |   |   |   |   |   |   |   |   |   |   |   bmfb > 1.12
|   |   |   |   |   |   |   |   |   |   |   |   |   |   |   |   PCh092 <= 3.64: non (2.0)
|   |   |   |   |   |   |   |   |   |   |   |   |   |   |   |   PCh092 > 3.64: dup (13.0/1.0)
|   |   |   |   |   |   |   |   |   |   |   PCh082 > 8.14
|   |   |   |   |   |   |   |   |   |   |   |   bmfb <= 2.62
|   |   |   |   |   |   |   |   |   |   |   |   |   PCh011 <= 1.31: dup (4.0/1.0)
|   |   |   |   |   |   |   |   |   |   |   |   |   PCh011 > 1.31: non (25.0)
|   |   |   |   |   |   |   |   |   |   |   |   bmfb > 2.62
|   |   |   |   |   |   |   |   |   |   |   |   |   PCh051 <= 2.84
|   |   |   |   |   |   |   |   |   |   |   |   |   |   cosine_similarity <= 0.95: dup (3.0)
|   |   |   |   |   |   |   |   |   |   |   |   |   |   cosine_similarity > 0.95: non (4.0)
|   |   |   |   |   |   |   |   |   |   |   |   |   PCh051 > 2.84: dup (8.0)
|   |   |   |   |   |   |   |   |   |   PCh091 > 5.46: dup (33.0/1.0)
|   |   |   |   |   |   |   |   |   PCh091 > 6.08
|   |   |   |   |   |   |   |   |   |   PCh031 <= 8.21: non (18.0)
|   |   |   |   |   |   |   |   |   |   PCh031 > 8.21
|   |   |   |   |   |   |   |   |   |   |   PCh062 <= 5.04: dup (5.0)
|   |   |   |   |   |   |   |   |   |   |   PCh062 > 5.04
|   |   |   |   |   |   |   |   |   |   |   |   PCh021 <= 8.2: dup (2.0)
|   |   |   |   |   |   |   |   |   |   |   |   PCh021 > 8.2: non (6.0)
|   |   |   |   |   |   |   |   PCh011 > 4.45
|   |   |   |   |   |   |   |   |   PCh051 <= 1.71: non (3.0)
|   |   |   |   |   |   |   |   |   PCh051 > 1.71: dup (47.0/1.0)
|   |   |   |   |   |   |   PCh081 > 8.74
|   |   |   |   |   |   |   |   PCh092 <= 6.11
|   |   |   |   |   |   |   |   |   PCh051 <= 2.76: dup (9.0)
|   |   |   |   |   |   |   |   |   PCh051 > 2.76
|   |   |   |   |   |   |   |   |   |   PCh021 <= 15.47: non (16.0/1.0)
|   |   |   |   |   |   |   |   |   |   PCh021 > 15.47: dup (4.0)
|   |   |   |   |   |   |   |   PCh092 > 6.11: non (18.0)
|   |   |   |   |   PCh011 > 5.32
|   |   |   |   |   |   PCh012 <= 7.89: non (38.0)
|   |   |   |   |   |   PCh012 > 7.89: dup (2.0)
|   |   |   bmfb > 20.29
|   |   |   |   bmfu <= 20.37
|   |   |   |   |   PCh051 <= 0.83: dup (12.0)
|   |   |   |   |   PCh051 > 0.83
|   |   |   |   |   |   PCh061 <= 4.53
|   |   |   |   |   |   |   PCh111 <= 0.98: non (14.0)
|   |   |   |   |   |   |   PCh111 > 0.98
|   |   |   |   |   |   |   |   PCh012 <= 0.84: non (2.0)
|   |   |   |   |   |   |   |   PCh012 > 0.84: dup (5.0)
|   |   |   |   |   |   PCh061 > 4.53: dup (10.0)
|   |   |   |   bmfu > 20.37
|   |   |   |   |   bmfb <= 63.04: dup (185.0/5.0)
|   |   |   |   |   bmfb > 63.04
|   |   |   |   |   |   PCh112 <= 2.62: dup (7.0/1.0)
|   |   |   |   |   |   PCh112 > 2.62: non (3.0)
|   |   cosine_similarity > 0.999
|   |   |   bmfb <= 62.52: non (308.0/4.0)
|   |   |   bmfb > 62.52
|   |   |   |   PCh011 <= 4.52: dup (7.0)
|   |   |   |   PCh011 > 4.52: non (15.0/1.0)
|   prod > 0
|   |   bmfu <= 15.14
|   |   |   type <= 0
|   |   |   |   bmfu <= 4.9
|   |   |   |   |   comp <= 0
|   |   |   |   |   |   PCh082 <= 6.8
|   |   |   |   |   |   |   PCh022 <= 7.16
|   |   |   |   |   |   |   |   PCh072 <= 5.88
|   |   |   |   |   |   |   |   |   PCh042 <= 9.21
|   |   |   |   |   |   |   |   |   |   PCh051 <= 2.89: dup (37.0/4.0)
|   |   |   |   |   |   |   |   |   |   PCh051 > 2.89
|   |   |   |   |   |   |   |   |   |   |   PCh032 <= 4.12: dup (4.0)
|   |   |   |   |   |   |   |   |   |   |   PCh032 > 4.12: non (5.0)
|   |   |   |   |   |   |   |   |   PCh042 > 9.21: non (4.0)
|   |   |   |   |   |   |   |   PCh072 > 5.88: non (12.0/1.0)
|   |   |   |   |   |   |   PCh022 > 7.16: dup (21.0)
|   |   |   |   |   |   PCh082 > 6.8
|   |   |   |   |   |   |   PCh012 <= 2.15: dup (4.0)
|   |   |   |   |   |   |   PCh012 > 2.15: non (26.0)
|   |   |   |   |   comp > 0
|   |   |   |   |   |   prior <= 0.33: dup (13.0)
|   |   |   |   |   |   prior > 0.33
|   |   |   |   |   |   |   PCh041 <= 7.4
|   |   |   |   |   |   |   |   bmfb <= 0.83: dup (44.0)
|   |   |   |   |   |   |   |   bmfb > 0.83
|   |   |   |   |   |   |   |   |   PCh112 <= 1.79
|   |   |   |   |   |   |   |   |   |   PCh091 <= 3.51
|   |   |   |   |   |   |   |   |   |   |   bmfu <= 4.85
|   |   |   |   |   |   |   |   |   |   |   |   PCh051 <= 0.81
|   |   |   |   |   |   |   |   |   |   |   |   |   PCh081 <= 2.01: dup (5.0/1.0)
|   |   |   |   |   |   |   |   |   |   |   |   |   PCh081 > 2.01: non (5.0)
|   |   |   |   |   |   |   |   |   |   |   |   PCh051 > 0.81: dup (19.0)
|   |   |   |   |   |   |   |   |   |   |   bmfu > 4.85: non (3.0)
|   |   |   |   |   |   |   |   |   |   PCh091 > 3.51: non (5.0)
|   |   |   |   |   |   |   |   |   PCh112 > 1.79: dup (16.0)
|   |   |   |   |   |   |   PCh041 > 7.4
|   |   |   |   |   |   |   |   PCh121 <= 2.41
|   |   |   |   |   |   |   |   |   PCh081 <= 4.96: non (15.0)
|   |   |   |   |   |   |   |   |   PCh081 > 4.96: dup (3.0)
|   |   |   |   |   |   |   |   PCh121 > 2.41
|   |   |   |   |   |   |   |   |   prior <= 0.5
|   |   |   |   |   |   |   |   |   |   bmfu <= 4.33: non (3.0)
|   |   |   |   |   |   |   |   |   |   bmfu > 4.33: dup (4.0)
|   |   |   |   |   |   |   |   |   prior > 0.5: dup (75.0/21.0)
|   |   |   |   bmfu > 4.9
|   |   |   |   |   PCh052 <= 3.85
|   |   |   |   |   |   prior <= 0.33: dup (44.0/1.0)
|   |   |   |   |   |   prior > 0.33
|   |   |   |   |   |   |   PCh061 <= 7.94
|   |   |   |   |   |   |   |   PCh071 <= 10.02
|   |   |   |   |   |   |   |   |   PCh112 <= 1.14
|   |   |   |   |   |   |   |   |   |   prior <= 0.5
|   |   |   |   |   |   |   |   |   |   |   bmfu <= 6.19
|   |   |   |   |   |   |   |   |   |   |   |   PCh011 <= 1.09: non (6.0)
|   |   |   |   |   |   |   |   |   |   |   |   PCh011 > 1.09: dup (5.0/1.0)
|   |   |   |   |   |   |   |   |   |   |   bmfu > 6.19: dup (18.0/1.0)
|   |   |   |   |   |   |   |   |   |   prior > 0.5
|   |   |   |   |   |   |   |   |   |   |   bmfu <= 13.7
|   |   |   |   |   |   |   |   |   |   |   |   PCh102 <= 2.27
|   |   |   |   |   |   |   |   |   |   |   |   |   PCh052 <= 1.86
|   |   |   |   |   |   |   |   |   |   |   |   |   |   PCh062 <= 4.3
|   |   |   |   |   |   |   |   |   |   |   |   |   |   |   PCh042 <= 2.33
|   |   |   |   |   |   |   |   |   |   |   |   |   |   |   |   PCh101 <= 2.4
|   |   |   |   |   |   |   |   |   |   |   |   |   |   |   |   |   PCh011 <= 0.29: non (2.0)
|   |   |   |   |   |   |   |   |   |   |   |   |   |   |   |   |   PCh011 > 0.29: dup (7.0)
|   |   |   |   |   |   |   |   |   |   |   |   |   |   |   |   PCh101 > 2.4: non (4.0)
|   |   |   |   |   |   |   |   |   |   |   |   |   |   |   PCh042 > 2.33
|   |   |   |   |   |   |   |   |   |   |   |   |   |   |   |   PCh012 <= 1.54: dup (94.0/1.0)
|   |   |   |   |   |   |   |   |   |   |   |   |   |   |   |   PCh012 > 1.54
|   |   |   |   |   |   |   |   |   |   |   |   |   |   |   |   |   bmfb <= 4.24
|   |   |   |   |   |   |   |   |   |   |   |   |   |   |   |   |   |   PCh061 <= 5.3: dup (34.0)
|   |   |   |   |   |   |   |   |   |   |   |   |   |   |   |   |   |   PCh061 > 5.3
|   |   |   |   |   |   |   |   |   |   |   |   |   |   |   |   |   |   |   PCh072 <= 2.7: non (2.0)
|   |   |   |   |   |   |   |   |   |   |   |   |   |   |   |   |   |   |   PCh072 > 2.7: dup (5.0)
|   |   |   |   |   |   |   |   |   |   |   |   |   |   |   |   |   bmfb > 4.24
|   |   |   |   |   |   |   |   |   |   |   |   |   |   |   |   |   |   PCh052 <= 0.87: dup (10.0)
|   |   |   |   |   |   |   |   |   |   |   |   |   |   |   |   |   |   PCh052 > 0.87
|   |   |   |   |   |   |   |   |   |   |   |   |   |   |   |   |   |   |   PCh062 <= 2.26: non (6.0)
|   |   |   |   |   |   |   |   |   |   |   |   |   |   |   |   |   |   |   PCh062 > 2.26
|   |   |   |   |   |   |   |   |   |   |   |   |   |   |   |   |   |   |   |   PCh042 <= 9.6: dup (14.0/1.0)
|   |   |   |   |   |   |   |   |   |   |   |   |   |   |   |   |   |   |   |   PCh042 > 9.6: non (3.0)
|   |   |   |   |   |   |   |   |   |   |   |   |   |   PCh062 > 4.3
|   |   |   |   |   |   |   |   |   |   |   |   |   |   |   PCh012 <= 0.88: non (6.0)
|   |   |   |   |   |   |   |   |   |   |   |   |   |   |   PCh012 > 0.88
|   |   |   |   |   |   |   |   |   |   |   |   |   |   |   |   PCh071 <= 8.13: dup (17.0/1.0)
|   |   |   |   |   |   |   |   |   |   |   |   |   |   |   |   PCh071 > 8.13: non (3.0)
|   |   |   |   |   |   |   |   |   |   |   |   |   PCh052 > 1.86: dup (80.0/1.0)
|   |   |   |   |   |   |   |   |   |   |   |   PCh102 > 2.27
|   |   |   |   |   |   |   |   |   |   |   |   |   PCh122 <= 1.12: non (6.0/1.0)
|   |   |   |   |   |   |   |   |   |   |   |   |   PCh122 > 1.12
|   |   |   |   |   |   |   |   |   |   |   |   |   |   comp <= 0
|   |   |   |   |   |   |   |   |   |   |   |   |   |   |   PCh092 <= 5.94: dup (21.0/1.0)
|   |   |   |   |   |   |   |   |   |   |   |   |   |   |   PCh092 > 5.94
|   |   |   |   |   |   |   |   |   |   |   |   |   |   |   |   PCh081 <= 5.42: non (7.0)
|   |   |   |   |   |   |   |   |   |   |   |   |   |   |   |   PCh081 > 5.42: dup (3.0)
|   |   |   |   |   |   |   |   |   |   |   |   |   |   comp > 0
|   |   |   |   |   |   |   |   |   |   |   |   |   |   |   PCh101 <= 1.36: dup (20.0)
|   |   |   |   |   |   |   |   |   |   |   |   |   |   |   PCh101 > 1.36
|   |   |   |   |   |   |   |   |   |   |   |   |   |   |   |   PCh062 <= 7.56
|   |   |   |   |   |   |   |   |   |   |   |   |   |   |   |   |   PCh072 <= 5.51
|   |   |   |   |   |   |   |   |   |   |   |   |   |   |   |   |   |   PCh021 <= 8.91
|   |   |   |   |   |   |   |   |   |   |   |   |   |   |   |   |   |   |   PCh011 <= 1.91: non (4.0/1.0)
|   |   |   |   |   |   |   |   |   |   |   |   |   |   |   |   |   |   |   PCh011 > 1.91: dup (12.0)
|   |   |   |   |   |   |   |   |   |   |   |   |   |   |   |   |   |   PCh021 > 8.91
|   |   |   |   |   |   |   |   |   |   |   |   |   |   |   |   |   |   |   cosine_similarity <= 0.938: dup (2.0)
|   |   |   |   |   |   |   |   |   |   |   |   |   |   |   |   |   |   |   cosine_similarity > 0.938: non (7.0)
|   |   |   |   |   |   |   |   |   |   |   |   |   |   |   |   |   PCh072 > 5.51: dup (24.0/1.0)
|   |   |   |   |   |   |   |   |   |   |   |   |   |   |   |   PCh062 > 7.56: non (3.0)
|   |   |   |   |   |   |   |   |   |   |   bmfu > 13.7
|   |   |   |   |   |   |   |   |   |   |   |   PCh012 <= 2.26
|   |   |   |   |   |   |   |   |   |   |   |   |   PCh022 <= 3.9: dup (3.0)
|   |   |   |   |   |   |   |   |   |   |   |   |   PCh022 > 3.9: non (10.0)
|   |   |   |   |   |   |   |   |   |   |   |   PCh012 > 2.26: dup (10.0/1.0)
|   |   |   |   |   |   |   |   |   PCh112 > 1.14
|   |   |   |   |   |   |   |   |   |   PCh072 <= 4.83: dup (108.0)
|   |   |   |   |   |   |   |   |   |   PCh072 > 4.83
|   |   |   |   |   |   |   |   |   |   |   comp <= 0
|   |   |   |   |   |   |   |   |   |   |   |   PCh122 <= 2.67: non (3.0)
|   |   |   |   |   |   |   |   |   |   |   |   PCh122 > 2.67: dup (39.0/4.0)
|   |   |   |   |   |   |   |   |   |   |   comp > 0
|   |   |   |   |   |   |   |   |   |   |   |   PCh101 <= 0.78
|   |   |   |   |   |   |   |   |   |   |   |   |   PCh082 <= 4.15: non (3.0)
|   |   |   |   |   |   |   |   |   |   |   |   |   PCh082 > 4.15
|   |   |   |   |   |   |   |   |   |   |   |   |   |   cosine_similarity <= 0.955: dup (17.0)
|   |   |   |   |   |   |   |   |   |   |   |   |   |   cosine_similarity > 0.955
|   |   |   |   |   |   |   |   |   |   |   |   |   |   |   bmfu <= 6.02: non (2.0)
|   |   |   |   |   |   |   |   |   |   |   |   |   |   |   bmfu > 6.02: dup (7.0/1.0)
|   |   |   |   |   |   |   |   |   |   |   |   PCh101 > 0.78: dup (106.0/2.0)
|   |   |   |   |   |   |   |   PCh071 > 10.02
|   |   |   |   |   |   |   |   |   PCh041 <= 17.48
|   |   |   |   |   |   |   |   |   |   PCh041 <= 15.04
|   |   |   |   |   |   |   |   |   |   |   PCh071 <= 11.7: dup (8.0)
|   |   |   |   |   |   |   |   |   |   |   PCh071 > 11.7: non (5.0/1.0)
|   |   |   |   |   |   |   |   |   |   PCh041 > 15.04: non (9.0)
|   |   |   |   |   |   |   |   |   PCh041 > 17.48: dup (11.0)
|   |   |   |   |   |   |   PCh061 > 7.94: dup (48.0)
|   |   |   |   |   PCh052 > 3.85
|   |   |   |   |   |   PCh051 <= 4.52
|   |   |   |   |   |   |   PCh092 <= 5.58
|   |   |   |   |   |   |   |   PCh052 <= 3.98: non (7.0/1.0)
|   |   |   |   |   |   |   |   PCh052 > 3.98
|   |   |   |   |   |   |   |   |   PCh121 <= 3.39: dup (15.0)
|   |   |   |   |   |   |   |   |   PCh121 > 3.39
|   |   |   |   |   |   |   |   |   |   bmfu <= 6.79: non (4.0)
|   |   |   |   |   |   |   |   |   |   bmfu > 6.79
|   |   |   |   |   |   |   |   |   |   |   PCh012 <= 3.38
|   |   |   |   |   |   |   |   |   |   |   |   PCh041 <= 12.3: non (4.0)
|   |   |   |   |   |   |   |   |   |   |   |   PCh041 > 12.3: dup (3.0/1.0)
|   |   |   |   |   |   |   |   |   |   |   PCh012 > 3.38: dup (11.0/1.0)
|   |   |   |   |   |   |   PCh092 > 5.58
|   |   |   |   |   |   |   |   PCh012 <= 5.18: dup (46.0)
|   |   |   |   |   |   |   |   PCh012 > 5.18
|   |   |   |   |   |   |   |   |   PCh072 <= 10.13: dup (11.0)
|   |   |   |   |   |   |   |   |   PCh072 > 10.13
|   |   |   |   |   |   |   |   |   |   PCh022 <= 12.7: non (5.0)
|   |   |   |   |   |   |   |   |   |   PCh022 > 12.7: dup (3.0)
|   |   |   |   |   |   PCh051 > 4.52
|   |   |   |   |   |   |   PCh012 <= 5.13
|   |   |   |   |   |   |   |   PCh122 <= 4.86: dup (5.0/1.0)
|   |   |   |   |   |   |   |   PCh122 > 4.86: non (12.0)
|   |   |   |   |   |   |   PCh012 > 5.13
|   |   |   |   |   |   |   |   bmfu <= 13.68: dup (7.0)
|   |   |   |   |   |   |   |   bmfu > 13.68: non (2.0)
|   |   |   type > 0
|   |   |   |   PCh021 <= 0.63
|   |   |   |   |   PCh012 <= 1.69: non (25.0)
|   |   |   |   |   PCh012 > 1.69: dup (5.0)
|   |   |   |   PCh021 > 0.63
|   |   |   |   |   bmfu <= 4.57
|   |   |   |   |   |   bmfb <= 3.54
|   |   |   |   |   |   |   comp <= 0
|   |   |   |   |   |   |   |   PCh052 <= 0.49: non (12.0)
|   |   |   |   |   |   |   |   PCh052 > 0.49
|   |   |   |   |   |   |   |   |   PCh111 <= 1.05
|   |   |   |   |   |   |   |   |   |   PCh041 <= 4.99
|   |   |   |   |   |   |   |   |   |   |   PCh031 <= 3.71
|   |   |   |   |   |   |   |   |   |   |   |   PCh031 <= 1.3: non (2.0)
|   |   |   |   |   |   |   |   |   |   |   |   PCh031 > 1.3: dup (7.0)
|   |   |   |   |   |   |   |   |   |   |   PCh031 > 3.71: non (3.0)
|   |   |   |   |   |   |   |   |   |   PCh041 > 4.99
|   |   |   |   |   |   |   |   |   |   |   PCh081 <= 8.12
|   |   |   |   |   |   |   |   |   |   |   |   PCh011 <= 1.24: dup (3.0/1.0)
|   |   |   |   |   |   |   |   |   |   |   |   PCh011 > 1.24: non (27.0)
|   |   |   |   |   |   |   |   |   |   |   PCh081 > 8.12: dup (2.0)
|   |   |   |   |   |   |   |   |   PCh111 > 1.05
|   |   |   |   |   |   |   |   |   |   PCh011 <= 5
|   |   |   |   |   |   |   |   |   |   |   PCh082 <= 5.14
|   |   |   |   |   |   |   |   |   |   |   |   PCh011 <= 4.14: non (5.0)
|   |   |   |   |   |   |   |   |   |   |   |   PCh011 > 4.14: dup (4.0)
|   |   |   |   |   |   |   |   |   |   |   PCh082 > 5.14: dup (12.0)
|   |   |   |   |   |   |   |   |   |   PCh011 > 5: non (4.0)
|   |   |   |   |   |   |   comp > 0
|   |   |   |   |   |   |   |   PCh092 <= 1.17
|   |   |   |   |   |   |   |   |   PCh112 <= 0.96
|   |   |   |   |   |   |   |   |   |   prior <= 0.5
|   |   |   |   |   |   |   |   |   |   |   PCh011 <= 2.14: dup (2.0)
|   |   |   |   |   |   |   |   |   |   |   PCh011 > 2.14: non (2.0)
|   |   |   |   |   |   |   |   |   |   prior > 0.5
|   |   |   |   |   |   |   |   |   |   |   PCh082 <= 3.32: non (20.0)
|   |   |   |   |   |   |   |   |   |   |   PCh082 > 3.32
|   |   |   |   |   |   |   |   |   |   |   |   PCh022 <= 3.07: dup (3.0)
|   |   |   |   |   |   |   |   |   |   |   |   PCh022 > 3.07: non (3.0)
|   |   |   |   |   |   |   |   |   PCh112 > 0.96: dup (4.0)
|   |   |   |   |   |   |   |   PCh092 > 1.17
|   |   |   |   |   |   |   |   |   PCh012 <= 5.03
|   |   |   |   |   |   |   |   |   |   PCh111 <= 0.51
|   |   |   |   |   |   |   |   |   |   |   PCh052 <= 0.53: dup (10.0)
|   |   |   |   |   |   |   |   |   |   |   PCh052 > 0.53
|   |   |   |   |   |   |   |   |   |   |   |   PCh091 <= 1.24: dup (7.0)
|   |   |   |   |   |   |   |   |   |   |   |   PCh091 > 1.24
|   |   |   |   |   |   |   |   |   |   |   |   |   PCh062 <= 3.63
|   |   |   |   |   |   |   |   |   |   |   |   |   |   PCh122 <= 1.61
|   |   |   |   |   |   |   |   |   |   |   |   |   |   |   bmfb <= 1.72: non (2.0)
|   |   |   |   |   |   |   |   |   |   |   |   |   |   |   bmfb > 1.72: dup (2.0)
|   |   |   |   |   |   |   |   |   |   |   |   |   |   PCh122 > 1.61: non (16.0)
|   |   |   |   |   |   |   |   |   |   |   |   |   PCh062 > 3.63
|   |   |   |   |   |   |   |   |   |   |   |   |   |   PCh062 <= 7.08
|   |   |   |   |   |   |   |   |   |   |   |   |   |   |   PCh082 <= 3.08: non (2.0)
|   |   |   |   |   |   |   |   |   |   |   |   |   |   |   PCh082 > 3.08: dup (10.0)
|   |   |   |   |   |   |   |   |   |   |   |   |   |   PCh062 > 7.08: non (3.0)
|   |   |   |   |   |   |   |   |   |   PCh111 > 0.51
|   |   |   |   |   |   |   |   |   |   |   PCh031 <= 5.44
|   |   |   |   |   |   |   |   |   |   |   |   PCh012 <= 2.4
|   |   |   |   |   |   |   |   |   |   |   |   |   PCh051 <= 2.81: dup (15.0)
|   |   |   |   |   |   |   |   |   |   |   |   |   PCh051 > 2.81: non (2.0)
|   |   |   |   |   |   |   |   |   |   |   |   PCh012 > 2.4
|   |   |   |   |   |   |   |   |   |   |   |   |   PCh112 <= 1.42: non (8.0)
|   |   |   |   |   |   |   |   |   |   |   |   |   PCh112 > 1.42
|   |   |   |   |   |   |   |   |   |   |   |   |   |   bmfb <= 2.12: dup (10.0/1.0)
|   |   |   |   |   |   |   |   |   |   |   |   |   |   bmfb > 2.12: non (2.0)
|   |   |   |   |   |   |   |   |   |   |   PCh031 > 5.44
|   |   |   |   |   |   |   |   |   |   |   |   PCh032 <= 11.48: dup (47.0/1.0)
|   |   |   |   |   |   |   |   |   |   |   |   PCh032 > 11.48: non (3.0/1.0)
|   |   |   |   |   |   |   |   |   PCh012 > 5.03
|   |   |   |   |   |   |   |   |   |   PCh121 <= 3.49: dup (3.0)
|   |   |   |   |   |   |   |   |   |   PCh121 > 3.49: non (11.0)
|   |   |   |   |   |   bmfb > 3.54
|   |   |   |   |   |   |   PCh121 <= 2.21
|   |   |   |   |   |   |   |   PCh121 <= 1.19
|   |   |   |   |   |   |   |   |   bmfu <= 4.08: non (10.0)
|   |   |   |   |   |   |   |   |   bmfu > 4.08
|   |   |   |   |   |   |   |   |   |   bmfb <= 4.96: dup (3.0)
|   |   |   |   |   |   |   |   |   |   bmfb > 4.96: non (2.0)
|   |   |   |   |   |   |   |   PCh121 > 1.19: dup (8.0)
|   |   |   |   |   |   |   PCh121 > 2.21
|   |   |   |   |   |   |   |   PCh031 <= 8.2
|   |   |   |   |   |   |   |   |   PCh072 <= 1.12: dup (3.0/1.0)
|   |   |   |   |   |   |   |   |   PCh072 > 1.12: non (50.0/1.0)
|   |   |   |   |   |   |   |   PCh031 > 8.2
|   |   |   |   |   |   |   |   |   bmfu <= 4.23: dup (3.0)
|   |   |   |   |   |   |   |   |   bmfu > 4.23: non (2.0)
|   |   |   |   |   bmfu > 4.57
|   |   |   |   |   |   comp <= 0
|   |   |   |   |   |   |   PCh101 <= 1.86
|   |   |   |   |   |   |   |   PCh031 <= 8.08
|   |   |   |   |   |   |   |   |   cosine_similarity <= 0.981
|   |   |   |   |   |   |   |   |   |   PCh061 <= 4.83
|   |   |   |   |   |   |   |   |   |   |   bmfb <= 8.03
|   |   |   |   |   |   |   |   |   |   |   |   PCh091 <= 6.22
|   |   |   |   |   |   |   |   |   |   |   |   |   PCh092 <= 0.19
|   |   |   |   |   |   |   |   |   |   |   |   |   |   PCh022 <= 2.98: dup (3.0)
|   |   |   |   |   |   |   |   |   |   |   |   |   |   PCh022 > 2.98: non (8.0)
|   |   |   |   |   |   |   |   |   |   |   |   |   PCh092 > 0.19
|   |   |   |   |   |   |   |   |   |   |   |   |   |   PCh042 <= 10.61
|   |   |   |   |   |   |   |   |   |   |   |   |   |   |   PCh021 <= 3.83: dup (35.0)
|   |   |   |   |   |   |   |   |   |   |   |   |   |   |   PCh021 > 3.83
|   |   |   |   |   |   |   |   |   |   |   |   |   |   |   |   PCh041 <= 6.21
|   |   |   |   |   |   |   |   |   |   |   |   |   |   |   |   |   PCh112 <= 0.36: dup (6.0)
|   |   |   |   |   |   |   |   |   |   |   |   |   |   |   |   |   PCh112 > 0.36: non (7.0/1.0)
|   |   |   |   |   |   |   |   |   |   |   |   |   |   |   |   PCh041 > 6.21: dup (14.0)
|   |   |   |   |   |   |   |   |   |   |   |   |   |   PCh042 > 10.61
|   |   |   |   |   |   |   |   |   |   |   |   |   |   |   PCh041 <= 4.9: dup (6.0)
|   |   |   |   |   |   |   |   |   |   |   |   |   |   |   PCh041 > 4.9
|   |   |   |   |   |   |   |   |   |   |   |   |   |   |   |   PCh072 <= 7.19: dup (5.0/1.0)
|   |   |   |   |   |   |   |   |   |   |   |   |   |   |   |   PCh072 > 7.19: non (9.0)
|   |   |   |   |   |   |   |   |   |   |   |   PCh091 > 6.22: non (6.0)
|   |   |   |   |   |   |   |   |   |   |   bmfb > 8.03
|   |   |   |   |   |   |   |   |   |   |   |   prior <= 0.5: non (5.0)
|   |   |   |   |   |   |   |   |   |   |   |   prior > 0.5
|   |   |   |   |   |   |   |   |   |   |   |   |   PCh091 <= 1.02: non (8.0)
|   |   |   |   |   |   |   |   |   |   |   |   |   PCh091 > 1.02
|   |   |   |   |   |   |   |   |   |   |   |   |   |   PCh031 <= 2.74: dup (5.0)
|   |   |   |   |   |   |   |   |   |   |   |   |   |   PCh031 > 2.74
|   |   |   |   |   |   |   |   |   |   |   |   |   |   |   PCh121 <= 2.76: non (10.0/1.0)
|   |   |   |   |   |   |   |   |   |   |   |   |   |   |   PCh121 > 2.76
|   |   |   |   |   |   |   |   |   |   |   |   |   |   |   |   PCh071 <= 2.11: non (2.0)
|   |   |   |   |   |   |   |   |   |   |   |   |   |   |   |   PCh071 > 2.11: dup (5.0)
|   |   |   |   |   |   |   |   |   |   PCh061 > 4.83: dup (19.0)
|   |   |   |   |   |   |   |   |   cosine_similarity > 0.981: non (11.0/1.0)
|   |   |   |   |   |   |   |   PCh031 > 8.08: dup (28.0)
|   |   |   |   |   |   |   PCh101 > 1.86
|   |   |   |   |   |   |   |   PCh121 <= 2.33
|   |   |   |   |   |   |   |   |   PCh011 <= 3.74
|   |   |   |   |   |   |   |   |   |   PCh092 <= 0.27: non (2.0)
|   |   |   |   |   |   |   |   |   |   PCh092 > 0.27: dup (22.0)
|   |   |   |   |   |   |   |   |   PCh011 > 3.74: non (2.0)
|   |   |   |   |   |   |   |   PCh121 > 2.33
|   |   |   |   |   |   |   |   |   prior <= 0.5
|   |   |   |   |   |   |   |   |   |   PCh021 <= 9.23: non (4.0/1.0)
|   |   |   |   |   |   |   |   |   |   PCh021 > 9.23: dup (6.0)
|   |   |   |   |   |   |   |   |   prior > 0.5
|   |   |   |   |   |   |   |   |   |   PCh072 <= 5.31
|   |   |   |   |   |   |   |   |   |   |   PCh092 <= 2.23
|   |   |   |   |   |   |   |   |   |   |   |   cosine_similarity <= 0.949
|   |   |   |   |   |   |   |   |   |   |   |   |   PCh111 <= 1.64: dup (7.0)
|   |   |   |   |   |   |   |   |   |   |   |   |   PCh111 > 1.64: non (3.0)
|   |   |   |   |   |   |   |   |   |   |   |   cosine_similarity > 0.949: non (18.0)
|   |   |   |   |   |   |   |   |   |   |   PCh092 > 2.23
|   |   |   |   |   |   |   |   |   |   |   |   PCh011 <= 4.1
|   |   |   |   |   |   |   |   |   |   |   |   |   PCh111 <= 2.29
|   |   |   |   |   |   |   |   |   |   |   |   |   |   PCh062 <= 2.87: dup (8.0/1.0)
|   |   |   |   |   |   |   |   |   |   |   |   |   |   PCh062 > 2.87
|   |   |   |   |   |   |   |   |   |   |   |   |   |   |   PCh042 <= 9.59: non (11.0/1.0)
|   |   |   |   |   |   |   |   |   |   |   |   |   |   |   PCh042 > 9.59: dup (2.0)
|   |   |   |   |   |   |   |   |   |   |   |   |   PCh111 > 2.29: dup (6.0)
|   |   |   |   |   |   |   |   |   |   |   |   PCh011 > 4.1: dup (12.0)
|   |   |   |   |   |   |   |   |   |   PCh072 > 5.31
|   |   |   |   |   |   |   |   |   |   |   PCh122 <= 7
|   |   |   |   |   |   |   |   |   |   |   |   PCh011 <= 2.51
|   |   |   |   |   |   |   |   |   |   |   |   |   PCh021 <= 9.04
|   |   |   |   |   |   |   |   |   |   |   |   |   |   PCh071 <= 5.8: dup (8.0)
|   |   |   |   |   |   |   |   |   |   |   |   |   |   PCh071 > 5.8
|   |   |   |   |   |   |   |   |   |   |   |   |   |   |   PCh011 <= 2.15: non (10.0/1.0)
|   |   |   |   |   |   |   |   |   |   |   |   |   |   |   PCh011 > 2.15: dup (3.0)
|   |   |   |   |   |   |   |   |   |   |   |   |   PCh021 > 9.04: non (5.0)
|   |   |   |   |   |   |   |   |   |   |   |   PCh011 > 2.51
|   |   |   |   |   |   |   |   |   |   |   |   |   PCh082 <= 7.68
|   |   |   |   |   |   |   |   |   |   |   |   |   |   bmfb <= 0.69
|   |   |   |   |   |   |   |   |   |   |   |   |   |   |   PCh012 <= 3.82: dup (3.0)
|   |   |   |   |   |   |   |   |   |   |   |   |   |   |   PCh012 > 3.82: non (3.0)
|   |   |   |   |   |   |   |   |   |   |   |   |   |   bmfb > 0.69: non (61.0)
|   |   |   |   |   |   |   |   |   |   |   |   |   PCh082 > 7.68
|   |   |   |   |   |   |   |   |   |   |   |   |   |   PCh011 <= 4.21: non (5.0)
|   |   |   |   |   |   |   |   |   |   |   |   |   |   PCh011 > 4.21: dup (6.0/1.0)
|   |   |   |   |   |   |   |   |   |   |   PCh122 > 7
|   |   |   |   |   |   |   |   |   |   |   |   bmfu <= 6.15: non (2.0)
|   |   |   |   |   |   |   |   |   |   |   |   bmfu > 6.15: dup (9.0)
|   |   |   |   |   |   comp > 0
|   |   |   |   |   |   |   PCh081 <= 0.39: dup (41.0/1.0)
|   |   |   |   |   |   |   PCh081 > 0.39
|   |   |   |   |   |   |   |   bmfu <= 14.25
|   |   |   |   |   |   |   |   |   PCh092 <= 2.08
|   |   |   |   |   |   |   |   |   |   PCh052 <= 1.85
|   |   |   |   |   |   |   |   |   |   |   PCh072 <= 1.88
|   |   |   |   |   |   |   |   |   |   |   |   bmfb <= 10.21
|   |   |   |   |   |   |   |   |   |   |   |   |   bmfb <= 3
|   |   |   |   |   |   |   |   |   |   |   |   |   |   PCh041 <= 1.78: non (2.0)
|   |   |   |   |   |   |   |   |   |   |   |   |   |   PCh041 > 1.78: dup (30.0/1.0)
|   |   |   |   |   |   |   |   |   |   |   |   |   bmfb > 3
|   |   |   |   |   |   |   |   |   |   |   |   |   |   PCh101 <= 4.77
|   |   |   |   |   |   |   |   |   |   |   |   |   |   |   PCh102 <= 0.55
|   |   |   |   |   |   |   |   |   |   |   |   |   |   |   |   prior <= 0.33: non (2.0)
|   |   |   |   |   |   |   |   |   |   |   |   |   |   |   |   prior > 0.33
|   |   |   |   |   |   |   |   |   |   |   |   |   |   |   |   |   PCh061 <= 1.62
|   |   |   |   |   |   |   |   |   |   |   |   |   |   |   |   |   |   bmfu <= 6.82: non (2.0)
|   |   |   |   |   |   |   |   |   |   |   |   |   |   |   |   |   |   bmfu > 6.82: dup (3.0)
|   |   |   |   |   |   |   |   |   |   |   |   |   |   |   |   |   PCh061 > 1.62: dup (15.0)
|   |   |   |   |   |   |   |   |   |   |   |   |   |   |   PCh102 > 0.55
|   |   |   |   |   |   |   |   |   |   |   |   |   |   |   |   PCh052 <= 0.8
|   |   |   |   |   |   |   |   |   |   |   |   |   |   |   |   |   PCh092 <= 0.62: dup (2.0)
|   |   |   |   |   |   |   |   |   |   |   |   |   |   |   |   |   PCh092 > 0.62: non (12.0/1.0)
|   |   |   |   |   |   |   |   |   |   |   |   |   |   |   |   PCh052 > 0.8: dup (8.0/1.0)
|   |   |   |   |   |   |   |   |   |   |   |   |   |   PCh101 > 4.77: non (5.0)
|   |   |   |   |   |   |   |   |   |   |   |   bmfb > 10.21: dup (32.0)
|   |   |   |   |   |   |   |   |   |   |   PCh072 > 1.88
|   |   |   |   |   |   |   |   |   |   |   |   bmfb <= 17.36
|   |   |   |   |   |   |   |   |   |   |   |   |   prior <= 0.5
|   |   |   |   |   |   |   |   |   |   |   |   |   |   PCh101 <= 3.32
|   |   |   |   |   |   |   |   |   |   |   |   |   |   |   PCh032 <= 1.82: non (2.0)
|   |   |   |   |   |   |   |   |   |   |   |   |   |   |   PCh032 > 1.82: dup (5.0)
|   |   |   |   |   |   |   |   |   |   |   |   |   |   PCh101 > 3.32: non (5.0)
|   |   |   |   |   |   |   |   |   |   |   |   |   prior > 0.5
|   |   |   |   |   |   |   |   |   |   |   |   |   |   PCh121 <= 1.58
|   |   |   |   |   |   |   |   |   |   |   |   |   |   |   bmfb <= 8.93
|   |   |   |   |   |   |   |   |   |   |   |   |   |   |   |   bmfb <= 6.92
|   |   |   |   |   |   |   |   |   |   |   |   |   |   |   |   |   PCh032 <= 2.33
|   |   |   |   |   |   |   |   |   |   |   |   |   |   |   |   |   |   PCh011 <= 1.36: non (3.0)
|   |   |   |   |   |   |   |   |   |   |   |   |   |   |   |   |   |   PCh011 > 1.36: dup (2.0)
|   |   |   |   |   |   |   |   |   |   |   |   |   |   |   |   |   PCh032 > 2.33: dup (10.0)
|   |   |   |   |   |   |   |   |   |   |   |   |   |   |   |   bmfb > 6.92: non (4.0)
|   |   |   |   |   |   |   |   |   |   |   |   |   |   |   bmfb > 8.93: dup (21.0)
|   |   |   |   |   |   |   |   |   |   |   |   |   |   PCh121 > 1.58
|   |   |   |   |   |   |   |   |   |   |   |   |   |   |   bmfb <= 0.63
|   |   |   |   |   |   |   |   |   |   |   |   |   |   |   |   PCh062 <= 0.93: non (3.0)
|   |   |   |   |   |   |   |   |   |   |   |   |   |   |   |   PCh062 > 0.93: dup (23.0/2.0)
|   |   |   |   |   |   |   |   |   |   |   |   |   |   |   bmfb > 0.63
|   |   |   |   |   |   |   |   |   |   |   |   |   |   |   |   bmfb <= 5.19
|   |   |   |   |   |   |   |   |   |   |   |   |   |   |   |   |   PCh082 <= 3.8
|   |   |   |   |   |   |   |   |   |   |   |   |   |   |   |   |   |   PCh042 <= 6.83
|   |   |   |   |   |   |   |   |   |   |   |   |   |   |   |   |   |   |   PCh042 <= 2.89: dup (2.0)
|   |   |   |   |   |   |   |   |   |   |   |   |   |   |   |   |   |   |   PCh042 > 2.89
|   |   |   |   |   |   |   |   |   |   |   |   |   |   |   |   |   |   |   |   PCh111 <= 2.11: non (12.0)
|   |   |   |   |   |   |   |   |   |   |   |   |   |   |   |   |   |   |   |   PCh111 > 2.11
|   |   |   |   |   |   |   |   |   |   |   |   |   |   |   |   |   |   |   |   |   PCh092 <= 1.39: non (4.0)
|   |   |   |   |   |   |   |   |   |   |   |   |   |   |   |   |   |   |   |   |   PCh092 > 1.39: dup (3.0)
|   |   |   |   |   |   |   |   |   |   |   |   |   |   |   |   |   |   PCh042 > 6.83: dup (4.0)
|   |   |   |   |   |   |   |   |   |   |   |   |   |   |   |   |   PCh082 > 3.8: non (10.0)
|   |   |   |   |   |   |   |   |   |   |   |   |   |   |   |   bmfb > 5.19
|   |   |   |   |   |   |   |   |   |   |   |   |   |   |   |   |   PCh061 <= 3.94
|   |   |   |   |   |   |   |   |   |   |   |   |   |   |   |   |   |   PCh122 <= 1.61: dup (5.0)
|   |   |   |   |   |   |   |   |   |   |   |   |   |   |   |   |   |   PCh122 > 1.61
|   |   |   |   |   |   |   |   |   |   |   |   |   |   |   |   |   |   |   PCh082 <= 2.92: non (9.0)
|   |   |   |   |   |   |   |   |   |   |   |   |   |   |   |   |   |   |   PCh082 > 2.92
|   |   |   |   |   |   |   |   |   |   |   |   |   |   |   |   |   |   |   |   PCh122 <= 4.59
|   |   |   |   |   |   |   |   |   |   |   |   |   |   |   |   |   |   |   |   |   PCh072 <= 4.32: dup (11.0)
|   |   |   |   |   |   |   |   |   |   |   |   |   |   |   |   |   |   |   |   |   PCh072 > 4.32
|   |   |   |   |   |   |   |   |   |   |   |   |   |   |   |   |   |   |   |   |   |   PCh111 <= 0.43: dup (2.0)
|   |   |   |   |   |   |   |   |   |   |   |   |   |   |   |   |   |   |   |   |   |   PCh111 > 0.43: non (5.0)
|   |   |   |   |   |   |   |   |   |   |   |   |   |   |   |   |   |   |   |   PCh122 > 4.59: non (4.0)
|   |   |   |   |   |   |   |   |   |   |   |   |   |   |   |   |   PCh061 > 3.94: dup (11.0)
|   |   |   |   |   |   |   |   |   |   |   |   bmfb > 17.36
|   |   |   |   |   |   |   |   |   |   |   |   |   bmfb <= 25.04: non (19.0)
|   |   |   |   |   |   |   |   |   |   |   |   |   bmfb > 25.04: dup (2.0)
|   |   |   |   |   |   |   |   |   |   PCh052 > 1.85
|   |   |   |   |   |   |   |   |   |   |   bmfb <= 3.23
|   |   |   |   |   |   |   |   |   |   |   |   cosine_similarity <= 0.943
|   |   |   |   |   |   |   |   |   |   |   |   |   PCh032 <= 3.54: non (5.0)
|   |   |   |   |   |   |   |   |   |   |   |   |   PCh032 > 3.54
|   |   |   |   |   |   |   |   |   |   |   |   |   |   PCh052 <= 1.97: non (2.0)
|   |   |   |   |   |   |   |   |   |   |   |   |   |   PCh052 > 1.97: dup (4.0)
|   |   |   |   |   |   |   |   |   |   |   |   cosine_similarity > 0.943: dup (11.0)
|   |   |   |   |   |   |   |   |   |   |   bmfb > 3.23
|   |   |   |   |   |   |   |   |   |   |   |   PCh011 <= 2.28
|   |   |   |   |   |   |   |   |   |   |   |   |   PCh091 <= 0.9
|   |   |   |   |   |   |   |   |   |   |   |   |   |   PCh031 <= 4.11: non (4.0)
|   |   |   |   |   |   |   |   |   |   |   |   |   |   PCh031 > 4.11: dup (2.0)
|   |   |   |   |   |   |   |   |   |   |   |   |   PCh091 > 0.9: non (30.0)
|   |   |   |   |   |   |   |   |   |   |   |   PCh011 > 2.28
|   |   |   |   |   |   |   |   |   |   |   |   |   PCh082 <= 5.14
|   |   |   |   |   |   |   |   |   |   |   |   |   |   PCh012 <= 0.92: non (3.0)
|   |   |   |   |   |   |   |   |   |   |   |   |   |   PCh012 > 0.92: dup (5.0)
|   |   |   |   |   |   |   |   |   |   |   |   |   PCh082 > 5.14: non (6.0)
|   |   |   |   |   |   |   |   |   PCh092 > 2.08
|   |   |   |   |   |   |   |   |   |   prior <= 0.33
|   |   |   |   |   |   |   |   |   |   |   PCh071 <= 7.9: dup (29.0/1.0)
|   |   |   |   |   |   |   |   |   |   |   PCh071 > 7.9: non (4.0/1.0)
|   |   |   |   |   |   |   |   |   |   prior > 0.33
|   |   |   |   |   |   |   |   |   |   |   bmfb <= 7.82
|   |   |   |   |   |   |   |   |   |   |   |   PCh122 <= 2.28
|   |   |   |   |   |   |   |   |   |   |   |   |   PCh032 <= 4.13
|   |   |   |   |   |   |   |   |   |   |   |   |   |   PCh081 <= 3.83
|   |   |   |   |   |   |   |   |   |   |   |   |   |   |   PCh072 <= 3.37
|   |   |   |   |   |   |   |   |   |   |   |   |   |   |   |   PCh081 <= 2.72
|   |   |   |   |   |   |   |   |   |   |   |   |   |   |   |   |   PCh032 <= 2.29: dup (3.0)
|   |   |   |   |   |   |   |   |   |   |   |   |   |   |   |   |   PCh032 > 2.29: non (3.0)
|   |   |   |   |   |   |   |   |   |   |   |   |   |   |   |   PCh081 > 2.72: dup (8.0)
|   |   |   |   |   |   |   |   |   |   |   |   |   |   |   PCh072 > 3.37: non (3.0)
|   |   |   |   |   |   |   |   |   |   |   |   |   |   PCh081 > 3.83: dup (23.0)
|   |   |   |   |   |   |   |   |   |   |   |   |   PCh032 > 4.13
|   |   |   |   |   |   |   |   |   |   |   |   |   |   PCh021 <= 3.12: dup (7.0)
|   |   |   |   |   |   |   |   |   |   |   |   |   |   PCh021 > 3.12
|   |   |   |   |   |   |   |   |   |   |   |   |   |   |   PCh071 <= 9.37
|   |   |   |   |   |   |   |   |   |   |   |   |   |   |   |   PCh102 <= 1.27
|   |   |   |   |   |   |   |   |   |   |   |   |   |   |   |   |   PCh081 <= 6.88: non (16.0)
|   |   |   |   |   |   |   |   |   |   |   |   |   |   |   |   |   PCh081 > 6.88
|   |   |   |   |   |   |   |   |   |   |   |   |   |   |   |   |   |   PCh031 <= 7.17: dup (3.0)
|   |   |   |   |   |   |   |   |   |   |   |   |   |   |   |   |   |   PCh031 > 7.17: non (4.0)
|   |   |   |   |   |   |   |   |   |   |   |   |   |   |   |   PCh102 > 1.27
|   |   |   |   |   |   |   |   |   |   |   |   |   |   |   |   |   PCh102 <= 2.98
|   |   |   |   |   |   |   |   |   |   |   |   |   |   |   |   |   |   prior <= 0.5: dup (2.0)
|   |   |   |   |   |   |   |   |   |   |   |   |   |   |   |   |   |   prior > 0.5
|   |   |   |   |   |   |   |   |   |   |   |   |   |   |   |   |   |   |   PCh032 <= 6.35
|   |   |   |   |   |   |   |   |   |   |   |   |   |   |   |   |   |   |   |   PCh042 <= 7.06
|   |   |   |   |   |   |   |   |   |   |   |   |   |   |   |   |   |   |   |   |   PCh121 <= 4.07: dup (6.0)
|   |   |   |   |   |   |   |   |   |   |   |   |   |   |   |   |   |   |   |   |   PCh121 > 4.07
|   |   |   |   |   |   |   |   |   |   |   |   |   |   |   |   |   |   |   |   |   |   PCh012 <= 2.28: dup (3.0)
|   |   |   |   |   |   |   |   |   |   |   |   |   |   |   |   |   |   |   |   |   |   PCh012 > 2.28: non (4.0)
|   |   |   |   |   |   |   |   |   |   |   |   |   |   |   |   |   |   |   |   PCh042 > 7.06: non (8.0)
|   |   |   |   |   |   |   |   |   |   |   |   |   |   |   |   |   |   |   PCh032 > 6.35: dup (11.0/1.0)
|   |   |   |   |   |   |   |   |   |   |   |   |   |   |   |   |   PCh102 > 2.98: non (7.0)
|   |   |   |   |   |   |   |   |   |   |   |   |   |   |   PCh071 > 9.37: dup (6.0)
|   |   |   |   |   |   |   |   |   |   |   |   PCh122 > 2.28
|   |   |   |   |   |   |   |   |   |   |   |   |   PCh042 <= 7.3
|   |   |   |   |   |   |   |   |   |   |   |   |   |   cosine_similarity <= 0.885
|   |   |   |   |   |   |   |   |   |   |   |   |   |   |   PCh012 <= 2.11: non (3.0)
|   |   |   |   |   |   |   |   |   |   |   |   |   |   |   PCh012 > 2.11: dup (6.0)
|   |   |   |   |   |   |   |   |   |   |   |   |   |   cosine_similarity > 0.885: dup (62.0)
|   |   |   |   |   |   |   |   |   |   |   |   |   PCh042 > 7.3
|   |   |   |   |   |   |   |   |   |   |   |   |   |   bmfu <= 10.07
|   |   |   |   |   |   |   |   |   |   |   |   |   |   |   bmfb <= 1.1
|   |   |   |   |   |   |   |   |   |   |   |   |   |   |   |   PCh012 <= 1.02
|   |   |   |   |   |   |   |   |   |   |   |   |   |   |   |   |   PCh011 <= 3.39: non (6.0)
|   |   |   |   |   |   |   |   |   |   |   |   |   |   |   |   |   PCh011 > 3.39: dup (2.0)
|   |   |   |   |   |   |   |   |   |   |   |   |   |   |   |   PCh012 > 1.02: dup (85.0/6.0)
|   |   |   |   |   |   |   |   |   |   |   |   |   |   |   bmfb > 1.1
|   |   |   |   |   |   |   |   |   |   |   |   |   |   |   |   PCh051 <= 2.43
|   |   |   |   |   |   |   |   |   |   |   |   |   |   |   |   |   PCh021 <= 3.52: dup (21.0)
|   |   |   |   |   |   |   |   |   |   |   |   |   |   |   |   |   PCh021 > 3.52
|   |   |   |   |   |   |   |   |   |   |   |   |   |   |   |   |   |   PCh121 <= 2
|   |   |   |   |   |   |   |   |   |   |   |   |   |   |   |   |   |   |   PCh031 <= 5.82
|   |   |   |   |   |   |   |   |   |   |   |   |   |   |   |   |   |   |   |   PCh102 <= 1.37: non (4.0)
|   |   |   |   |   |   |   |   |   |   |   |   |   |   |   |   |   |   |   |   PCh102 > 1.37
|   |   |   |   |   |   |   |   |   |   |   |   |   |   |   |   |   |   |   |   |   PCh051 <= 1.28: dup (10.0)
|   |   |   |   |   |   |   |   |   |   |   |   |   |   |   |   |   |   |   |   |   PCh051 > 1.28
|   |   |   |   |   |   |   |   |   |   |   |   |   |   |   |   |   |   |   |   |   |   PCh041 <= 6.4: non (4.0)
|   |   |   |   |   |   |   |   |   |   |   |   |   |   |   |   |   |   |   |   |   |   PCh041 > 6.4: dup (4.0)
|   |   |   |   |   |   |   |   |   |   |   |   |   |   |   |   |   |   |   PCh031 > 5.82: non (6.0)
|   |   |   |   |   |   |   |   |   |   |   |   |   |   |   |   |   |   PCh121 > 2: dup (80.0/12.0)
|   |   |   |   |   |   |   |   |   |   |   |   |   |   |   |   PCh051 > 2.43
|   |   |   |   |   |   |   |   |   |   |   |   |   |   |   |   |   PCh012 <= 2.85
|   |   |   |   |   |   |   |   |   |   |   |   |   |   |   |   |   |   bmfb <= 2.48: dup (7.0)
|   |   |   |   |   |   |   |   |   |   |   |   |   |   |   |   |   |   bmfb > 2.48
|   |   |   |   |   |   |   |   |   |   |   |   |   |   |   |   |   |   |   bmfu <= 7.9
|   |   |   |   |   |   |   |   |   |   |   |   |   |   |   |   |   |   |   |   PCh111 <= 0.93
|   |   |   |   |   |   |   |   |   |   |   |   |   |   |   |   |   |   |   |   |   bmfu <= 6.59: dup (2.0)
|   |   |   |   |   |   |   |   |   |   |   |   |   |   |   |   |   |   |   |   |   bmfu > 6.59: non (2.0)
|   |   |   |   |   |   |   |   |   |   |   |   |   |   |   |   |   |   |   |   PCh111 > 0.93: non (17.0)
|   |   |   |   |   |   |   |   |   |   |   |   |   |   |   |   |   |   |   bmfu > 7.9
|   |   |   |   |   |   |   |   |   |   |   |   |   |   |   |   |   |   |   |   PCh111 <= 2.03
|   |   |   |   |   |   |   |   |   |   |   |   |   |   |   |   |   |   |   |   |   bmfu <= 8.25: dup (4.0/1.0)
|   |   |   |   |   |   |   |   |   |   |   |   |   |   |   |   |   |   |   |   |   bmfu > 8.25: non (5.0)
|   |   |   |   |   |   |   |   |   |   |   |   |   |   |   |   |   |   |   |   PCh111 > 2.03: dup (4.0)
|   |   |   |   |   |   |   |   |   |   |   |   |   |   |   |   |   PCh012 > 2.85
|   |   |   |   |   |   |   |   |   |   |   |   |   |   |   |   |   |   PCh101 <= 5.51
|   |   |   |   |   |   |   |   |   |   |   |   |   |   |   |   |   |   |   PCh121 <= 5.2
|   |   |   |   |   |   |   |   |   |   |   |   |   |   |   |   |   |   |   |   PCh092 <= 3.74: non (7.0/1.0)
|   |   |   |   |   |   |   |   |   |   |   |   |   |   |   |   |   |   |   |   PCh092 > 3.74
|   |   |   |   |   |   |   |   |   |   |   |   |   |   |   |   |   |   |   |   |   PCh091 <= 4.19
|   |   |   |   |   |   |   |   |   |   |   |   |   |   |   |   |   |   |   |   |   |   PCh062 <= 4.44: dup (5.0)
|   |   |   |   |   |   |   |   |   |   |   |   |   |   |   |   |   |   |   |   |   |   PCh062 > 4.44
|   |   |   |   |   |   |   |   |   |   |   |   |   |   |   |   |   |   |   |   |   |   |   PCh081 <= 3.31: dup (3.0)
|   |   |   |   |   |   |   |   |   |   |   |   |   |   |   |   |   |   |   |   |   |   |   PCh081 > 3.31
|   |   |   |   |   |   |   |   |   |   |   |   |   |   |   |   |   |   |   |   |   |   |   |   PCh041 <= 11.36: non (8.0)
|   |   |   |   |   |   |   |   |   |   |   |   |   |   |   |   |   |   |   |   |   |   |   |   PCh041 > 11.36: dup (3.0/1.0)
|   |   |   |   |   |   |   |   |   |   |   |   |   |   |   |   |   |   |   |   |   PCh091 > 4.19: dup (13.0)
|   |   |   |   |   |   |   |   |   |   |   |   |   |   |   |   |   |   |   PCh121 > 5.2: dup (25.0)
|   |   |   |   |   |   |   |   |   |   |   |   |   |   |   |   |   |   PCh101 > 5.51: non (4.0)
|   |   |   |   |   |   |   |   |   |   |   |   |   |   bmfu > 10.07
|   |   |   |   |   |   |   |   |   |   |   |   |   |   |   PCh051 <= 2.54: dup (46.0)
|   |   |   |   |   |   |   |   |   |   |   |   |   |   |   PCh051 > 2.54
|   |   |   |   |   |   |   |   |   |   |   |   |   |   |   |   PCh022 <= 5.17: non (3.0)
|   |   |   |   |   |   |   |   |   |   |   |   |   |   |   |   PCh022 > 5.17
|   |   |   |   |   |   |   |   |   |   |   |   |   |   |   |   |   PCh111 <= 0.86
|   |   |   |   |   |   |   |   |   |   |   |   |   |   |   |   |   |   PCh032 <= 9.04: dup (6.0)
|   |   |   |   |   |   |   |   |   |   |   |   |   |   |   |   |   |   PCh032 > 9.04: non (3.0)
|   |   |   |   |   |   |   |   |   |   |   |   |   |   |   |   |   PCh111 > 0.86: dup (29.0)
|   |   |   |   |   |   |   |   |   |   |   bmfb > 7.82
|   |   |   |   |   |   |   |   |   |   |   |   PCh011 <= 0.48: dup (16.0)
|   |   |   |   |   |   |   |   |   |   |   |   PCh011 > 0.48
|   |   |   |   |   |   |   |   |   |   |   |   |   PCh052 <= 5.76
|   |   |   |   |   |   |   |   |   |   |   |   |   |   PCh071 <= 4.69
|   |   |   |   |   |   |   |   |   |   |   |   |   |   |   PCh121 <= 2.76
|   |   |   |   |   |   |   |   |   |   |   |   |   |   |   |   PCh102 <= 0.64: non (5.0)
|   |   |   |   |   |   |   |   |   |   |   |   |   |   |   |   PCh102 > 0.64
|   |   |   |   |   |   |   |   |   |   |   |   |   |   |   |   |   PCh011 <= 3.3
|   |   |   |   |   |   |   |   |   |   |   |   |   |   |   |   |   |   PCh041 <= 1.97: non (3.0)
|   |   |   |   |   |   |   |   |   |   |   |   |   |   |   |   |   |   PCh041 > 1.97: dup (31.0/5.0)
|   |   |   |   |   |   |   |   |   |   |   |   |   |   |   |   |   PCh011 > 3.3: non (4.0)
|   |   |   |   |   |   |   |   |   |   |   |   |   |   |   PCh121 > 2.76
|   |   |   |   |   |   |   |   |   |   |   |   |   |   |   |   bmfu <= 13.79
|   |   |   |   |   |   |   |   |   |   |   |   |   |   |   |   |   PCh072 <= 8.07: non (23.0)
|   |   |   |   |   |   |   |   |   |   |   |   |   |   |   |   |   PCh072 > 8.07
|   |   |   |   |   |   |   |   |   |   |   |   |   |   |   |   |   |   PCh021 <= 5.74: dup (2.0)
|   |   |   |   |   |   |   |   |   |   |   |   |   |   |   |   |   |   PCh021 > 5.74: non (3.0)
|   |   |   |   |   |   |   |   |   |   |   |   |   |   |   |   bmfu > 13.79: dup (2.0)
|   |   |   |   |   |   |   |   |   |   |   |   |   |   PCh071 > 4.69
|   |   |   |   |   |   |   |   |   |   |   |   |   |   |   PCh101 <= 5.37
|   |   |   |   |   |   |   |   |   |   |   |   |   |   |   |   PCh042 <= 9.64
|   |   |   |   |   |   |   |   |   |   |   |   |   |   |   |   |   PCh042 <= 9.58
|   |   |   |   |   |   |   |   |   |   |   |   |   |   |   |   |   |   PCh012 <= 3.13
|   |   |   |   |   |   |   |   |   |   |   |   |   |   |   |   |   |   |   PCh102 <= 1.71
|   |   |   |   |   |   |   |   |   |   |   |   |   |   |   |   |   |   |   |   PCh091 <= 5.79: dup (13.0/1.0)
|   |   |   |   |   |   |   |   |   |   |   |   |   |   |   |   |   |   |   |   PCh091 > 5.79: non (2.0)
|   |   |   |   |   |   |   |   |   |   |   |   |   |   |   |   |   |   |   PCh102 > 1.71
|   |   |   |   |   |   |   |   |   |   |   |   |   |   |   |   |   |   |   |   bmfu <= 12.46: non (7.0)
|   |   |   |   |   |   |   |   |   |   |   |   |   |   |   |   |   |   |   |   bmfu > 12.46: dup (3.0/1.0)
|   |   |   |   |   |   |   |   |   |   |   |   |   |   |   |   |   |   PCh012 > 3.13: dup (12.0)
|   |   |   |   |   |   |   |   |   |   |   |   |   |   |   |   |   PCh042 > 9.58: non (4.0)
|   |   |   |   |   |   |   |   |   |   |   |   |   |   |   |   PCh042 > 9.64
|   |   |   |   |   |   |   |   |   |   |   |   |   |   |   |   |   PCh081 <= 4.59
|   |   |   |   |   |   |   |   |   |   |   |   |   |   |   |   |   |   PCh031 <= 5.8: dup (3.0)
|   |   |   |   |   |   |   |   |   |   |   |   |   |   |   |   |   |   PCh031 > 5.8: non (3.0)
|   |   |   |   |   |   |   |   |   |   |   |   |   |   |   |   |   PCh081 > 4.59: dup (42.0/1.0)
|   |   |   |   |   |   |   |   |   |   |   |   |   |   |   PCh101 > 5.37: non (7.0/1.0)
|   |   |   |   |   |   |   |   |   |   |   |   |   PCh052 > 5.76: non (11.0/1.0)
|   |   |   |   |   |   |   |   bmfu > 14.25
|   |   |   |   |   |   |   |   |   PCh082 <= 2.79: dup (79.0)
|   |   |   |   |   |   |   |   |   PCh082 > 2.79
|   |   |   |   |   |   |   |   |   |   PCh042 <= 4.87: non (6.0)
|   |   |   |   |   |   |   |   |   |   PCh042 > 4.87
|   |   |   |   |   |   |   |   |   |   |   bmfb <= 11.51: dup (17.0/1.0)
|   |   |   |   |   |   |   |   |   |   |   bmfb > 11.51
|   |   |   |   |   |   |   |   |   |   |   |   PCh041 <= 10.58
|   |   |   |   |   |   |   |   |   |   |   |   |   bmfu <= 15.02: dup (12.0)
|   |   |   |   |   |   |   |   |   |   |   |   |   bmfu > 15.02: non (2.0)
|   |   |   |   |   |   |   |   |   |   |   |   PCh041 > 10.58: non (6.0)
|   |   bmfu > 15.14
|   |   |   PCh021 <= 1.53
|   |   |   |   PCh041 <= 1.96: dup (10.0)
|   |   |   |   PCh041 > 1.96
|   |   |   |   |   PCh101 <= 0.94: non (20.0)
|   |   |   |   |   PCh101 > 0.94: dup (2.0)
|   |   |   PCh021 > 1.53
|   |   |   |   PCh052 <= 4.19
|   |   |   |   |   PCh092 <= 0.66
|   |   |   |   |   |   PCh042 <= 3.95
|   |   |   |   |   |   |   PCh112 <= 0.65: dup (33.0/1.0)
|   |   |   |   |   |   |   PCh112 > 0.65: non (3.0/1.0)
|   |   |   |   |   |   PCh042 > 3.95
|   |   |   |   |   |   |   PCh101 <= 0.75: non (12.0)
|   |   |   |   |   |   |   PCh101 > 0.75
|   |   |   |   |   |   |   |   bmfu <= 22.62: non (9.0/1.0)
|   |   |   |   |   |   |   |   bmfu > 22.62: dup (7.0)
|   |   |   |   |   PCh092 > 0.66
|   |   |   |   |   |   PCh052 <= 0.1
|   |   |   |   |   |   |   PCh071 <= 5.74
|   |   |   |   |   |   |   |   PCh082 <= 4.21
|   |   |   |   |   |   |   |   |   PCh051 <= 0.57
|   |   |   |   |   |   |   |   |   |   PCh082 <= 1.4: non (4.0)
|   |   |   |   |   |   |   |   |   |   PCh082 > 1.4
|   |   |   |   |   |   |   |   |   |   |   PCh102 <= 1.15: dup (5.0)
|   |   |   |   |   |   |   |   |   |   |   PCh102 > 1.15: non (2.0)
|   |   |   |   |   |   |   |   |   PCh051 > 0.57: dup (5.0)
|   |   |   |   |   |   |   |   PCh082 > 4.21: non (7.0)
|   |   |   |   |   |   |   PCh071 > 5.74: dup (12.0)
|   |   |   |   |   |   PCh052 > 0.1
|   |   |   |   |   |   |   PCh071 <= 7.88
|   |   |   |   |   |   |   |   cosine_similarity <= 0.997
|   |   |   |   |   |   |   |   |   PCh021 <= 9.37
|   |   |   |   |   |   |   |   |   |   type <= 0: dup (337.0/6.0)
|   |   |   |   |   |   |   |   |   |   type > 0
|   |   |   |   |   |   |   |   |   |   |   PCh052 <= 3.07
|   |   |   |   |   |   |   |   |   |   |   |   PCh122 <= 1.38: dup (226.0/3.0)
|   |   |   |   |   |   |   |   |   |   |   |   PCh122 > 1.38
|   |   |   |   |   |   |   |   |   |   |   |   |   PCh112 <= 1.88
|   |   |   |   |   |   |   |   |   |   |   |   |   |   PCh011 <= 0.98
|   |   |   |   |   |   |   |   |   |   |   |   |   |   |   PCh011 <= 0.83
|   |   |   |   |   |   |   |   |   |   |   |   |   |   |   |   comp <= 0
|   |   |   |   |   |   |   |   |   |   |   |   |   |   |   |   |   PCh101 <= 1.23: dup (4.0)
|   |   |   |   |   |   |   |   |   |   |   |   |   |   |   |   |   PCh101 > 1.23: non (3.0)
|   |   |   |   |   |   |   |   |   |   |   |   |   |   |   |   comp > 0
|   |   |   |   |   |   |   |   |   |   |   |   |   |   |   |   |   PCh062 <= 2.67
|   |   |   |   |   |   |   |   |   |   |   |   |   |   |   |   |   |   PCh021 <= 4.77: dup (5.0)
|   |   |   |   |   |   |   |   |   |   |   |   |   |   |   |   |   |   PCh021 > 4.77: non (2.0)
|   |   |   |   |   |   |   |   |   |   |   |   |   |   |   |   |   PCh062 > 2.67: dup (32.0)
|   |   |   |   |   |   |   |   |   |   |   |   |   |   |   PCh011 > 0.83
|   |   |   |   |   |   |   |   |   |   |   |   |   |   |   |   PCh051 <= 1.24: dup (2.0)
|   |   |   |   |   |   |   |   |   |   |   |   |   |   |   |   PCh051 > 1.24: non (8.0/1.0)
|   |   |   |   |   |   |   |   |   |   |   |   |   |   PCh011 > 0.98
|   |   |   |   |   |   |   |   |   |   |   |   |   |   |   PCh012 <= 4.04
|   |   |   |   |   |   |   |   |   |   |   |   |   |   |   |   PCh072 <= 3.5
|   |   |   |   |   |   |   |   |   |   |   |   |   |   |   |   |   bmfu <= 21.85
|   |   |   |   |   |   |   |   |   |   |   |   |   |   |   |   |   |   PCh042 <= 7.01
|   |   |   |   |   |   |   |   |   |   |   |   |   |   |   |   |   |   |   PCh111 <= 0.08: non (2.0)
|   |   |   |   |   |   |   |   |   |   |   |   |   |   |   |   |   |   |   PCh111 > 0.08: dup (16.0/1.0)
|   |   |   |   |   |   |   |   |   |   |   |   |   |   |   |   |   |   PCh042 > 7.01: non (5.0)
|   |   |   |   |   |   |   |   |   |   |   |   |   |   |   |   |   bmfu > 21.85: dup (83.0/2.0)
|   |   |   |   |   |   |   |   |   |   |   |   |   |   |   |   PCh072 > 3.5: dup (203.0/1.0)
|   |   |   |   |   |   |   |   |   |   |   |   |   |   |   PCh012 > 4.04
|   |   |   |   |   |   |   |   |   |   |   |   |   |   |   |   PCh082 <= 4.46: non (6.0/1.0)
|   |   |   |   |   |   |   |   |   |   |   |   |   |   |   |   PCh082 > 4.46: dup (11.0/1.0)
|   |   |   |   |   |   |   |   |   |   |   |   |   PCh112 > 1.88
|   |   |   |   |   |   |   |   |   |   |   |   |   |   PCh062 <= 4.41
|   |   |   |   |   |   |   |   |   |   |   |   |   |   |   bmfu <= 21.05: dup (2.0)
|   |   |   |   |   |   |   |   |   |   |   |   |   |   |   bmfu > 21.05: non (9.0)
|   |   |   |   |   |   |   |   |   |   |   |   |   |   PCh062 > 4.41
|   |   |   |   |   |   |   |   |   |   |   |   |   |   |   PCh022 <= 10.46: dup (20.0/1.0)
|   |   |   |   |   |   |   |   |   |   |   |   |   |   |   PCh022 > 10.46: non (2.0)
|   |   |   |   |   |   |   |   |   |   |   PCh052 > 3.07: dup (182.0)
|   |   |   |   |   |   |   |   |   PCh021 > 9.37
|   |   |   |   |   |   |   |   |   |   PCh062 <= 3.71
|   |   |   |   |   |   |   |   |   |   |   prior <= 0.5: dup (2.0)
|   |   |   |   |   |   |   |   |   |   |   prior > 0.5
|   |   |   |   |   |   |   |   |   |   |   |   bmfu <= 18.87: non (7.0)
|   |   |   |   |   |   |   |   |   |   |   |   bmfu > 18.87
|   |   |   |   |   |   |   |   |   |   |   |   |   bmfu <= 23.98: dup (4.0)
|   |   |   |   |   |   |   |   |   |   |   |   |   bmfu > 23.98: non (2.0)
|   |   |   |   |   |   |   |   |   |   PCh062 > 3.71
|   |   |   |   |   |   |   |   |   |   |   PCh072 <= 10.13: dup (46.0/1.0)
|   |   |   |   |   |   |   |   |   |   |   PCh072 > 10.13: non (4.0/1.0)
|   |   |   |   |   |   |   |   cosine_similarity > 0.997
|   |   |   |   |   |   |   |   |   bmfb <= 32.7
|   |   |   |   |   |   |   |   |   |   PCh082 <= 3.35
|   |   |   |   |   |   |   |   |   |   |   PCh022 <= 2.7: non (2.0)
|   |   |   |   |   |   |   |   |   |   |   PCh022 > 2.7
|   |   |   |   |   |   |   |   |   |   |   |   comp <= 0
|   |   |   |   |   |   |   |   |   |   |   |   |   bmfb <= 26.35: dup (2.0)
|   |   |   |   |   |   |   |   |   |   |   |   |   bmfb > 26.35: non (2.0)
|   |   |   |   |   |   |   |   |   |   |   |   comp > 0: dup (18.0)
|   |   |   |   |   |   |   |   |   |   PCh082 > 3.35: non (18.0/1.0)
|   |   |   |   |   |   |   |   |   bmfb > 32.7
|   |   |   |   |   |   |   |   |   |   PCh052 <= 1.75: dup (96.0)
|   |   |   |   |   |   |   |   |   |   PCh052 > 1.75
|   |   |   |   |   |   |   |   |   |   |   PCh052 <= 1.8: non (5.0)
|   |   |   |   |   |   |   |   |   |   |   PCh052 > 1.8
|   |   |   |   |   |   |   |   |   |   |   |   comp <= 0
|   |   |   |   |   |   |   |   |   |   |   |   |   PCh102 <= 2.14: non (5.0/1.0)
|   |   |   |   |   |   |   |   |   |   |   |   |   PCh102 > 2.14: dup (9.0)
|   |   |   |   |   |   |   |   |   |   |   |   comp > 0: dup (79.0/3.0)
|   |   |   |   |   |   |   PCh071 > 7.88
|   |   |   |   |   |   |   |   cosine_similarity <= 0.993
|   |   |   |   |   |   |   |   |   PCh062 <= 9.16
|   |   |   |   |   |   |   |   |   |   PCh052 <= 1.61: dup (24.0/1.0)
|   |   |   |   |   |   |   |   |   |   PCh052 > 1.61
|   |   |   |   |   |   |   |   |   |   |   PCh052 <= 1.95: non (9.0/1.0)
|   |   |   |   |   |   |   |   |   |   |   PCh052 > 1.95
|   |   |   |   |   |   |   |   |   |   |   |   type <= 0
|   |   |   |   |   |   |   |   |   |   |   |   |   PCh071 <= 10.91: dup (13.0)
|   |   |   |   |   |   |   |   |   |   |   |   |   PCh071 > 10.91: non (3.0/1.0)
|   |   |   |   |   |   |   |   |   |   |   |   type > 0
|   |   |   |   |   |   |   |   |   |   |   |   |   comp <= 0
|   |   |   |   |   |   |   |   |   |   |   |   |   |   PCh081 <= 9.41: non (5.0)
|   |   |   |   |   |   |   |   |   |   |   |   |   |   PCh081 > 9.41: dup (3.0)
|   |   |   |   |   |   |   |   |   |   |   |   |   comp > 0
|   |   |   |   |   |   |   |   |   |   |   |   |   |   PCh111 <= 1.48: dup (19.0/2.0)
|   |   |   |   |   |   |   |   |   |   |   |   |   |   PCh111 > 1.48
|   |   |   |   |   |   |   |   |   |   |   |   |   |   |   PCh051 <= 3.91: non (5.0)
|   |   |   |   |   |   |   |   |   |   |   |   |   |   |   PCh051 > 3.91: dup (4.0/1.0)
|   |   |   |   |   |   |   |   |   PCh062 > 9.16: non (5.0)
|   |   |   |   |   |   |   |   cosine_similarity > 0.993
|   |   |   |   |   |   |   |   |   type <= 0
|   |   |   |   |   |   |   |   |   |   PCh051 <= 3.53: dup (10.0)
|   |   |   |   |   |   |   |   |   |   PCh051 > 3.53: non (2.0)
|   |   |   |   |   |   |   |   |   type > 0: dup (51.0)
|   |   |   |   PCh052 > 4.19
|   |   |   |   |   type <= 0
|   |   |   |   |   |   PCh102 <= 6.05: dup (18.0)
|   |   |   |   |   |   PCh102 > 6.05: non (4.0/1.0)
|   |   |   |   |   type > 0
|   |   |   |   |   |   prior <= 0.5
|   |   |   |   |   |   |   cosine_similarity <= 0.999: non (5.0)
|   |   |   |   |   |   |   cosine_similarity > 0.999: dup (2.0)
|   |   |   |   |   |   prior > 0.5
|   |   |   |   |   |   |   bmfu <= 44.83
|   |   |   |   |   |   |   |   PCh112 <= 3.75
|   |   |   |   |   |   |   |   |   comp <= 0
|   |   |   |   |   |   |   |   |   |   PCh021 <= 8.78: non (5.0)
|   |   |   |   |   |   |   |   |   |   PCh021 > 8.78: dup (2.0)
|   |   |   |   |   |   |   |   |   comp > 0
|   |   |   |   |   |   |   |   |   |   cosine_similarity <= 0.996
|   |   |   |   |   |   |   |   |   |   |   bmfb <= 40.93
|   |   |   |   |   |   |   |   |   |   |   |   PCh091 <= 4.29
|   |   |   |   |   |   |   |   |   |   |   |   |   PCh071 <= 6.53: dup (7.0/1.0)
|   |   |   |   |   |   |   |   |   |   |   |   |   PCh071 > 6.53: non (6.0)
|   |   |   |   |   |   |   |   |   |   |   |   PCh091 > 4.29: dup (13.0)
|   |   |   |   |   |   |   |   |   |   |   bmfb > 40.93: non (7.0)
|   |   |   |   |   |   |   |   |   |   cosine_similarity > 0.996: dup (10.0)
|   |   |   |   |   |   |   |   PCh112 > 3.75: non (7.0)
|   |   |   |   |   |   |   bmfu > 44.83: dup (11.0)

Number of Leaves  : 	680

Size of the tree : 	1359


Time taken to build model: 6.21 seconds
Time taken to test model on training data: 0.31 seconds

=== Error on training data ===

Correctly Classified Instances       27298               98.6199 %
Incorrectly Classified Instances       382                1.3801 %
Kappa statistic                          0.9569
Mean absolute error                      0.0243
Root mean squared error                  0.1103
Relative absolute error                  7.6021 %
Root relative squared error             27.5724 %
Total Number of Instances            27680     


=== Confusion Matrix ===

     a     b   <-- classified as
  5354   182 |     a = dup
   200 21944 |     b = non



=== Stratified cross-validation ===

Correctly Classified Instances       25569               92.3736 %
Incorrectly Classified Instances      2111                7.6264 %
Kappa statistic                          0.7608
Mean absolute error                      0.0858
Root mean squared error                  0.2614
Relative absolute error                 26.8106 %
Root relative squared error             65.3597 %
Total Number of Instances            27680     


=== Confusion Matrix ===

     a     b   <-- classified as
  4454  1082 |     a = dup
  1029 21115 |     b = non

