
J48 pruned tree
------------------

bmfu <= 3.36
|   comp <= 0
|   |   prod <= 0
|   |   |   bmfu <= 1.33: non (14253.0/31.0)
|   |   |   bmfu > 1.33
|   |   |   |    polymorhic1 <= 0.78
|   |   |   |   |    introLexical1 <= 1.8
|   |   |   |   |   |    ssa1 <= 0.65: non (6.0)
|   |   |   |   |   |    ssa1 > 0.65
|   |   |   |   |   |   |    intermediate1 <= 1.11: non (4.0/1.0)
|   |   |   |   |   |   |    intermediate1 > 1.11: dup (8.0)
|   |   |   |   |    introLexical1 > 1.8: non (16.0)
|   |   |   |    polymorhic1 > 0.78
|   |   |   |   |    garbage2 <= 0.51
|   |   |   |   |   |    garbage2 <= 0.44
|   |   |   |   |   |   |    polymorhic2 <= 0: dup (3.0)
|   |   |   |   |   |   |    polymorhic2 > 0: non (30.0/1.0)
|   |   |   |   |   |    garbage2 > 0.44: dup (3.0)
|   |   |   |   |    garbage2 > 0.51
|   |   |   |   |   |    introLexical2 <= 10.66
|   |   |   |   |   |   |    introLexical2 <= 10.61
|   |   |   |   |   |   |   |    intstructions2 <= 13.24
|   |   |   |   |   |   |   |   |    polymorhic2 <= 10.7
|   |   |   |   |   |   |   |   |   |    introLexical1 <= 7.17
|   |   |   |   |   |   |   |   |   |   |    intstructions1 <= 8.82: non (954.0/16.0)
|   |   |   |   |   |   |   |   |   |   |    intstructions1 > 8.82
|   |   |   |   |   |   |   |   |   |   |   |   cosine_similarity <= 0.968: non (93.0/6.0)
|   |   |   |   |   |   |   |   |   |   |   |   cosine_similarity > 0.968
|   |   |   |   |   |   |   |   |   |   |   |   |    introLexical1 <= 6.3: dup (13.0)
|   |   |   |   |   |   |   |   |   |   |   |   |    introLexical1 > 6.3: non (6.0)
|   |   |   |   |   |   |   |   |   |    introLexical1 > 7.17: non (1349.0/16.0)
|   |   |   |   |   |   |   |   |    polymorhic2 > 10.7
|   |   |   |   |   |   |   |   |   |    hueristics2 <= 8.04
|   |   |   |   |   |   |   |   |   |   |    introLexical2 <= 8.8: dup (10.0)
|   |   |   |   |   |   |   |   |   |   |    introLexical2 > 8.8: non (3.0/1.0)
|   |   |   |   |   |   |   |   |   |    hueristics2 > 8.04: non (128.0/5.0)
|   |   |   |   |   |   |   |    intstructions2 > 13.24
|   |   |   |   |   |   |   |   |    intstructions2 <= 13.62
|   |   |   |   |   |   |   |   |   |    introLexical2 <= 10.08: dup (10.0/1.0)
|   |   |   |   |   |   |   |   |   |    introLexical2 > 10.08: non (3.0)
|   |   |   |   |   |   |   |   |    intstructions2 > 13.62: non (40.0/1.0)
|   |   |   |   |   |   |    introLexical2 > 10.61
|   |   |   |   |   |   |   |    hueristics2 <= 13.52: non (14.0)
|   |   |   |   |   |   |   |    hueristics2 > 13.52: dup (18.0/2.0)
|   |   |   |   |   |    introLexical2 > 10.66: non (974.0/7.0)
|   |   prod > 0
|   |   |    semantics2 <= 1.11
|   |   |   |    liveRegisters2 <= 0.93: non (14.0)
|   |   |   |    liveRegisters2 > 0.93
|   |   |   |   |    oops2 <= 3.14
|   |   |   |   |   |    intermediate2 <= 1.1: non (3.0/1.0)
|   |   |   |   |   |    intermediate2 > 1.1: dup (18.0)
|   |   |   |   |    oops2 > 3.14: non (3.0)
|   |   |    semantics2 > 1.11
|   |   |   |   bmfu <= 1.25: non (595.0/24.0)
|   |   |   |   bmfu > 1.25
|   |   |   |   |    intermediate2 <= 12.06
|   |   |   |   |   |   bmfu <= 2.45
|   |   |   |   |   |   |    memory1 <= 4.97
|   |   |   |   |   |   |   |   prior <= 0.5
|   |   |   |   |   |   |   |   |   bmfu <= 2.09: non (6.0/1.0)
|   |   |   |   |   |   |   |   |   bmfu > 2.09: dup (3.0)
|   |   |   |   |   |   |   |   prior > 0.5
|   |   |   |   |   |   |   |   |   bmfb <= 1.17: non (108.0/28.0)
|   |   |   |   |   |   |   |   |   bmfb > 1.17
|   |   |   |   |   |   |   |   |   |    hueristics2 <= 5.83: non (5.0/1.0)
|   |   |   |   |   |   |   |   |   |    hueristics2 > 5.83: dup (6.0)
|   |   |   |   |   |   |    memory1 > 4.97
|   |   |   |   |   |   |   |   type <= 0
|   |   |   |   |   |   |   |   |    garbage2 <= 3.4
|   |   |   |   |   |   |   |   |   |    oops2 <= 4.32: non (4.0)
|   |   |   |   |   |   |   |   |   |    oops2 > 4.32: dup (5.0)
|   |   |   |   |   |   |   |   |    garbage2 > 3.4: non (47.0/2.0)
|   |   |   |   |   |   |   |   type > 0: non (59.0/5.0)
|   |   |   |   |   |   bmfu > 2.45
|   |   |   |   |   |   |    memory2 <= 8.45
|   |   |   |   |   |   |   |   prior <= 0.5: dup (8.0/1.0)
|   |   |   |   |   |   |   |   prior > 0.5
|   |   |   |   |   |   |   |   |    intstructions2 <= 9.59
|   |   |   |   |   |   |   |   |   |    polymorhic1 <= 10.25
|   |   |   |   |   |   |   |   |   |   |    polymorhic1 <= 6.34
|   |   |   |   |   |   |   |   |   |   |   |   cosine_similarity <= 0.975
|   |   |   |   |   |   |   |   |   |   |   |   |    ssa2 <= 10
|   |   |   |   |   |   |   |   |   |   |   |   |   |    memory1 <= 1.33: dup (3.0)
|   |   |   |   |   |   |   |   |   |   |   |   |   |    memory1 > 1.33
|   |   |   |   |   |   |   |   |   |   |   |   |   |   |    garbage2 <= 2.7
|   |   |   |   |   |   |   |   |   |   |   |   |   |   |   |    intstructions2 <= 4.23: non (8.0)
|   |   |   |   |   |   |   |   |   |   |   |   |   |   |   |    intstructions2 > 4.23: dup (5.0)
|   |   |   |   |   |   |   |   |   |   |   |   |   |   |    garbage2 > 2.7: non (33.0)
|   |   |   |   |   |   |   |   |   |   |   |   |    ssa2 > 10: dup (4.0)
|   |   |   |   |   |   |   |   |   |   |   |   cosine_similarity > 0.975: dup (4.0)
|   |   |   |   |   |   |   |   |   |   |    polymorhic1 > 6.34
|   |   |   |   |   |   |   |   |   |   |   |    oops2 <= 3.66: dup (11.0)
|   |   |   |   |   |   |   |   |   |   |   |    oops2 > 3.66
|   |   |   |   |   |   |   |   |   |   |   |   |    functional2 <= 5.44
|   |   |   |   |   |   |   |   |   |   |   |   |   |    semantics1 <= 9.45
|   |   |   |   |   |   |   |   |   |   |   |   |   |   |    memory1 <= 3.6: dup (3.0)
|   |   |   |   |   |   |   |   |   |   |   |   |   |   |    memory1 > 3.6: non (15.0/1.0)
|   |   |   |   |   |   |   |   |   |   |   |   |   |    semantics1 > 9.45: dup (6.0/1.0)
|   |   |   |   |   |   |   |   |   |   |   |   |    functional2 > 5.44: dup (7.0)
|   |   |   |   |   |   |   |   |   |    polymorhic1 > 10.25: non (13.0)
|   |   |   |   |   |   |   |   |    intstructions2 > 9.59: dup (7.0)
|   |   |   |   |   |   |    memory2 > 8.45: non (12.0)
|   |   |   |   |    intermediate2 > 12.06: non (69.0/1.0)
|   comp > 0
|   |   prod <= 0
|   |   |   bmfu <= 2.09: non (244.0/1.0)
|   |   |   bmfu > 2.09
|   |   |   |    oops1 <= 5.87
|   |   |   |   |    functional2 <= 7.57: dup (8.0/1.0)
|   |   |   |   |    functional2 > 7.57: non (2.0)
|   |   |   |    oops1 > 5.87: non (28.0/1.0)
|   |   prod > 0
|   |   |   bmfu <= 0.91
|   |   |   |    introLexical1 <= 11.14
|   |   |   |   |    introLexical1 <= 1.41: non (29.0)
|   |   |   |   |    introLexical1 > 1.41
|   |   |   |   |   |    intermediate2 <= 1.39: non (21.0)
|   |   |   |   |   |    intermediate2 > 1.39
|   |   |   |   |   |   |    oops2 <= 1.54
|   |   |   |   |   |   |   |    parsing2 <= 0: non (3.0)
|   |   |   |   |   |   |   |    parsing2 > 0: dup (13.0/2.0)
|   |   |   |   |   |   |    oops2 > 1.54
|   |   |   |   |   |   |   |   type <= 0
|   |   |   |   |   |   |   |   |    polymorhic2 <= 2.67
|   |   |   |   |   |   |   |   |   |   prior <= 0.33: non (2.0)
|   |   |   |   |   |   |   |   |   |   prior > 0.33
|   |   |   |   |   |   |   |   |   |   |    intstructions2 <= 1.54: non (4.0/1.0)
|   |   |   |   |   |   |   |   |   |   |    intstructions2 > 1.54: dup (7.0)
|   |   |   |   |   |   |   |   |    polymorhic2 > 2.67: non (103.0/18.0)
|   |   |   |   |   |   |   |   type > 0
|   |   |   |   |   |   |   |   |    functional2 <= 4.48
|   |   |   |   |   |   |   |   |   |    memory1 <= 3.95
|   |   |   |   |   |   |   |   |   |   |    liveRegisters2 <= 7.26
|   |   |   |   |   |   |   |   |   |   |   |    polymorhic2 <= 2.9
|   |   |   |   |   |   |   |   |   |   |   |   |    introLexical1 <= 4.98: non (7.0/1.0)
|   |   |   |   |   |   |   |   |   |   |   |   |    introLexical1 > 4.98: dup (3.0)
|   |   |   |   |   |   |   |   |   |   |   |    polymorhic2 > 2.9: non (26.0)
|   |   |   |   |   |   |   |   |   |   |    liveRegisters2 > 7.26: dup (3.0)
|   |   |   |   |   |   |   |   |   |    memory1 > 3.95: non (39.0)
|   |   |   |   |   |   |   |   |    functional2 > 4.48
|   |   |   |   |   |   |   |   |   |    liveRegisters2 <= 4.8: dup (9.0/1.0)
|   |   |   |   |   |   |   |   |   |    liveRegisters2 > 4.8
|   |   |   |   |   |   |   |   |   |   |    parsing2 <= 4.62: non (21.0)
|   |   |   |   |   |   |   |   |   |   |    parsing2 > 4.62
|   |   |   |   |   |   |   |   |   |   |   |    polymorhic2 <= 10.87: dup (9.0/1.0)
|   |   |   |   |   |   |   |   |   |   |   |    polymorhic2 > 10.87: non (11.0)
|   |   |   |    introLexical1 > 11.14: non (30.0)
|   |   |   bmfu > 0.91
|   |   |   |   type <= 0
|   |   |   |   |    introLexical2 <= 11.48
|   |   |   |   |   |   cosine_similarity <= 0.975
|   |   |   |   |   |   |   prior <= 0.5
|   |   |   |   |   |   |   |    intermediate1 <= 11.73
|   |   |   |   |   |   |   |   |    semantics2 <= 0.7: non (2.0)
|   |   |   |   |   |   |   |   |    semantics2 > 0.7: dup (15.0/1.0)
|   |   |   |   |   |   |   |    intermediate1 > 11.73: non (3.0)
|   |   |   |   |   |   |   prior > 0.5: dup (227.0/79.0)
|   |   |   |   |   |   cosine_similarity > 0.975
|   |   |   |   |   |   |    liveRegisters2 <= 5.62: dup (3.0)
|   |   |   |   |   |   |    liveRegisters2 > 5.62: non (15.0/1.0)
|   |   |   |   |    introLexical2 > 11.48
|   |   |   |   |   |    intstructions2 <= 10.16: dup (4.0/1.0)
|   |   |   |   |   |    intstructions2 > 10.16: non (23.0/2.0)
|   |   |   |   type > 0
|   |   |   |   |    pipeline1 <= 2.79
|   |   |   |   |   |    semantics2 <= 0.98: dup (5.0/1.0)
|   |   |   |   |   |    semantics2 > 0.98
|   |   |   |   |   |   |    ssa2 <= 6.56: non (44.0/2.0)
|   |   |   |   |   |   |    ssa2 > 6.56
|   |   |   |   |   |   |   |    functional2 <= 3.57: dup (4.0)
|   |   |   |   |   |   |   |    functional2 > 3.57
|   |   |   |   |   |   |   |   |    intermediate1 <= 3.35
|   |   |   |   |   |   |   |   |   |    liveRegisters1 <= 0.94: non (2.0)
|   |   |   |   |   |   |   |   |   |    liveRegisters1 > 0.94: dup (4.0)
|   |   |   |   |   |   |   |   |    intermediate1 > 3.35: non (10.0)
|   |   |   |   |    pipeline1 > 2.79
|   |   |   |   |   |   prior <= 0.5
|   |   |   |   |   |   |    memory2 <= 6.32
|   |   |   |   |   |   |   |    parsing2 <= 1.45: dup (3.0)
|   |   |   |   |   |   |   |    parsing2 > 1.45: non (16.0)
|   |   |   |   |   |   |    memory2 > 6.32: dup (4.0)
|   |   |   |   |   |   prior > 0.5
|   |   |   |   |   |   |    garbage1 <= 6.54
|   |   |   |   |   |   |   |    parsing2 <= 0.75
|   |   |   |   |   |   |   |   |   bmfb <= 1.73: dup (25.0/1.0)
|   |   |   |   |   |   |   |   |   bmfb > 1.73: non (4.0/1.0)
|   |   |   |   |   |   |   |    parsing2 > 0.75
|   |   |   |   |   |   |   |   |    semantics2 <= 2.62
|   |   |   |   |   |   |   |   |   |    oops1 <= 2.6: dup (3.0/1.0)
|   |   |   |   |   |   |   |   |   |    oops1 > 2.6: non (16.0)
|   |   |   |   |   |   |   |   |    semantics2 > 2.62
|   |   |   |   |   |   |   |   |   |    oops1 <= 3.57
|   |   |   |   |   |   |   |   |   |   |    polymorhic1 <= 5.55: dup (19.0)
|   |   |   |   |   |   |   |   |   |   |    polymorhic1 > 5.55
|   |   |   |   |   |   |   |   |   |   |   |    functional1 <= 4.02: non (2.0)
|   |   |   |   |   |   |   |   |   |   |   |    functional1 > 4.02: dup (3.0)
|   |   |   |   |   |   |   |   |   |    oops1 > 3.57
|   |   |   |   |   |   |   |   |   |   |   bmfu <= 1.88
|   |   |   |   |   |   |   |   |   |   |   |    semantics1 <= 5.75
|   |   |   |   |   |   |   |   |   |   |   |   |    semantics1 <= 4.34
|   |   |   |   |   |   |   |   |   |   |   |   |   |    parsing1 <= 2.42: dup (2.0)
|   |   |   |   |   |   |   |   |   |   |   |   |   |    parsing1 > 2.42: non (4.0)
|   |   |   |   |   |   |   |   |   |   |   |   |    semantics1 > 4.34: non (21.0/1.0)
|   |   |   |   |   |   |   |   |   |   |   |    semantics1 > 5.75
|   |   |   |   |   |   |   |   |   |   |   |   |    liveRegisters2 <= 4.55: dup (11.0)
|   |   |   |   |   |   |   |   |   |   |   |   |    liveRegisters2 > 4.55
|   |   |   |   |   |   |   |   |   |   |   |   |   |   cosine_similarity <= 0.95
|   |   |   |   |   |   |   |   |   |   |   |   |   |   |   bmfb <= 0.04
|   |   |   |   |   |   |   |   |   |   |   |   |   |   |   |    oops2 <= 4.6
|   |   |   |   |   |   |   |   |   |   |   |   |   |   |   |   |    pipeline2 <= 5.88: non (3.0)
|   |   |   |   |   |   |   |   |   |   |   |   |   |   |   |   |    pipeline2 > 5.88: dup (3.0)
|   |   |   |   |   |   |   |   |   |   |   |   |   |   |   |    oops2 > 4.6: non (14.0)
|   |   |   |   |   |   |   |   |   |   |   |   |   |   |   bmfb > 0.04: dup (3.0/1.0)
|   |   |   |   |   |   |   |   |   |   |   |   |   |   cosine_similarity > 0.95
|   |   |   |   |   |   |   |   |   |   |   |   |   |   |    liveRegisters2 <= 13.48: dup (8.0)
|   |   |   |   |   |   |   |   |   |   |   |   |   |   |    liveRegisters2 > 13.48: non (2.0)
|   |   |   |   |   |   |   |   |   |   |   bmfu > 1.88
|   |   |   |   |   |   |   |   |   |   |   |    introLexical2 <= 3.38: non (11.0/1.0)
|   |   |   |   |   |   |   |   |   |   |   |    introLexical2 > 3.38
|   |   |   |   |   |   |   |   |   |   |   |   |    intermediate1 <= 3.39: non (7.0/1.0)
|   |   |   |   |   |   |   |   |   |   |   |   |    intermediate1 > 3.39
|   |   |   |   |   |   |   |   |   |   |   |   |   |    liveRegisters1 <= 5.97
|   |   |   |   |   |   |   |   |   |   |   |   |   |   |    semantics1 <= 4.21
|   |   |   |   |   |   |   |   |   |   |   |   |   |   |   |    garbage1 <= 3.86: dup (6.0)
|   |   |   |   |   |   |   |   |   |   |   |   |   |   |   |    garbage1 > 3.86: non (5.0/1.0)
|   |   |   |   |   |   |   |   |   |   |   |   |   |   |    semantics1 > 4.21: dup (41.0/1.0)
|   |   |   |   |   |   |   |   |   |   |   |   |   |    liveRegisters1 > 5.97
|   |   |   |   |   |   |   |   |   |   |   |   |   |   |    ssa1 <= 4.52: non (5.0)
|   |   |   |   |   |   |   |   |   |   |   |   |   |   |    ssa1 > 4.52
|   |   |   |   |   |   |   |   |   |   |   |   |   |   |   |    liveRegisters2 <= 10.19
|   |   |   |   |   |   |   |   |   |   |   |   |   |   |   |   |    memory2 <= 1.95: non (4.0/1.0)
|   |   |   |   |   |   |   |   |   |   |   |   |   |   |   |   |    memory2 > 1.95: dup (21.0)
|   |   |   |   |   |   |   |   |   |   |   |   |   |   |   |    liveRegisters2 > 10.19
|   |   |   |   |   |   |   |   |   |   |   |   |   |   |   |   |    memory2 <= 5.84: dup (4.0)
|   |   |   |   |   |   |   |   |   |   |   |   |   |   |   |   |    memory2 > 5.84
|   |   |   |   |   |   |   |   |   |   |   |   |   |   |   |   |   |    introLexical2 <= 13.63: non (11.0)
|   |   |   |   |   |   |   |   |   |   |   |   |   |   |   |   |   |    introLexical2 > 13.63: dup (2.0)
|   |   |   |   |   |   |    garbage1 > 6.54
|   |   |   |   |   |   |   |    functional1 <= 11.04
|   |   |   |   |   |   |   |   |    intstructions1 <= 12.85
|   |   |   |   |   |   |   |   |   |    intstructions1 <= 11.34
|   |   |   |   |   |   |   |   |   |   |   cosine_similarity <= 0.967
|   |   |   |   |   |   |   |   |   |   |   |    liveRegisters2 <= 2.42: dup (2.0)
|   |   |   |   |   |   |   |   |   |   |   |    liveRegisters2 > 2.42
|   |   |   |   |   |   |   |   |   |   |   |   |    intstructions1 <= 9.33: non (27.0)
|   |   |   |   |   |   |   |   |   |   |   |   |    intstructions1 > 9.33
|   |   |   |   |   |   |   |   |   |   |   |   |   |    intermediate1 <= 8.68: dup (2.0)
|   |   |   |   |   |   |   |   |   |   |   |   |   |    intermediate1 > 8.68: non (5.0)
|   |   |   |   |   |   |   |   |   |   |   cosine_similarity > 0.967
|   |   |   |   |   |   |   |   |   |   |   |    parsing1 <= 4.69: non (2.0)
|   |   |   |   |   |   |   |   |   |   |   |    parsing1 > 4.69: dup (6.0)
|   |   |   |   |   |   |   |   |   |    intstructions1 > 11.34: dup (8.0)
|   |   |   |   |   |   |   |   |    intstructions1 > 12.85: non (17.0)
|   |   |   |   |   |   |   |    functional1 > 11.04: dup (7.0)
bmfu > 3.36
|   prod <= 0
|   |   cosine_similarity <= 0.999
|   |   |   bmfb <= 20.29
|   |   |   |   bmfu <= 5.03
|   |   |   |   |    parsing2 <= 2.22
|   |   |   |   |   |    pipeline2 <= 7.89
|   |   |   |   |   |   |    introLexical2 <= 4.95
|   |   |   |   |   |   |   |    liveRegisters2 <= 6.13
|   |   |   |   |   |   |   |   |    intstructions2 <= 2.47: non (3.0/1.0)
|   |   |   |   |   |   |   |   |    intstructions2 > 2.47: dup (14.0)
|   |   |   |   |   |   |   |    liveRegisters2 > 6.13: non (5.0)
|   |   |   |   |   |   |    introLexical2 > 4.95: non (12.0)
|   |   |   |   |   |    pipeline2 > 7.89: dup (13.0)
|   |   |   |   |    parsing2 > 2.22
|   |   |   |   |   |    garbage2 <= 9.46
|   |   |   |   |   |   |    functional2 <= 5.43
|   |   |   |   |   |   |   |    intermediate2 <= 7.25
|   |   |   |   |   |   |   |   |    hueristics2 <= 9.73
|   |   |   |   |   |   |   |   |   |    parsing2 <= 3.56
|   |   |   |   |   |   |   |   |   |   |    hueristics2 <= 7.96
|   |   |   |   |   |   |   |   |   |   |   |   prior <= 0.33: dup (4.0/1.0)
|   |   |   |   |   |   |   |   |   |   |   |   prior > 0.33
|   |   |   |   |   |   |   |   |   |   |   |   |    functional2 <= 4.47
|   |   |   |   |   |   |   |   |   |   |   |   |   |    parsing1 <= 5.22
|   |   |   |   |   |   |   |   |   |   |   |   |   |   |    intstructions1 <= 5.46: non (5.0)
|   |   |   |   |   |   |   |   |   |   |   |   |   |   |    intstructions1 > 5.46: dup (3.0)
|   |   |   |   |   |   |   |   |   |   |   |   |   |    parsing1 > 5.22: non (20.0)
|   |   |   |   |   |   |   |   |   |   |   |   |    functional2 > 4.47: dup (2.0)
|   |   |   |   |   |   |   |   |   |   |    hueristics2 > 7.96: dup (4.0)
|   |   |   |   |   |   |   |   |   |    parsing2 > 3.56: non (121.0/8.0)
|   |   |   |   |   |   |   |   |    hueristics2 > 9.73
|   |   |   |   |   |   |   |   |   |    memory2 <= 5.99
|   |   |   |   |   |   |   |   |   |   |    oops2 <= 6.44: non (4.0/1.0)
|   |   |   |   |   |   |   |   |   |   |    oops2 > 6.44: dup (8.0)
|   |   |   |   |   |   |   |   |   |    memory2 > 5.99: non (6.0)
|   |   |   |   |   |   |   |    intermediate2 > 7.25
|   |   |   |   |   |   |   |   |    intstructions2 <= 8.85: non (145.0)
|   |   |   |   |   |   |   |   |    intstructions2 > 8.85
|   |   |   |   |   |   |   |   |   |    semantics1 <= 2.77: dup (3.0)
|   |   |   |   |   |   |   |   |   |    semantics1 > 2.77
|   |   |   |   |   |   |   |   |   |   |    oops2 <= 8.39: dup (3.0/1.0)
|   |   |   |   |   |   |   |   |   |   |    oops2 > 8.39: non (29.0)
|   |   |   |   |   |   |    functional2 > 5.43
|   |   |   |   |   |   |   |    semantics2 <= 16.07
|   |   |   |   |   |   |   |   |    parsing2 <= 10.51
|   |   |   |   |   |   |   |   |   |    parsing2 <= 4.52
|   |   |   |   |   |   |   |   |   |   |   prior <= 0.5: non (2.0)
|   |   |   |   |   |   |   |   |   |   |   prior > 0.5
|   |   |   |   |   |   |   |   |   |   |   |    parsing2 <= 4.12
|   |   |   |   |   |   |   |   |   |   |   |   |    parsing2 <= 3.62: dup (3.0)
|   |   |   |   |   |   |   |   |   |   |   |   |    parsing2 > 3.62: non (8.0)
|   |   |   |   |   |   |   |   |   |   |   |    parsing2 > 4.12: dup (16.0)
|   |   |   |   |   |   |   |   |   |    parsing2 > 4.52
|   |   |   |   |   |   |   |   |   |   |   bmfu <= 4.84
|   |   |   |   |   |   |   |   |   |   |   |   cosine_similarity <= 0.922
|   |   |   |   |   |   |   |   |   |   |   |   |    polymorhic1 <= 3.95: non (7.0)
|   |   |   |   |   |   |   |   |   |   |   |   |    polymorhic1 > 3.95: dup (7.0)
|   |   |   |   |   |   |   |   |   |   |   |   cosine_similarity > 0.922: non (138.0/13.0)
|   |   |   |   |   |   |   |   |   |   |   bmfu > 4.84
|   |   |   |   |   |   |   |   |   |   |   |    intermediate1 <= 6.43: non (5.0/1.0)
|   |   |   |   |   |   |   |   |   |   |   |    intermediate1 > 6.43: dup (6.0)
|   |   |   |   |   |   |   |   |    parsing2 > 10.51
|   |   |   |   |   |   |   |   |   |    ssa2 <= 12.28: dup (12.0)
|   |   |   |   |   |   |   |   |   |    ssa2 > 12.28: non (2.0)
|   |   |   |   |   |   |   |    semantics2 > 16.07: dup (11.0/1.0)
|   |   |   |   |   |    garbage2 > 9.46: non (102.0/1.0)
|   |   |   |   bmfu > 5.03
|   |   |   |   |    garbage2 <= 9.44
|   |   |   |   |   |    ssa2 <= 8.31
|   |   |   |   |   |   |    intstructions1 <= 5.78
|   |   |   |   |   |   |   |   bmfb <= 14.1
|   |   |   |   |   |   |   |   |    hueristics1 <= 8.04
|   |   |   |   |   |   |   |   |   |    memory1 <= 5.59
|   |   |   |   |   |   |   |   |   |   |    parsing1 <= 4.17
|   |   |   |   |   |   |   |   |   |   |   |    functional2 <= 5.94
|   |   |   |   |   |   |   |   |   |   |   |   |    semantics2 <= 6.62
|   |   |   |   |   |   |   |   |   |   |   |   |   |    hueristics1 <= 3.98
|   |   |   |   |   |   |   |   |   |   |   |   |   |   |    semantics2 <= 2.57
|   |   |   |   |   |   |   |   |   |   |   |   |   |   |   |    introLexical1 <= 2.31: dup (2.0)
|   |   |   |   |   |   |   |   |   |   |   |   |   |   |   |    introLexical1 > 2.31: non (2.0)
|   |   |   |   |   |   |   |   |   |   |   |   |   |   |    semantics2 > 2.57: non (12.0)
|   |   |   |   |   |   |   |   |   |   |   |   |   |    hueristics1 > 3.98
|   |   |   |   |   |   |   |   |   |   |   |   |   |   |    hueristics2 <= 7.74
|   |   |   |   |   |   |   |   |   |   |   |   |   |   |   |    introLexical2 <= 4.43
|   |   |   |   |   |   |   |   |   |   |   |   |   |   |   |   |    parsing2 <= 3.36: dup (7.0/1.0)
|   |   |   |   |   |   |   |   |   |   |   |   |   |   |   |   |    parsing2 > 3.36: non (5.0)
|   |   |   |   |   |   |   |   |   |   |   |   |   |   |   |    introLexical2 > 4.43: dup (9.0)
|   |   |   |   |   |   |   |   |   |   |   |   |   |   |    hueristics2 > 7.74: non (5.0)
|   |   |   |   |   |   |   |   |   |   |   |   |    semantics2 > 6.62: dup (9.0)
|   |   |   |   |   |   |   |   |   |   |   |    functional2 > 5.94: non (9.0)
|   |   |   |   |   |   |   |   |   |   |    parsing1 > 4.17
|   |   |   |   |   |   |   |   |   |   |   |    semantics1 <= 6.89: non (32.0/1.0)
|   |   |   |   |   |   |   |   |   |   |   |    semantics1 > 6.89: dup (3.0/1.0)
|   |   |   |   |   |   |   |   |   |    memory1 > 5.59
|   |   |   |   |   |   |   |   |   |   |    introLexical2 <= 8.1: dup (10.0)
|   |   |   |   |   |   |   |   |   |   |    introLexical2 > 8.1: non (4.0/1.0)
|   |   |   |   |   |   |   |   |    hueristics1 > 8.04: non (24.0/1.0)
|   |   |   |   |   |   |   |   bmfb > 14.1: non (29.0)
|   |   |   |   |   |   |    intstructions1 > 5.78
|   |   |   |   |   |   |   |    pipeline2 <= 8.6
|   |   |   |   |   |   |   |   |    introLexical2 <= 7.38
|   |   |   |   |   |   |   |   |   |   prior <= 0.5
|   |   |   |   |   |   |   |   |   |   |    pipeline2 <= 4.96: non (9.0)
|   |   |   |   |   |   |   |   |   |   |    pipeline2 > 4.96
|   |   |   |   |   |   |   |   |   |   |   |   bmfu <= 17.7: dup (6.0)
|   |   |   |   |   |   |   |   |   |   |   |   bmfu > 17.7: non (4.0)
|   |   |   |   |   |   |   |   |   |   prior > 0.5
|   |   |   |   |   |   |   |   |   |   |    pipeline1 <= 7.79
|   |   |   |   |   |   |   |   |   |   |   |    parsing2 <= 0.91: non (6.0)
|   |   |   |   |   |   |   |   |   |   |   |    parsing2 > 0.91
|   |   |   |   |   |   |   |   |   |   |   |   |    introLexical1 <= 6.47
|   |   |   |   |   |   |   |   |   |   |   |   |   |    pipeline1 <= 5.63: dup (17.0)
|   |   |   |   |   |   |   |   |   |   |   |   |   |    pipeline1 > 5.63
|   |   |   |   |   |   |   |   |   |   |   |   |   |   |    introLexical2 <= 6.76: non (4.0)
|   |   |   |   |   |   |   |   |   |   |   |   |   |   |    introLexical2 > 6.76: dup (2.0)
|   |   |   |   |   |   |   |   |   |   |   |   |    introLexical1 > 6.47
|   |   |   |   |   |   |   |   |   |   |   |   |   |    parsing1 <= 3.66: dup (6.0)
|   |   |   |   |   |   |   |   |   |   |   |   |   |    parsing1 > 3.66
|   |   |   |   |   |   |   |   |   |   |   |   |   |   |    hueristics1 <= 9.93
|   |   |   |   |   |   |   |   |   |   |   |   |   |   |   |    intstructions1 <= 6.04: dup (2.0)
|   |   |   |   |   |   |   |   |   |   |   |   |   |   |   |    intstructions1 > 6.04: non (22.0/1.0)
|   |   |   |   |   |   |   |   |   |   |   |   |   |   |    hueristics1 > 9.93
|   |   |   |   |   |   |   |   |   |   |   |   |   |   |   |    liveRegisters1 <= 9.89: dup (9.0)
|   |   |   |   |   |   |   |   |   |   |   |   |   |   |   |    liveRegisters1 > 9.89: non (5.0)
|   |   |   |   |   |   |   |   |   |   |    pipeline1 > 7.79
|   |   |   |   |   |   |   |   |   |   |   |    introLexical1 <= 11.68
|   |   |   |   |   |   |   |   |   |   |   |   |    parsing2 <= 4.62: dup (37.0/1.0)
|   |   |   |   |   |   |   |   |   |   |   |   |    parsing2 > 4.62
|   |   |   |   |   |   |   |   |   |   |   |   |   |    oops2 <= 6.74: dup (6.0)
|   |   |   |   |   |   |   |   |   |   |   |   |   |    oops2 > 6.74: non (3.0)
|   |   |   |   |   |   |   |   |   |   |   |    introLexical1 > 11.68
|   |   |   |   |   |   |   |   |   |   |   |   |    parsing1 <= 8.85: dup (3.0/1.0)
|   |   |   |   |   |   |   |   |   |   |   |   |    parsing1 > 8.85: non (3.0)
|   |   |   |   |   |   |   |   |    introLexical2 > 7.38
|   |   |   |   |   |   |   |   |   |    intstructions1 <= 6.41: dup (3.0)
|   |   |   |   |   |   |   |   |   |    intstructions1 > 6.41
|   |   |   |   |   |   |   |   |   |   |    parsing2 <= 5.73: non (26.0)
|   |   |   |   |   |   |   |   |   |   |    parsing2 > 5.73
|   |   |   |   |   |   |   |   |   |   |   |    functional2 <= 6.81
|   |   |   |   |   |   |   |   |   |   |   |   |    garbage2 <= 4.1: dup (2.0)
|   |   |   |   |   |   |   |   |   |   |   |   |    garbage2 > 4.1: non (11.0)
|   |   |   |   |   |   |   |   |   |   |   |    functional2 > 6.81: dup (3.0)
|   |   |   |   |   |   |   |    pipeline2 > 8.6: dup (23.0/2.0)
|   |   |   |   |   |    ssa2 > 8.31
|   |   |   |   |   |   |    garbage1 <= 8.38
|   |   |   |   |   |   |   |    functional2 <= 4.86
|   |   |   |   |   |   |   |   |    pipeline1 <= 7.09: dup (7.0)
|   |   |   |   |   |   |   |   |    pipeline1 > 7.09: non (8.0)
|   |   |   |   |   |   |   |    functional2 > 4.86
|   |   |   |   |   |   |   |   |    garbage2 <= 4.4: dup (56.0)
|   |   |   |   |   |   |   |   |    garbage2 > 4.4
|   |   |   |   |   |   |   |   |   |    oops2 <= 7.51
|   |   |   |   |   |   |   |   |   |   |   bmfu <= 8.44: non (6.0)
|   |   |   |   |   |   |   |   |   |   |   bmfu > 8.44: dup (4.0/1.0)
|   |   |   |   |   |   |   |   |   |    oops2 > 7.51
|   |   |   |   |   |   |   |   |   |   |    intermediate2 <= 13.63
|   |   |   |   |   |   |   |   |   |   |   |    polymorhic2 <= 10.34
|   |   |   |   |   |   |   |   |   |   |   |   |    liveRegisters1 <= 11.18
|   |   |   |   |   |   |   |   |   |   |   |   |   |    functional2 <= 5.94: non (6.0)
|   |   |   |   |   |   |   |   |   |   |   |   |   |    functional2 > 5.94
|   |   |   |   |   |   |   |   |   |   |   |   |   |   |    memory2 <= 6.88: dup (17.0)
|   |   |   |   |   |   |   |   |   |   |   |   |   |   |    memory2 > 6.88
|   |   |   |   |   |   |   |   |   |   |   |   |   |   |   |    polymorhic2 <= 6.98: dup (6.0)
|   |   |   |   |   |   |   |   |   |   |   |   |   |   |   |    polymorhic2 > 6.98
|   |   |   |   |   |   |   |   |   |   |   |   |   |   |   |   |    ssa2 <= 12.32
|   |   |   |   |   |   |   |   |   |   |   |   |   |   |   |   |   |    hueristics1 <= 11.82
|   |   |   |   |   |   |   |   |   |   |   |   |   |   |   |   |   |   |    garbage1 <= 2.64: dup (3.0/1.0)
|   |   |   |   |   |   |   |   |   |   |   |   |   |   |   |   |   |   |    garbage1 > 2.64: non (15.0)
|   |   |   |   |   |   |   |   |   |   |   |   |   |   |   |   |   |    hueristics1 > 11.82: dup (2.0)
|   |   |   |   |   |   |   |   |   |   |   |   |   |   |   |   |    ssa2 > 12.32: dup (5.0)
|   |   |   |   |   |   |   |   |   |   |   |   |    liveRegisters1 > 11.18: dup (20.0)
|   |   |   |   |   |   |   |   |   |   |   |    polymorhic2 > 10.34: dup (101.0/4.0)
|   |   |   |   |   |   |   |   |   |   |    intermediate2 > 13.63
|   |   |   |   |   |   |   |   |   |   |   |   bmfb <= 3.02: non (8.0/1.0)
|   |   |   |   |   |   |   |   |   |   |   |   bmfb > 3.02: dup (3.0)
|   |   |   |   |   |   |    garbage1 > 8.38
|   |   |   |   |   |   |   |    polymorhic2 <= 10.87
|   |   |   |   |   |   |   |   |    polymorhic1 <= 13.41: non (23.0/2.0)
|   |   |   |   |   |   |   |   |    polymorhic1 > 13.41: dup (2.0)
|   |   |   |   |   |   |   |    polymorhic2 > 10.87: dup (5.0)
|   |   |   |   |    garbage2 > 9.44
|   |   |   |   |   |   bmfu <= 8.5: non (34.0)
|   |   |   |   |   |   bmfu > 8.5
|   |   |   |   |   |   |    introLexical2 <= 10.46: non (4.0)
|   |   |   |   |   |   |    introLexical2 > 10.46: dup (5.0)
|   |   |   bmfb > 20.29
|   |   |   |   bmfu <= 20.37
|   |   |   |   |    hueristics1 <= 6.36
|   |   |   |   |   |    intermediate2 <= 3.17
|   |   |   |   |   |   |    intermediate1 <= 1.2: dup (3.0)
|   |   |   |   |   |   |    intermediate1 > 1.2: non (3.0)
|   |   |   |   |   |    intermediate2 > 3.17: dup (18.0)
|   |   |   |   |    hueristics1 > 6.36
|   |   |   |   |   |    hueristics1 <= 8.13: non (10.0)
|   |   |   |   |   |    hueristics1 > 8.13: dup (8.0/1.0)
|   |   |   |   bmfu > 20.37
|   |   |   |   |    hueristics2 <= 5.28
|   |   |   |   |   |   cosine_similarity <= 0.992: dup (7.0)
|   |   |   |   |   |   cosine_similarity > 0.992: non (6.0)
|   |   |   |   |    hueristics2 > 5.28: dup (186.0/5.0)
|   |   cosine_similarity > 0.999
|   |   |   bmfb <= 62.52: non (305.0/1.0)
|   |   |   bmfb > 62.52
|   |   |   |    semantics1 <= 11.6: dup (8.0)
|   |   |   |    semantics1 > 11.6: non (14.0)
|   prod > 0
|   |    hueristics1 <= 2.13
|   |   |    pipeline1 <= 4.03
|   |   |   |    introLexical1 <= 0.44: dup (14.0/1.0)
|   |   |   |    introLexical1 > 0.44
|   |   |   |   |   type <= 0
|   |   |   |   |   |    polymorhic1 <= 1.22
|   |   |   |   |   |   |   comp <= 0: non (3.0)
|   |   |   |   |   |   |   comp > 0: dup (3.0/1.0)
|   |   |   |   |   |    polymorhic1 > 1.22: dup (8.0)
|   |   |   |   |   type > 0
|   |   |   |   |   |   comp <= 0
|   |   |   |   |   |   |    oops1 <= 2.43: non (22.0)
|   |   |   |   |   |   |    oops1 > 2.43: dup (3.0/1.0)
|   |   |   |   |   |   comp > 0
|   |   |   |   |   |   |    ssa1 <= 0.7: dup (9.0)
|   |   |   |   |   |   |    ssa1 > 0.7
|   |   |   |   |   |   |   |    memory2 <= 1.08
|   |   |   |   |   |   |   |   |    memory2 <= 0.12
|   |   |   |   |   |   |   |   |   |    polymorhic2 <= 1.64: non (9.0)
|   |   |   |   |   |   |   |   |   |    polymorhic2 > 1.64: dup (5.0/1.0)
|   |   |   |   |   |   |   |   |    memory2 > 0.12: non (26.0)
|   |   |   |   |   |   |   |    memory2 > 1.08
|   |   |   |   |   |   |   |   |    introLexical1 <= 1.88
|   |   |   |   |   |   |   |   |   |    memory1 <= 0.4
|   |   |   |   |   |   |   |   |   |   |    introLexical1 <= 0.81: non (2.0)
|   |   |   |   |   |   |   |   |   |   |    introLexical1 > 0.81: dup (5.0)
|   |   |   |   |   |   |   |   |   |    memory1 > 0.4: non (16.0/1.0)
|   |   |   |   |   |   |   |   |    introLexical1 > 1.88
|   |   |   |   |   |   |   |   |   |    polymorhic2 <= 3.56
|   |   |   |   |   |   |   |   |   |   |    polymorhic1 <= 2.2: dup (4.0)
|   |   |   |   |   |   |   |   |   |   |    polymorhic1 > 2.2: non (4.0)
|   |   |   |   |   |   |   |   |   |    polymorhic2 > 3.56: dup (15.0)
|   |   |    pipeline1 > 4.03: dup (10.0)
|   |    hueristics1 > 2.13
|   |   |    introLexical2 <= 0.65
|   |   |   |    parsing2 <= 3.04
|   |   |   |   |    introLexical1 <= 1.02: dup (2.0)
|   |   |   |   |    introLexical1 > 1.02: non (27.0/2.0)
|   |   |   |    parsing2 > 3.04: dup (2.0)
|   |   |    introLexical2 > 0.65
|   |   |   |    introLexical2 <= 0.84
|   |   |   |   |    semantics1 <= 2.74
|   |   |   |   |   |    semantics1 <= 2.31: non (3.0)
|   |   |   |   |   |    semantics1 > 2.31: dup (10.0)
|   |   |   |   |    semantics1 > 2.74: dup (179.0)
|   |   |   |    introLexical2 > 0.84
|   |   |   |   |   bmfu <= 19.51
|   |   |   |   |   |   type <= 0
|   |   |   |   |   |   |   bmfu <= 4.9
|   |   |   |   |   |   |   |    garbage2 <= 5.96
|   |   |   |   |   |   |   |   |    polymorhic2 <= 2.42
|   |   |   |   |   |   |   |   |   |    parsing2 <= 2.83: dup (5.0/1.0)
|   |   |   |   |   |   |   |   |   |    parsing2 > 2.83: non (7.0)
|   |   |   |   |   |   |   |   |    polymorhic2 > 2.42
|   |   |   |   |   |   |   |   |   |    intstructions2 <= 4.51
|   |   |   |   |   |   |   |   |   |   |    polymorhic2 <= 4.02
|   |   |   |   |   |   |   |   |   |   |   |   bmfb <= 2.91: dup (19.0/1.0)
|   |   |   |   |   |   |   |   |   |   |   |   bmfb > 2.91
|   |   |   |   |   |   |   |   |   |   |   |   |    parsing1 <= 3.98: non (2.0)
|   |   |   |   |   |   |   |   |   |   |   |   |    parsing1 > 3.98: dup (3.0)
|   |   |   |   |   |   |   |   |   |   |    polymorhic2 > 4.02
|   |   |   |   |   |   |   |   |   |   |   |    liveRegisters2 <= 3.49: non (11.0)
|   |   |   |   |   |   |   |   |   |   |   |    liveRegisters2 > 3.49
|   |   |   |   |   |   |   |   |   |   |   |   |    oops2 <= 5.28: dup (10.0)
|   |   |   |   |   |   |   |   |   |   |   |   |    oops2 > 5.28
|   |   |   |   |   |   |   |   |   |   |   |   |   |    oops2 <= 6.97: non (4.0)
|   |   |   |   |   |   |   |   |   |   |   |   |   |    oops2 > 6.97: dup (2.0)
|   |   |   |   |   |   |   |   |   |    intstructions2 > 4.51
|   |   |   |   |   |   |   |   |   |   |    semantics2 <= 10.94
|   |   |   |   |   |   |   |   |   |   |   |   bmfb <= 4.35
|   |   |   |   |   |   |   |   |   |   |   |   |    parsing1 <= 4.89: dup (74.0)
|   |   |   |   |   |   |   |   |   |   |   |   |    parsing1 > 4.89
|   |   |   |   |   |   |   |   |   |   |   |   |   |    memory1 <= 6.02
|   |   |   |   |   |   |   |   |   |   |   |   |   |   |   comp <= 0: non (2.0)
|   |   |   |   |   |   |   |   |   |   |   |   |   |   |   comp > 0
|   |   |   |   |   |   |   |   |   |   |   |   |   |   |   |    oops1 <= 8.96: dup (3.0)
|   |   |   |   |   |   |   |   |   |   |   |   |   |   |   |    oops1 > 8.96: non (2.0)
|   |   |   |   |   |   |   |   |   |   |   |   |   |    memory1 > 6.02
|   |   |   |   |   |   |   |   |   |   |   |   |   |   |    liveRegisters2 <= 4.58
|   |   |   |   |   |   |   |   |   |   |   |   |   |   |   |   cosine_similarity <= 0.959: dup (9.0)
|   |   |   |   |   |   |   |   |   |   |   |   |   |   |   |   cosine_similarity > 0.959: non (3.0)
|   |   |   |   |   |   |   |   |   |   |   |   |   |   |    liveRegisters2 > 4.58: dup (34.0)
|   |   |   |   |   |   |   |   |   |   |   |   bmfb > 4.35
|   |   |   |   |   |   |   |   |   |   |   |   |    parsing1 <= 5.14: non (4.0)
|   |   |   |   |   |   |   |   |   |   |   |   |    parsing1 > 5.14: dup (3.0)
|   |   |   |   |   |   |   |   |   |   |    semantics2 > 10.94
|   |   |   |   |   |   |   |   |   |   |   |    ssa1 <= 5.46: dup (3.0)
|   |   |   |   |   |   |   |   |   |   |   |    ssa1 > 5.46: non (5.0)
|   |   |   |   |   |   |   |    garbage2 > 5.96
|   |   |   |   |   |   |   |   |    pipeline1 <= 8.84
|   |   |   |   |   |   |   |   |   |   prior <= 0.5: dup (8.0)
|   |   |   |   |   |   |   |   |   |   prior > 0.5
|   |   |   |   |   |   |   |   |   |   |   comp <= 0
|   |   |   |   |   |   |   |   |   |   |   |    liveRegisters1 <= 9.93
|   |   |   |   |   |   |   |   |   |   |   |   |    intstructions1 <= 2.56: dup (2.0)
|   |   |   |   |   |   |   |   |   |   |   |   |    intstructions1 > 2.56
|   |   |   |   |   |   |   |   |   |   |   |   |   |    garbage2 <= 7.8
|   |   |   |   |   |   |   |   |   |   |   |   |   |   |    polymorhic2 <= 5.5: non (5.0)
|   |   |   |   |   |   |   |   |   |   |   |   |   |   |    polymorhic2 > 5.5: dup (3.0)
|   |   |   |   |   |   |   |   |   |   |   |   |   |    garbage2 > 7.8: non (10.0)
|   |   |   |   |   |   |   |   |   |   |   |    liveRegisters1 > 9.93: dup (5.0)
|   |   |   |   |   |   |   |   |   |   |   comp > 0
|   |   |   |   |   |   |   |   |   |   |   |    liveRegisters2 <= 10.23
|   |   |   |   |   |   |   |   |   |   |   |   |    parsing2 <= 5.38: dup (9.0)
|   |   |   |   |   |   |   |   |   |   |   |   |    parsing2 > 5.38
|   |   |   |   |   |   |   |   |   |   |   |   |   |    functional2 <= 5.27: dup (5.0)
|   |   |   |   |   |   |   |   |   |   |   |   |   |    functional2 > 5.27
|   |   |   |   |   |   |   |   |   |   |   |   |   |   |    intstructions2 <= 7: dup (3.0/1.0)
|   |   |   |   |   |   |   |   |   |   |   |   |   |   |    intstructions2 > 7: non (10.0)
|   |   |   |   |   |   |   |   |   |   |   |    liveRegisters2 > 10.23: dup (14.0)
|   |   |   |   |   |   |   |   |    pipeline1 > 8.84: non (36.0/3.0)
|   |   |   |   |   |   |   bmfu > 4.9
|   |   |   |   |   |   |   |    garbage1 <= 5.2
|   |   |   |   |   |   |   |   |   cosine_similarity <= 0.878
|   |   |   |   |   |   |   |   |   |    intermediate1 <= 9.28
|   |   |   |   |   |   |   |   |   |   |   bmfb <= 4.49: dup (15.0)
|   |   |   |   |   |   |   |   |   |   |   bmfb > 4.49
|   |   |   |   |   |   |   |   |   |   |   |    semantics1 <= 2.48: non (5.0)
|   |   |   |   |   |   |   |   |   |   |   |    semantics1 > 2.48: dup (4.0)
|   |   |   |   |   |   |   |   |   |    intermediate1 > 9.28: non (6.0)
|   |   |   |   |   |   |   |   |   cosine_similarity > 0.878
|   |   |   |   |   |   |   |   |   |    introLexical1 <= 2.95
|   |   |   |   |   |   |   |   |   |   |    parsing1 <= 3.49
|   |   |   |   |   |   |   |   |   |   |   |    introLexical2 <= 3.21: non (2.0)
|   |   |   |   |   |   |   |   |   |   |   |    introLexical2 > 3.21: dup (21.0)
|   |   |   |   |   |   |   |   |   |   |    parsing1 > 3.49
|   |   |   |   |   |   |   |   |   |   |   |    intermediate2 <= 4.77: dup (3.0)
|   |   |   |   |   |   |   |   |   |   |   |    intermediate2 > 4.77: non (9.0)
|   |   |   |   |   |   |   |   |   |    introLexical1 > 2.95
|   |   |   |   |   |   |   |   |   |   |    intstructions1 <= 6.38
|   |   |   |   |   |   |   |   |   |   |   |    ssa1 <= 3.7: dup (99.0/1.0)
|   |   |   |   |   |   |   |   |   |   |   |    ssa1 > 3.7
|   |   |   |   |   |   |   |   |   |   |   |   |    intstructions1 <= 4.16
|   |   |   |   |   |   |   |   |   |   |   |   |   |    intstructions1 <= 3.74
|   |   |   |   |   |   |   |   |   |   |   |   |   |   |    oops1 <= 3.52
|   |   |   |   |   |   |   |   |   |   |   |   |   |   |   |    functional2 <= 3.24: non (4.0)
|   |   |   |   |   |   |   |   |   |   |   |   |   |   |   |    functional2 > 3.24: dup (3.0)
|   |   |   |   |   |   |   |   |   |   |   |   |   |   |    oops1 > 3.52
|   |   |   |   |   |   |   |   |   |   |   |   |   |   |   |   prior <= 0.5
|   |   |   |   |   |   |   |   |   |   |   |   |   |   |   |   |    oops1 <= 5.54: dup (5.0)
|   |   |   |   |   |   |   |   |   |   |   |   |   |   |   |   |    oops1 > 5.54: non (2.0)
|   |   |   |   |   |   |   |   |   |   |   |   |   |   |   |   prior > 0.5: dup (33.0)
|   |   |   |   |   |   |   |   |   |   |   |   |   |    intstructions1 > 3.74
|   |   |   |   |   |   |   |   |   |   |   |   |   |   |    pipeline2 <= 7.43: non (9.0/1.0)
|   |   |   |   |   |   |   |   |   |   |   |   |   |   |    pipeline2 > 7.43: dup (5.0/1.0)
|   |   |   |   |   |   |   |   |   |   |   |   |    intstructions1 > 4.16
|   |   |   |   |   |   |   |   |   |   |   |   |   |    hueristics1 <= 10.12: dup (149.0/6.0)
|   |   |   |   |   |   |   |   |   |   |   |   |   |    hueristics1 > 10.12
|   |   |   |   |   |   |   |   |   |   |   |   |   |   |    functional2 <= 3.88: non (3.0)
|   |   |   |   |   |   |   |   |   |   |   |   |   |   |    functional2 > 3.88
|   |   |   |   |   |   |   |   |   |   |   |   |   |   |   |    introLexical1 <= 5.52
|   |   |   |   |   |   |   |   |   |   |   |   |   |   |   |   |   bmfb <= 3.25: dup (2.0)
|   |   |   |   |   |   |   |   |   |   |   |   |   |   |   |   |   bmfb > 3.25: non (2.0)
|   |   |   |   |   |   |   |   |   |   |   |   |   |   |   |    introLexical1 > 5.52: dup (8.0)
|   |   |   |   |   |   |   |   |   |   |    intstructions1 > 6.38
|   |   |   |   |   |   |   |   |   |   |   |    garbage1 <= 5.01: dup (174.0)
|   |   |   |   |   |   |   |   |   |   |   |    garbage1 > 5.01
|   |   |   |   |   |   |   |   |   |   |   |   |   cosine_similarity <= 0.927: non (2.0)
|   |   |   |   |   |   |   |   |   |   |   |   |   cosine_similarity > 0.927: dup (22.0/1.0)
|   |   |   |   |   |   |   |    garbage1 > 5.2
|   |   |   |   |   |   |   |   |    polymorhic1 <= 5.84
|   |   |   |   |   |   |   |   |   |    pipeline2 <= 11.68
|   |   |   |   |   |   |   |   |   |   |   bmfu <= 9.87
|   |   |   |   |   |   |   |   |   |   |   |   cosine_similarity <= 0.941: dup (8.0)
|   |   |   |   |   |   |   |   |   |   |   |   cosine_similarity > 0.941
|   |   |   |   |   |   |   |   |   |   |   |   |    introLexical2 <= 5.87: non (14.0/1.0)
|   |   |   |   |   |   |   |   |   |   |   |   |    introLexical2 > 5.87
|   |   |   |   |   |   |   |   |   |   |   |   |   |    memory1 <= 6.02: dup (5.0)
|   |   |   |   |   |   |   |   |   |   |   |   |   |    memory1 > 6.02
|   |   |   |   |   |   |   |   |   |   |   |   |   |   |   bmfb <= 2.45: dup (3.0/1.0)
|   |   |   |   |   |   |   |   |   |   |   |   |   |   |   bmfb > 2.45: non (5.0)
|   |   |   |   |   |   |   |   |   |   |   bmfu > 9.87: dup (20.0)
|   |   |   |   |   |   |   |   |   |    pipeline2 > 11.68: non (9.0)
|   |   |   |   |   |   |   |   |    polymorhic1 > 5.84
|   |   |   |   |   |   |   |   |   |    pipeline1 <= 15.25
|   |   |   |   |   |   |   |   |   |   |   bmfb <= 2.22
|   |   |   |   |   |   |   |   |   |   |   |    liveRegisters1 <= 15.16: dup (122.0/1.0)
|   |   |   |   |   |   |   |   |   |   |   |    liveRegisters1 > 15.16
|   |   |   |   |   |   |   |   |   |   |   |   |    intstructions1 <= 10.38: non (2.0)
|   |   |   |   |   |   |   |   |   |   |   |   |    intstructions1 > 10.38: dup (10.0/1.0)
|   |   |   |   |   |   |   |   |   |   |   bmfb > 2.22
|   |   |   |   |   |   |   |   |   |   |   |    liveRegisters2 <= 8.63
|   |   |   |   |   |   |   |   |   |   |   |   |    introLexical1 <= 12.53
|   |   |   |   |   |   |   |   |   |   |   |   |   |   prior <= 0.5
|   |   |   |   |   |   |   |   |   |   |   |   |   |   |    intstructions2 <= 4.48: non (2.0)
|   |   |   |   |   |   |   |   |   |   |   |   |   |   |    intstructions2 > 4.48: dup (10.0)
|   |   |   |   |   |   |   |   |   |   |   |   |   |   prior > 0.5
|   |   |   |   |   |   |   |   |   |   |   |   |   |   |   comp <= 0
|   |   |   |   |   |   |   |   |   |   |   |   |   |   |   |    polymorhic1 <= 6.06: non (3.0)
|   |   |   |   |   |   |   |   |   |   |   |   |   |   |   |    polymorhic1 > 6.06
|   |   |   |   |   |   |   |   |   |   |   |   |   |   |   |   |    garbage1 <= 10.27
|   |   |   |   |   |   |   |   |   |   |   |   |   |   |   |   |   |    memory2 <= 6.3: dup (20.0)
|   |   |   |   |   |   |   |   |   |   |   |   |   |   |   |   |   |    memory2 > 6.3
|   |   |   |   |   |   |   |   |   |   |   |   |   |   |   |   |   |   |   bmfu <= 7.96: non (3.0)
|   |   |   |   |   |   |   |   |   |   |   |   |   |   |   |   |   |   |   bmfu > 7.96: dup (5.0)
|   |   |   |   |   |   |   |   |   |   |   |   |   |   |   |   |    garbage1 > 10.27: non (3.0)
|   |   |   |   |   |   |   |   |   |   |   |   |   |   |   comp > 0
|   |   |   |   |   |   |   |   |   |   |   |   |   |   |   |    intermediate2 <= 5.3: dup (19.0/1.0)
|   |   |   |   |   |   |   |   |   |   |   |   |   |   |   |    intermediate2 > 5.3
|   |   |   |   |   |   |   |   |   |   |   |   |   |   |   |   |    liveRegisters2 <= 3.75: non (9.0/1.0)
|   |   |   |   |   |   |   |   |   |   |   |   |   |   |   |   |    liveRegisters2 > 3.75
|   |   |   |   |   |   |   |   |   |   |   |   |   |   |   |   |   |    hueristics2 <= 7.98: dup (17.0/1.0)
|   |   |   |   |   |   |   |   |   |   |   |   |   |   |   |   |   |    hueristics2 > 7.98
|   |   |   |   |   |   |   |   |   |   |   |   |   |   |   |   |   |   |    parsing1 <= 3.86: dup (5.0)
|   |   |   |   |   |   |   |   |   |   |   |   |   |   |   |   |   |   |    parsing1 > 3.86
|   |   |   |   |   |   |   |   |   |   |   |   |   |   |   |   |   |   |   |    semantics1 <= 10.72
|   |   |   |   |   |   |   |   |   |   |   |   |   |   |   |   |   |   |   |   |    liveRegisters2 <= 6.91
|   |   |   |   |   |   |   |   |   |   |   |   |   |   |   |   |   |   |   |   |   |    parsing1 <= 5.91: non (5.0/1.0)
|   |   |   |   |   |   |   |   |   |   |   |   |   |   |   |   |   |   |   |   |   |    parsing1 > 5.91: dup (5.0)
|   |   |   |   |   |   |   |   |   |   |   |   |   |   |   |   |   |   |   |   |    liveRegisters2 > 6.91: non (16.0/1.0)
|   |   |   |   |   |   |   |   |   |   |   |   |   |   |   |   |   |   |   |    semantics1 > 10.72
|   |   |   |   |   |   |   |   |   |   |   |   |   |   |   |   |   |   |   |   |    intstructions1 <= 12.91: dup (10.0)
|   |   |   |   |   |   |   |   |   |   |   |   |   |   |   |   |   |   |   |   |    intstructions1 > 12.91: non (2.0)
|   |   |   |   |   |   |   |   |   |   |   |   |    introLexical1 > 12.53: dup (22.0)
|   |   |   |   |   |   |   |   |   |   |   |    liveRegisters2 > 8.63
|   |   |   |   |   |   |   |   |   |   |   |   |   bmfu <= 6.12
|   |   |   |   |   |   |   |   |   |   |   |   |   |   bmfb <= 4.07: non (4.0)
|   |   |   |   |   |   |   |   |   |   |   |   |   |   bmfb > 4.07: dup (3.0)
|   |   |   |   |   |   |   |   |   |   |   |   |   bmfu > 6.12: dup (126.0/7.0)
|   |   |   |   |   |   |   |   |   |    pipeline1 > 15.25
|   |   |   |   |   |   |   |   |   |   |   comp <= 0: non (7.0)
|   |   |   |   |   |   |   |   |   |   |   comp > 0
|   |   |   |   |   |   |   |   |   |   |   |    oops2 <= 8.07: dup (12.0)
|   |   |   |   |   |   |   |   |   |   |   |    oops2 > 8.07
|   |   |   |   |   |   |   |   |   |   |   |   |    liveRegisters1 <= 11.93: dup (6.0)
|   |   |   |   |   |   |   |   |   |   |   |   |    liveRegisters1 > 11.93
|   |   |   |   |   |   |   |   |   |   |   |   |   |    garbage1 <= 8.52: dup (2.0)
|   |   |   |   |   |   |   |   |   |   |   |   |   |    garbage1 > 8.52: non (8.0)
|   |   |   |   |   |   type > 0
|   |   |   |   |   |   |    functional1 <= 0.73
|   |   |   |   |   |   |   |    liveRegisters1 <= 0.67: non (16.0)
|   |   |   |   |   |   |   |    liveRegisters1 > 0.67
|   |   |   |   |   |   |   |   |    introLexical2 <= 3.08: non (18.0/1.0)
|   |   |   |   |   |   |   |   |    introLexical2 > 3.08
|   |   |   |   |   |   |   |   |   |    liveRegisters1 <= 1.56: dup (8.0)
|   |   |   |   |   |   |   |   |   |    liveRegisters1 > 1.56
|   |   |   |   |   |   |   |   |   |   |   bmfu <= 12.62
|   |   |   |   |   |   |   |   |   |   |   |   bmfb <= 6.61
|   |   |   |   |   |   |   |   |   |   |   |   |    pipeline1 <= 2.6: non (7.0)
|   |   |   |   |   |   |   |   |   |   |   |   |    pipeline1 > 2.6
|   |   |   |   |   |   |   |   |   |   |   |   |   |    hueristics1 <= 3.14: non (4.0)
|   |   |   |   |   |   |   |   |   |   |   |   |   |    hueristics1 > 3.14
|   |   |   |   |   |   |   |   |   |   |   |   |   |   |    parsing1 <= 4.62: dup (12.0/1.0)
|   |   |   |   |   |   |   |   |   |   |   |   |   |   |    parsing1 > 4.62: non (3.0)
|   |   |   |   |   |   |   |   |   |   |   |   bmfb > 6.61: dup (7.0)
|   |   |   |   |   |   |   |   |   |   |   bmfu > 12.62: non (10.0)
|   |   |   |   |   |   |    functional1 > 0.73
|   |   |   |   |   |   |   |    liveRegisters1 <= 1.21
|   |   |   |   |   |   |   |   |    introLexical1 <= 3.89: dup (115.0)
|   |   |   |   |   |   |   |   |    introLexical1 > 3.89
|   |   |   |   |   |   |   |   |   |    polymorhic1 <= 3.31: non (2.0)
|   |   |   |   |   |   |   |   |   |    polymorhic1 > 3.31: dup (9.0)
|   |   |   |   |   |   |   |    liveRegisters1 > 1.21
|   |   |   |   |   |   |   |   |   comp <= 0
|   |   |   |   |   |   |   |   |   |    liveRegisters2 <= 9.72
|   |   |   |   |   |   |   |   |   |   |    garbage1 <= 7.59
|   |   |   |   |   |   |   |   |   |   |   |    hueristics1 <= 10.98
|   |   |   |   |   |   |   |   |   |   |   |   |    functional1 <= 7.15
|   |   |   |   |   |   |   |   |   |   |   |   |   |    introLexical2 <= 2.44: non (16.0/1.0)
|   |   |   |   |   |   |   |   |   |   |   |   |   |    introLexical2 > 2.44
|   |   |   |   |   |   |   |   |   |   |   |   |   |   |    oops2 <= 10.51
|   |   |   |   |   |   |   |   |   |   |   |   |   |   |   |    garbage1 <= 5.94
|   |   |   |   |   |   |   |   |   |   |   |   |   |   |   |   |    functional1 <= 1.14
|   |   |   |   |   |   |   |   |   |   |   |   |   |   |   |   |   |    garbage2 <= 0.96: dup (2.0)
|   |   |   |   |   |   |   |   |   |   |   |   |   |   |   |   |   |    garbage2 > 0.96: non (16.0/1.0)
|   |   |   |   |   |   |   |   |   |   |   |   |   |   |   |   |    functional1 > 1.14
|   |   |   |   |   |   |   |   |   |   |   |   |   |   |   |   |   |   bmfu <= 5.05
|   |   |   |   |   |   |   |   |   |   |   |   |   |   |   |   |   |   |    polymorhic2 <= 3.28: non (8.0)
|   |   |   |   |   |   |   |   |   |   |   |   |   |   |   |   |   |   |    polymorhic2 > 3.28
|   |   |   |   |   |   |   |   |   |   |   |   |   |   |   |   |   |   |   |   bmfb <= 2.66
|   |   |   |   |   |   |   |   |   |   |   |   |   |   |   |   |   |   |   |   |   prior <= 0.5: non (3.0)
|   |   |   |   |   |   |   |   |   |   |   |   |   |   |   |   |   |   |   |   |   prior > 0.5
|   |   |   |   |   |   |   |   |   |   |   |   |   |   |   |   |   |   |   |   |   |    semantics2 <= 7.43
|   |   |   |   |   |   |   |   |   |   |   |   |   |   |   |   |   |   |   |   |   |   |    garbage1 <= 5.05
|   |   |   |   |   |   |   |   |   |   |   |   |   |   |   |   |   |   |   |   |   |   |   |    memory2 <= 1.59: dup (2.0)
|   |   |   |   |   |   |   |   |   |   |   |   |   |   |   |   |   |   |   |   |   |   |   |    memory2 > 1.59: non (14.0)
|   |   |   |   |   |   |   |   |   |   |   |   |   |   |   |   |   |   |   |   |   |   |    garbage1 > 5.05: dup (3.0)
|   |   |   |   |   |   |   |   |   |   |   |   |   |   |   |   |   |   |   |   |   |    semantics2 > 7.43: dup (4.0)
|   |   |   |   |   |   |   |   |   |   |   |   |   |   |   |   |   |   |   |   bmfb > 2.66: dup (5.0)
|   |   |   |   |   |   |   |   |   |   |   |   |   |   |   |   |   |   bmfu > 5.05
|   |   |   |   |   |   |   |   |   |   |   |   |   |   |   |   |   |   |   bmfb <= 7.24
|   |   |   |   |   |   |   |   |   |   |   |   |   |   |   |   |   |   |   |    intermediate2 <= 6.2
|   |   |   |   |   |   |   |   |   |   |   |   |   |   |   |   |   |   |   |   |    pipeline2 <= 5.22: dup (22.0/1.0)
|   |   |   |   |   |   |   |   |   |   |   |   |   |   |   |   |   |   |   |   |    pipeline2 > 5.22: non (6.0/1.0)
|   |   |   |   |   |   |   |   |   |   |   |   |   |   |   |   |   |   |   |    intermediate2 > 6.2: dup (32.0)
|   |   |   |   |   |   |   |   |   |   |   |   |   |   |   |   |   |   |   bmfb > 7.24
|   |   |   |   |   |   |   |   |   |   |   |   |   |   |   |   |   |   |   |    parsing1 <= 3.02
|   |   |   |   |   |   |   |   |   |   |   |   |   |   |   |   |   |   |   |   |    pipeline1 <= 2.79: dup (4.0/1.0)
|   |   |   |   |   |   |   |   |   |   |   |   |   |   |   |   |   |   |   |   |    pipeline1 > 2.79: non (13.0)
|   |   |   |   |   |   |   |   |   |   |   |   |   |   |   |   |   |   |   |    parsing1 > 3.02
|   |   |   |   |   |   |   |   |   |   |   |   |   |   |   |   |   |   |   |   |    liveRegisters1 <= 5.05: dup (21.0)
|   |   |   |   |   |   |   |   |   |   |   |   |   |   |   |   |   |   |   |   |    liveRegisters1 > 5.05
|   |   |   |   |   |   |   |   |   |   |   |   |   |   |   |   |   |   |   |   |   |    oops2 <= 7.88
|   |   |   |   |   |   |   |   |   |   |   |   |   |   |   |   |   |   |   |   |   |   |    oops2 <= 4.3: non (3.0)
|   |   |   |   |   |   |   |   |   |   |   |   |   |   |   |   |   |   |   |   |   |   |    oops2 > 4.3
|   |   |   |   |   |   |   |   |   |   |   |   |   |   |   |   |   |   |   |   |   |   |   |   cosine_similarity <= 0.989: dup (7.0)
|   |   |   |   |   |   |   |   |   |   |   |   |   |   |   |   |   |   |   |   |   |   |   |   cosine_similarity > 0.989
|   |   |   |   |   |   |   |   |   |   |   |   |   |   |   |   |   |   |   |   |   |   |   |   |    parsing2 <= 5.02: dup (2.0)
|   |   |   |   |   |   |   |   |   |   |   |   |   |   |   |   |   |   |   |   |   |   |   |   |    parsing2 > 5.02: non (4.0)
|   |   |   |   |   |   |   |   |   |   |   |   |   |   |   |   |   |   |   |   |   |    oops2 > 7.88: non (5.0)
|   |   |   |   |   |   |   |   |   |   |   |   |   |   |   |    garbage1 > 5.94
|   |   |   |   |   |   |   |   |   |   |   |   |   |   |   |   |    oops1 <= 6.84
|   |   |   |   |   |   |   |   |   |   |   |   |   |   |   |   |   |    parsing1 <= 5.07: non (9.0/1.0)
|   |   |   |   |   |   |   |   |   |   |   |   |   |   |   |   |   |    parsing1 > 5.07: dup (3.0)
|   |   |   |   |   |   |   |   |   |   |   |   |   |   |   |   |    oops1 > 6.84: non (13.0)
|   |   |   |   |   |   |   |   |   |   |   |   |   |   |    oops2 > 10.51: non (11.0)
|   |   |   |   |   |   |   |   |   |   |   |   |    functional1 > 7.15: non (13.0)
|   |   |   |   |   |   |   |   |   |   |   |    hueristics1 > 10.98
|   |   |   |   |   |   |   |   |   |   |   |   |    parsing2 <= 8.56
|   |   |   |   |   |   |   |   |   |   |   |   |   |    intstructions1 <= 5.24: non (5.0/1.0)
|   |   |   |   |   |   |   |   |   |   |   |   |   |    intstructions1 > 5.24
|   |   |   |   |   |   |   |   |   |   |   |   |   |   |    intermediate1 <= 11.99: dup (36.0)
|   |   |   |   |   |   |   |   |   |   |   |   |   |   |    intermediate1 > 11.99
|   |   |   |   |   |   |   |   |   |   |   |   |   |   |   |    garbage2 <= 4.3: dup (5.0)
|   |   |   |   |   |   |   |   |   |   |   |   |   |   |   |    garbage2 > 4.3: non (3.0)
|   |   |   |   |   |   |   |   |   |   |   |   |    parsing2 > 8.56: non (6.0)
|   |   |   |   |   |   |   |   |   |   |    garbage1 > 7.59
|   |   |   |   |   |   |   |   |   |   |   |    ssa2 <= 4.55
|   |   |   |   |   |   |   |   |   |   |   |   |   bmfu <= 4.98: non (4.0/1.0)
|   |   |   |   |   |   |   |   |   |   |   |   |   bmfu > 4.98: dup (7.0)
|   |   |   |   |   |   |   |   |   |   |   |    ssa2 > 4.55
|   |   |   |   |   |   |   |   |   |   |   |   |    polymorhic1 <= 7.83: non (31.0)
|   |   |   |   |   |   |   |   |   |   |   |   |    polymorhic1 > 7.83
|   |   |   |   |   |   |   |   |   |   |   |   |   |    hueristics1 <= 11.47: dup (4.0)
|   |   |   |   |   |   |   |   |   |   |   |   |   |    hueristics1 > 11.47
|   |   |   |   |   |   |   |   |   |   |   |   |   |   |    introLexical2 <= 10.76
|   |   |   |   |   |   |   |   |   |   |   |   |   |   |   |    liveRegisters2 <= 9.01
|   |   |   |   |   |   |   |   |   |   |   |   |   |   |   |   |    functional2 <= 2.86
|   |   |   |   |   |   |   |   |   |   |   |   |   |   |   |   |   |   bmfb <= 1.91: dup (2.0)
|   |   |   |   |   |   |   |   |   |   |   |   |   |   |   |   |   |   bmfb > 1.91: non (2.0)
|   |   |   |   |   |   |   |   |   |   |   |   |   |   |   |   |    functional2 > 2.86: non (33.0)
|   |   |   |   |   |   |   |   |   |   |   |   |   |   |   |    liveRegisters2 > 9.01: dup (5.0/1.0)
|   |   |   |   |   |   |   |   |   |   |   |   |   |   |    introLexical2 > 10.76: dup (3.0)
|   |   |   |   |   |   |   |   |   |    liveRegisters2 > 9.72
|   |   |   |   |   |   |   |   |   |   |    garbage2 <= 8.42
|   |   |   |   |   |   |   |   |   |   |   |    garbage1 <= 9.9: dup (71.0/5.0)
|   |   |   |   |   |   |   |   |   |   |   |    garbage1 > 9.9
|   |   |   |   |   |   |   |   |   |   |   |   |    introLexical1 <= 13.27: non (5.0)
|   |   |   |   |   |   |   |   |   |   |   |   |    introLexical1 > 13.27: dup (3.0)
|   |   |   |   |   |   |   |   |   |   |    garbage2 > 8.42
|   |   |   |   |   |   |   |   |   |   |   |   prior <= 0.5
|   |   |   |   |   |   |   |   |   |   |   |   |    parsing1 <= 7.39: dup (3.0)
|   |   |   |   |   |   |   |   |   |   |   |   |    parsing1 > 7.39: non (2.0)
|   |   |   |   |   |   |   |   |   |   |   |   prior > 0.5
|   |   |   |   |   |   |   |   |   |   |   |   |    semantics2 <= 9.5: non (7.0)
|   |   |   |   |   |   |   |   |   |   |   |   |    semantics2 > 9.5: dup (40.0/18.0)
|   |   |   |   |   |   |   |   |   comp > 0
|   |   |   |   |   |   |   |   |   |   bmfu <= 4.36
|   |   |   |   |   |   |   |   |   |   |   bmfb <= 3.85
|   |   |   |   |   |   |   |   |   |   |   |   prior <= 0.5
|   |   |   |   |   |   |   |   |   |   |   |   |    garbage1 <= 2.57: non (2.0)
|   |   |   |   |   |   |   |   |   |   |   |   |    garbage1 > 2.57: dup (10.0)
|   |   |   |   |   |   |   |   |   |   |   |   prior > 0.5
|   |   |   |   |   |   |   |   |   |   |   |   |    memory2 <= 3.36
|   |   |   |   |   |   |   |   |   |   |   |   |   |    memory1 <= 4.59: dup (24.0)
|   |   |   |   |   |   |   |   |   |   |   |   |   |    memory1 > 4.59
|   |   |   |   |   |   |   |   |   |   |   |   |   |   |    functional2 <= 4.29
|   |   |   |   |   |   |   |   |   |   |   |   |   |   |   |    polymorhic2 <= 3.33: non (8.0)
|   |   |   |   |   |   |   |   |   |   |   |   |   |   |   |    polymorhic2 > 3.33
|   |   |   |   |   |   |   |   |   |   |   |   |   |   |   |   |    memory2 <= 2.72: dup (5.0)
|   |   |   |   |   |   |   |   |   |   |   |   |   |   |   |   |    memory2 > 2.72: non (4.0)
|   |   |   |   |   |   |   |   |   |   |   |   |   |   |    functional2 > 4.29: dup (7.0)
|   |   |   |   |   |   |   |   |   |   |   |   |    memory2 > 3.36: non (86.0/39.0)
|   |   |   |   |   |   |   |   |   |   |   bmfb > 3.85
|   |   |   |   |   |   |   |   |   |   |   |    intermediate2 <= 4.29
|   |   |   |   |   |   |   |   |   |   |   |   |    introLexical2 <= 2.28: non (2.0)
|   |   |   |   |   |   |   |   |   |   |   |   |    introLexical2 > 2.28: dup (6.0)
|   |   |   |   |   |   |   |   |   |   |   |    intermediate2 > 4.29: non (24.0/1.0)
|   |   |   |   |   |   |   |   |   |   bmfu > 4.36
|   |   |   |   |   |   |   |   |   |   |    liveRegisters1 <= 3
|   |   |   |   |   |   |   |   |   |   |   |    hueristics2 <= 2.82
|   |   |   |   |   |   |   |   |   |   |   |   |    semantics2 <= 3.04: dup (8.0/1.0)
|   |   |   |   |   |   |   |   |   |   |   |   |    semantics2 > 3.04: non (8.0)
|   |   |   |   |   |   |   |   |   |   |   |    hueristics2 > 2.82
|   |   |   |   |   |   |   |   |   |   |   |   |    ssa2 <= 5.2: dup (122.0/1.0)
|   |   |   |   |   |   |   |   |   |   |   |   |    ssa2 > 5.2
|   |   |   |   |   |   |   |   |   |   |   |   |   |    ssa2 <= 7.59
|   |   |   |   |   |   |   |   |   |   |   |   |   |   |    parsing2 <= 5.29
|   |   |   |   |   |   |   |   |   |   |   |   |   |   |   |    pipeline1 <= 5.36
|   |   |   |   |   |   |   |   |   |   |   |   |   |   |   |   |    pipeline1 <= 1.96: dup (3.0/1.0)
|   |   |   |   |   |   |   |   |   |   |   |   |   |   |   |   |    pipeline1 > 1.96: non (13.0)
|   |   |   |   |   |   |   |   |   |   |   |   |   |   |   |    pipeline1 > 5.36: dup (3.0)
|   |   |   |   |   |   |   |   |   |   |   |   |   |   |    parsing2 > 5.29: dup (5.0)
|   |   |   |   |   |   |   |   |   |   |   |   |   |    ssa2 > 7.59: dup (19.0)
|   |   |   |   |   |   |   |   |   |   |    liveRegisters1 > 3
|   |   |   |   |   |   |   |   |   |   |   |    parsing2 <= 3.42
|   |   |   |   |   |   |   |   |   |   |   |   |    introLexical2 <= 5.94
|   |   |   |   |   |   |   |   |   |   |   |   |   |    introLexical2 <= 1.75
|   |   |   |   |   |   |   |   |   |   |   |   |   |   |    memory2 <= 0.57: dup (3.0)
|   |   |   |   |   |   |   |   |   |   |   |   |   |   |    memory2 > 0.57
|   |   |   |   |   |   |   |   |   |   |   |   |   |   |   |    intstructions1 <= 4.66: dup (3.0/1.0)
|   |   |   |   |   |   |   |   |   |   |   |   |   |   |   |    intstructions1 > 4.66: non (15.0)
|   |   |   |   |   |   |   |   |   |   |   |   |   |    introLexical2 > 1.75
|   |   |   |   |   |   |   |   |   |   |   |   |   |   |   cosine_similarity <= 0.997
|   |   |   |   |   |   |   |   |   |   |   |   |   |   |   |   cosine_similarity <= 0.978
|   |   |   |   |   |   |   |   |   |   |   |   |   |   |   |   |   prior <= 0.5
|   |   |   |   |   |   |   |   |   |   |   |   |   |   |   |   |   |   bmfb <= 5.93: dup (7.0/1.0)
|   |   |   |   |   |   |   |   |   |   |   |   |   |   |   |   |   |   bmfb > 5.93: non (7.0)
|   |   |   |   |   |   |   |   |   |   |   |   |   |   |   |   |   prior > 0.5
|   |   |   |   |   |   |   |   |   |   |   |   |   |   |   |   |   |    garbage1 <= 9.11
|   |   |   |   |   |   |   |   |   |   |   |   |   |   |   |   |   |   |    liveRegisters1 <= 9.46
|   |   |   |   |   |   |   |   |   |   |   |   |   |   |   |   |   |   |   |    garbage2 <= 6.19
|   |   |   |   |   |   |   |   |   |   |   |   |   |   |   |   |   |   |   |   |    hueristics2 <= 7.54
|   |   |   |   |   |   |   |   |   |   |   |   |   |   |   |   |   |   |   |   |   |    memory1 <= 7.03: dup (94.0/22.0)
|   |   |   |   |   |   |   |   |   |   |   |   |   |   |   |   |   |   |   |   |   |    memory1 > 7.03: non (10.0/2.0)
|   |   |   |   |   |   |   |   |   |   |   |   |   |   |   |   |   |   |   |   |    hueristics2 > 7.54: dup (17.0)
|   |   |   |   |   |   |   |   |   |   |   |   |   |   |   |   |   |   |   |    garbage2 > 6.19: non (5.0)
|   |   |   |   |   |   |   |   |   |   |   |   |   |   |   |   |   |   |    liveRegisters1 > 9.46: dup (22.0)
|   |   |   |   |   |   |   |   |   |   |   |   |   |   |   |   |   |    garbage1 > 9.11
|   |   |   |   |   |   |   |   |   |   |   |   |   |   |   |   |   |   |   bmfb <= 3.88
|   |   |   |   |   |   |   |   |   |   |   |   |   |   |   |   |   |   |   |    garbage2 <= 2.96: non (4.0/1.0)
|   |   |   |   |   |   |   |   |   |   |   |   |   |   |   |   |   |   |   |    garbage2 > 2.96: dup (3.0)
|   |   |   |   |   |   |   |   |   |   |   |   |   |   |   |   |   |   |   bmfb > 3.88: non (6.0)
|   |   |   |   |   |   |   |   |   |   |   |   |   |   |   |   cosine_similarity > 0.978
|   |   |   |   |   |   |   |   |   |   |   |   |   |   |   |   |   bmfb <= 8.42: dup (4.0/1.0)
|   |   |   |   |   |   |   |   |   |   |   |   |   |   |   |   |   bmfb > 8.42: non (12.0)
|   |   |   |   |   |   |   |   |   |   |   |   |   |   |   cosine_similarity > 0.997: dup (22.0)
|   |   |   |   |   |   |   |   |   |   |   |   |    introLexical2 > 5.94
|   |   |   |   |   |   |   |   |   |   |   |   |   |   cosine_similarity <= 0.992
|   |   |   |   |   |   |   |   |   |   |   |   |   |   |    parsing1 <= 1.36: non (9.0)
|   |   |   |   |   |   |   |   |   |   |   |   |   |   |    parsing1 > 1.36
|   |   |   |   |   |   |   |   |   |   |   |   |   |   |   |    memory2 <= 2.18: dup (9.0)
|   |   |   |   |   |   |   |   |   |   |   |   |   |   |   |    memory2 > 2.18
|   |   |   |   |   |   |   |   |   |   |   |   |   |   |   |   |    ssa2 <= 3.46: non (7.0)
|   |   |   |   |   |   |   |   |   |   |   |   |   |   |   |   |    ssa2 > 3.46
|   |   |   |   |   |   |   |   |   |   |   |   |   |   |   |   |   |    intermediate1 <= 13.39
|   |   |   |   |   |   |   |   |   |   |   |   |   |   |   |   |   |   |   cosine_similarity <= 0.921: non (8.0/1.0)
|   |   |   |   |   |   |   |   |   |   |   |   |   |   |   |   |   |   |   cosine_similarity > 0.921
|   |   |   |   |   |   |   |   |   |   |   |   |   |   |   |   |   |   |   |    functional1 <= 2.72
|   |   |   |   |   |   |   |   |   |   |   |   |   |   |   |   |   |   |   |   |    garbage2 <= 5.14
|   |   |   |   |   |   |   |   |   |   |   |   |   |   |   |   |   |   |   |   |   |   bmfb <= 6.95: dup (6.0)
|   |   |   |   |   |   |   |   |   |   |   |   |   |   |   |   |   |   |   |   |   |   bmfb > 6.95: non (2.0)
|   |   |   |   |   |   |   |   |   |   |   |   |   |   |   |   |   |   |   |   |    garbage2 > 5.14: non (8.0)
|   |   |   |   |   |   |   |   |   |   |   |   |   |   |   |   |   |   |   |    functional1 > 2.72
|   |   |   |   |   |   |   |   |   |   |   |   |   |   |   |   |   |   |   |   |    garbage2 <= 4.2: dup (18.0)
|   |   |   |   |   |   |   |   |   |   |   |   |   |   |   |   |   |   |   |   |    garbage2 > 4.2
|   |   |   |   |   |   |   |   |   |   |   |   |   |   |   |   |   |   |   |   |   |    pipeline2 <= 6.64
|   |   |   |   |   |   |   |   |   |   |   |   |   |   |   |   |   |   |   |   |   |   |    pipeline2 <= 5.07: dup (5.0/1.0)
|   |   |   |   |   |   |   |   |   |   |   |   |   |   |   |   |   |   |   |   |   |   |    pipeline2 > 5.07: non (6.0)
|   |   |   |   |   |   |   |   |   |   |   |   |   |   |   |   |   |   |   |   |   |    pipeline2 > 6.64: dup (13.0/1.0)
|   |   |   |   |   |   |   |   |   |   |   |   |   |   |   |   |   |    intermediate1 > 13.39: non (5.0)
|   |   |   |   |   |   |   |   |   |   |   |   |   |   cosine_similarity > 0.992: non (25.0)
|   |   |   |   |   |   |   |   |   |   |   |    parsing2 > 3.42
|   |   |   |   |   |   |   |   |   |   |   |   |    memory1 <= 1.2
|   |   |   |   |   |   |   |   |   |   |   |   |   |    functional1 <= 3.18
|   |   |   |   |   |   |   |   |   |   |   |   |   |   |    introLexical2 <= 11.09: non (18.0/1.0)
|   |   |   |   |   |   |   |   |   |   |   |   |   |   |    introLexical2 > 11.09: dup (2.0)
|   |   |   |   |   |   |   |   |   |   |   |   |   |    functional1 > 3.18: dup (5.0)
|   |   |   |   |   |   |   |   |   |   |   |   |    memory1 > 1.2
|   |   |   |   |   |   |   |   |   |   |   |   |   |    intstructions1 <= 2.57: dup (26.0)
|   |   |   |   |   |   |   |   |   |   |   |   |   |    intstructions1 > 2.57
|   |   |   |   |   |   |   |   |   |   |   |   |   |   |    pipeline2 <= 3.61
|   |   |   |   |   |   |   |   |   |   |   |   |   |   |   |    garbage2 <= 2.72: dup (12.0)
|   |   |   |   |   |   |   |   |   |   |   |   |   |   |   |    garbage2 > 2.72
|   |   |   |   |   |   |   |   |   |   |   |   |   |   |   |   |   bmfu <= 14.83
|   |   |   |   |   |   |   |   |   |   |   |   |   |   |   |   |   |    functional2 <= 2.76: non (19.0)
|   |   |   |   |   |   |   |   |   |   |   |   |   |   |   |   |   |    functional2 > 2.76
|   |   |   |   |   |   |   |   |   |   |   |   |   |   |   |   |   |   |    memory1 <= 4.69: non (7.0/1.0)
|   |   |   |   |   |   |   |   |   |   |   |   |   |   |   |   |   |   |    memory1 > 4.69: dup (5.0)
|   |   |   |   |   |   |   |   |   |   |   |   |   |   |   |   |   bmfu > 14.83: dup (6.0)
|   |   |   |   |   |   |   |   |   |   |   |   |   |   |    pipeline2 > 3.61
|   |   |   |   |   |   |   |   |   |   |   |   |   |   |   |   bmfb <= 4.96
|   |   |   |   |   |   |   |   |   |   |   |   |   |   |   |   |    functional1 <= 2.09
|   |   |   |   |   |   |   |   |   |   |   |   |   |   |   |   |   |    pipeline2 <= 6.2: dup (8.0)
|   |   |   |   |   |   |   |   |   |   |   |   |   |   |   |   |   |    pipeline2 > 6.2
|   |   |   |   |   |   |   |   |   |   |   |   |   |   |   |   |   |   |    polymorhic2 <= 8.4
|   |   |   |   |   |   |   |   |   |   |   |   |   |   |   |   |   |   |   |    intstructions2 <= 6.86: dup (2.0)
|   |   |   |   |   |   |   |   |   |   |   |   |   |   |   |   |   |   |   |    intstructions2 > 6.86: non (13.0)
|   |   |   |   |   |   |   |   |   |   |   |   |   |   |   |   |   |   |    polymorhic2 > 8.4: dup (5.0)
|   |   |   |   |   |   |   |   |   |   |   |   |   |   |   |   |    functional1 > 2.09: dup (376.0/53.0)
|   |   |   |   |   |   |   |   |   |   |   |   |   |   |   |   bmfb > 4.96
|   |   |   |   |   |   |   |   |   |   |   |   |   |   |   |   |    garbage2 <= 12.15
|   |   |   |   |   |   |   |   |   |   |   |   |   |   |   |   |   |    functional1 <= 2.33: dup (38.0/2.0)
|   |   |   |   |   |   |   |   |   |   |   |   |   |   |   |   |   |    functional1 > 2.33
|   |   |   |   |   |   |   |   |   |   |   |   |   |   |   |   |   |   |    pipeline2 <= 12.05
|   |   |   |   |   |   |   |   |   |   |   |   |   |   |   |   |   |   |   |   prior <= 0.5
|   |   |   |   |   |   |   |   |   |   |   |   |   |   |   |   |   |   |   |   |    introLexical1 <= 10.71
|   |   |   |   |   |   |   |   |   |   |   |   |   |   |   |   |   |   |   |   |   |   prior <= 0.33: dup (4.0)
|   |   |   |   |   |   |   |   |   |   |   |   |   |   |   |   |   |   |   |   |   |   prior > 0.33
|   |   |   |   |   |   |   |   |   |   |   |   |   |   |   |   |   |   |   |   |   |   |    introLexical1 <= 10.25
|   |   |   |   |   |   |   |   |   |   |   |   |   |   |   |   |   |   |   |   |   |   |   |    ssa1 <= 5.4: dup (4.0)
|   |   |   |   |   |   |   |   |   |   |   |   |   |   |   |   |   |   |   |   |   |   |   |    ssa1 > 5.4: non (6.0/1.0)
|   |   |   |   |   |   |   |   |   |   |   |   |   |   |   |   |   |   |   |   |   |   |    introLexical1 > 10.25: dup (5.0)
|   |   |   |   |   |   |   |   |   |   |   |   |   |   |   |   |   |   |   |   |    introLexical1 > 10.71: non (4.0)
|   |   |   |   |   |   |   |   |   |   |   |   |   |   |   |   |   |   |   |   prior > 0.5
|   |   |   |   |   |   |   |   |   |   |   |   |   |   |   |   |   |   |   |   |    semantics1 <= 4.1
|   |   |   |   |   |   |   |   |   |   |   |   |   |   |   |   |   |   |   |   |   |    pipeline1 <= 7.27
|   |   |   |   |   |   |   |   |   |   |   |   |   |   |   |   |   |   |   |   |   |   |    ssa2 <= 4.91: dup (3.0/1.0)
|   |   |   |   |   |   |   |   |   |   |   |   |   |   |   |   |   |   |   |   |   |   |    ssa2 > 4.91: non (13.0)
|   |   |   |   |   |   |   |   |   |   |   |   |   |   |   |   |   |   |   |   |   |    pipeline1 > 7.27: dup (4.0)
|   |   |   |   |   |   |   |   |   |   |   |   |   |   |   |   |   |   |   |   |    semantics1 > 4.1: dup (270.0/76.0)
|   |   |   |   |   |   |   |   |   |   |   |   |   |   |   |   |   |   |    pipeline2 > 12.05
|   |   |   |   |   |   |   |   |   |   |   |   |   |   |   |   |   |   |   |    introLexical2 <= 16.13: dup (35.0/1.0)
|   |   |   |   |   |   |   |   |   |   |   |   |   |   |   |   |   |   |   |    introLexical2 > 16.13: non (3.0/1.0)
|   |   |   |   |   |   |   |   |   |   |   |   |   |   |   |   |    garbage2 > 12.15
|   |   |   |   |   |   |   |   |   |   |   |   |   |   |   |   |   |    parsing2 <= 9.02: non (7.0)
|   |   |   |   |   |   |   |   |   |   |   |   |   |   |   |   |   |    parsing2 > 9.02
|   |   |   |   |   |   |   |   |   |   |   |   |   |   |   |   |   |   |    hueristics2 <= 17.56: dup (7.0/1.0)
|   |   |   |   |   |   |   |   |   |   |   |   |   |   |   |   |   |   |    hueristics2 > 17.56
|   |   |   |   |   |   |   |   |   |   |   |   |   |   |   |   |   |   |   |    semantics1 <= 13.48: non (6.0)
|   |   |   |   |   |   |   |   |   |   |   |   |   |   |   |   |   |   |   |    semantics1 > 13.48: dup (4.0/1.0)
|   |   |   |   |   bmfu > 19.51
|   |   |   |   |   |    intermediate1 <= 13.39
|   |   |   |   |   |   |    semantics1 <= 3.02
|   |   |   |   |   |   |   |    liveRegisters1 <= 5.27
|   |   |   |   |   |   |   |   |    parsing1 <= 1.74: non (7.0/1.0)
|   |   |   |   |   |   |   |   |    parsing1 > 1.74
|   |   |   |   |   |   |   |   |   |    polymorhic1 <= 4: dup (20.0)
|   |   |   |   |   |   |   |   |   |    polymorhic1 > 4
|   |   |   |   |   |   |   |   |   |   |   bmfu <= 25.26: dup (2.0)
|   |   |   |   |   |   |   |   |   |   |   bmfu > 25.26: non (2.0)
|   |   |   |   |   |   |   |    liveRegisters1 > 5.27: non (5.0)
|   |   |   |   |   |   |    semantics1 > 3.02
|   |   |   |   |   |   |   |   type <= 0: dup (336.0/4.0)
|   |   |   |   |   |   |   |   type > 0
|   |   |   |   |   |   |   |   |    introLexical1 <= 9.39
|   |   |   |   |   |   |   |   |   |   comp <= 0
|   |   |   |   |   |   |   |   |   |   |    parsing2 <= 3.51
|   |   |   |   |   |   |   |   |   |   |   |    semantics2 <= 2.58: dup (3.0)
|   |   |   |   |   |   |   |   |   |   |   |    semantics2 > 2.58: non (10.0/1.0)
|   |   |   |   |   |   |   |   |   |   |    parsing2 > 3.51: dup (125.0/4.0)
|   |   |   |   |   |   |   |   |   |   comp > 0
|   |   |   |   |   |   |   |   |   |   |    hueristics1 <= 4.75: dup (133.0)
|   |   |   |   |   |   |   |   |   |   |    hueristics1 > 4.75
|   |   |   |   |   |   |   |   |   |   |   |    pipeline1 <= 3.23
|   |   |   |   |   |   |   |   |   |   |   |   |    introLexical1 <= 2.94: non (4.0)
|   |   |   |   |   |   |   |   |   |   |   |   |    introLexical1 > 2.94
|   |   |   |   |   |   |   |   |   |   |   |   |   |    pipeline1 <= 3.05: dup (13.0)
|   |   |   |   |   |   |   |   |   |   |   |   |   |    pipeline1 > 3.05: non (4.0/1.0)
|   |   |   |   |   |   |   |   |   |   |   |    pipeline1 > 3.23
|   |   |   |   |   |   |   |   |   |   |   |   |    pipeline1 <= 5.73: dup (123.0)
|   |   |   |   |   |   |   |   |   |   |   |   |    pipeline1 > 5.73
|   |   |   |   |   |   |   |   |   |   |   |   |   |   cosine_similarity <= 0.961
|   |   |   |   |   |   |   |   |   |   |   |   |   |   |    memory2 <= 3.95: dup (7.0)
|   |   |   |   |   |   |   |   |   |   |   |   |   |   |    memory2 > 3.95: non (5.0)
|   |   |   |   |   |   |   |   |   |   |   |   |   |   cosine_similarity > 0.961
|   |   |   |   |   |   |   |   |   |   |   |   |   |   |    memory1 <= 6.11
|   |   |   |   |   |   |   |   |   |   |   |   |   |   |   |    functional2 <= 3.33: dup (38.0)
|   |   |   |   |   |   |   |   |   |   |   |   |   |   |   |    functional2 > 3.33
|   |   |   |   |   |   |   |   |   |   |   |   |   |   |   |   |    liveRegisters2 <= 4.11: non (4.0)
|   |   |   |   |   |   |   |   |   |   |   |   |   |   |   |   |    liveRegisters2 > 4.11
|   |   |   |   |   |   |   |   |   |   |   |   |   |   |   |   |   |    garbage2 <= 5.98: dup (40.0/1.0)
|   |   |   |   |   |   |   |   |   |   |   |   |   |   |   |   |   |    garbage2 > 5.98
|   |   |   |   |   |   |   |   |   |   |   |   |   |   |   |   |   |   |    intermediate2 <= 6.04: non (4.0)
|   |   |   |   |   |   |   |   |   |   |   |   |   |   |   |   |   |   |    intermediate2 > 6.04
|   |   |   |   |   |   |   |   |   |   |   |   |   |   |   |   |   |   |   |    ssa2 <= 10.08: dup (11.0)
|   |   |   |   |   |   |   |   |   |   |   |   |   |   |   |   |   |   |   |    ssa2 > 10.08: non (2.0)
|   |   |   |   |   |   |   |   |   |   |   |   |   |   |    memory1 > 6.11: dup (92.0)
|   |   |   |   |   |   |   |   |    introLexical1 > 9.39
|   |   |   |   |   |   |   |   |   |    liveRegisters2 <= 11.73
|   |   |   |   |   |   |   |   |   |   |    garbage1 <= 8.75
|   |   |   |   |   |   |   |   |   |   |   |    memory1 <= 2.71: non (4.0)
|   |   |   |   |   |   |   |   |   |   |   |    memory1 > 2.71
|   |   |   |   |   |   |   |   |   |   |   |   |    polymorhic2 <= 8.52
|   |   |   |   |   |   |   |   |   |   |   |   |   |   bmfb <= 31.77: non (3.0/1.0)
|   |   |   |   |   |   |   |   |   |   |   |   |   |   bmfb > 31.77: dup (39.0)
|   |   |   |   |   |   |   |   |   |   |   |   |    polymorhic2 > 8.52
|   |   |   |   |   |   |   |   |   |   |   |   |   |   cosine_similarity <= 0.997
|   |   |   |   |   |   |   |   |   |   |   |   |   |   |    intermediate1 <= 7.4: dup (2.0)
|   |   |   |   |   |   |   |   |   |   |   |   |   |   |    intermediate1 > 7.4: non (9.0/1.0)
|   |   |   |   |   |   |   |   |   |   |   |   |   |   cosine_similarity > 0.997: dup (10.0/1.0)
|   |   |   |   |   |   |   |   |   |   |    garbage1 > 8.75
|   |   |   |   |   |   |   |   |   |   |   |    intstructions1 <= 10.21: non (10.0/1.0)
|   |   |   |   |   |   |   |   |   |   |   |    intstructions1 > 10.21: dup (4.0)
|   |   |   |   |   |   |   |   |   |    liveRegisters2 > 11.73: dup (33.0)
|   |   |   |   |   |    intermediate1 > 13.39
|   |   |   |   |   |   |   cosine_similarity <= 0.997
|   |   |   |   |   |   |   |    parsing2 <= 6.63: dup (5.0)
|   |   |   |   |   |   |   |    parsing2 > 6.63
|   |   |   |   |   |   |   |   |    parsing1 <= 8.94: non (11.0)
|   |   |   |   |   |   |   |   |    parsing1 > 8.94
|   |   |   |   |   |   |   |   |   |    intstructions2 <= 11.93: dup (4.0)
|   |   |   |   |   |   |   |   |   |    intstructions2 > 11.93: non (4.0/1.0)
|   |   |   |   |   |   |   cosine_similarity > 0.997: dup (18.0/1.0)

Number of Leaves  : 	519

Size of the tree : 	1037


Time taken to build model: 6.79 seconds
Time taken to test model on training data: 0.44 seconds

=== Error on training data ===

Correctly Classified Instances       27044               97.7023 %
Incorrectly Classified Instances       636                2.2977 %
Kappa statistic                          0.9285
Mean absolute error                      0.0371
Root mean squared error                  0.1361
Relative absolute error                 11.5777 %
Root relative squared error             34.0267 %
Total Number of Instances            27680     


=== Confusion Matrix ===

     a     b   <-- classified as
  5248   288 |     a = dup
   348 21796 |     b = non



=== Stratified cross-validation ===

Correctly Classified Instances       25686               92.7962 %
Incorrectly Classified Instances      1994                7.2038 %
Kappa statistic                          0.776 
Mean absolute error                      0.0811
Root mean squared error                  0.2552
Relative absolute error                 25.3415 %
Root relative squared error             63.7934 %
Total Number of Instances            27680     


=== Confusion Matrix ===

     a     b   <-- classified as
  4576   960 |     a = dup
  1034 21110 |     b = non

