
J48 pruned tree
------------------

bmfu <= 3.36
|   comp <= 0
|   |   prod <= 0
|   |   |   bmfu <= 1.33: non (14253.0/31.0)
|   |   |   bmfu > 1.33
|   |   |   |   Ch62 <= 8.27
|   |   |   |   |   Ch192 <= 1.7
|   |   |   |   |   |   Ch102 <= 4.71
|   |   |   |   |   |   |   Ch42 <= 10.28
|   |   |   |   |   |   |   |   Ch122 <= 2.94
|   |   |   |   |   |   |   |   |   Ch122 <= 2.55
|   |   |   |   |   |   |   |   |   |   Ch172 <= 2.97: non (28.0)
|   |   |   |   |   |   |   |   |   |   Ch172 > 2.97
|   |   |   |   |   |   |   |   |   |   |   Ch62 <= 0.89: non (5.0/1.0)
|   |   |   |   |   |   |   |   |   |   |   Ch62 > 0.89: dup (2.0)
|   |   |   |   |   |   |   |   |   Ch122 > 2.55: dup (4.0)
|   |   |   |   |   |   |   |   Ch122 > 2.94: non (39.0)
|   |   |   |   |   |   |   Ch42 > 10.28: dup (6.0)
|   |   |   |   |   |   Ch102 > 4.71: non (44.0)
|   |   |   |   |   Ch192 > 1.7
|   |   |   |   |   |   Ch91 <= 1.59
|   |   |   |   |   |   |   Ch51 <= 2.13: dup (4.0)
|   |   |   |   |   |   |   Ch51 > 2.13
|   |   |   |   |   |   |   |   Ch122 <= 3.99
|   |   |   |   |   |   |   |   |   Ch11 <= 0.86: non (2.0)
|   |   |   |   |   |   |   |   |   Ch11 > 0.86: dup (2.0)
|   |   |   |   |   |   |   |   Ch122 > 3.99: non (27.0)
|   |   |   |   |   |   Ch91 > 1.59
|   |   |   |   |   |   |   Ch52 <= 16.13
|   |   |   |   |   |   |   |   Ch42 <= 18.32
|   |   |   |   |   |   |   |   |   Ch21 <= 9.17: non (1879.0/35.0)
|   |   |   |   |   |   |   |   |   Ch21 > 9.17
|   |   |   |   |   |   |   |   |   |   Ch21 <= 9.19: dup (12.0)
|   |   |   |   |   |   |   |   |   |   Ch21 > 9.19: non (127.0/1.0)
|   |   |   |   |   |   |   |   Ch42 > 18.32
|   |   |   |   |   |   |   |   |   Ch62 <= 4.77
|   |   |   |   |   |   |   |   |   |   Ch22 <= 4.53: dup (8.0)
|   |   |   |   |   |   |   |   |   |   Ch22 > 4.53: non (2.0)
|   |   |   |   |   |   |   |   |   Ch62 > 4.77: non (19.0/1.0)
|   |   |   |   |   |   |   Ch52 > 16.13: non (1133.0/11.0)
|   |   |   |   Ch62 > 8.27
|   |   |   |   |   Ch42 <= 16.13
|   |   |   |   |   |   Ch52 <= 20.08: non (46.0/1.0)
|   |   |   |   |   |   Ch52 > 20.08
|   |   |   |   |   |   |   Ch172 <= 10.66: non (6.0)
|   |   |   |   |   |   |   Ch172 > 10.66: dup (25.0)
|   |   |   |   |   Ch42 > 16.13: non (265.0/3.0)
|   |   prod > 0
|   |   |   bmfu <= 1.25
|   |   |   |   Ch12 <= 0.83
|   |   |   |   |   Ch172 <= 0.68: non (10.0)
|   |   |   |   |   Ch172 > 0.68
|   |   |   |   |   |   Ch32 <= 1.93: dup (10.0)
|   |   |   |   |   |   Ch32 > 1.93: non (5.0)
|   |   |   |   Ch12 > 0.83
|   |   |   |   |   bmfb <= 0.03
|   |   |   |   |   |   Ch21 <= 2.39: non (164.0/1.0)
|   |   |   |   |   |   Ch21 > 2.39
|   |   |   |   |   |   |   Ch31 <= 6.53
|   |   |   |   |   |   |   |   Ch101 <= 5.85: non (51.0/1.0)
|   |   |   |   |   |   |   |   Ch101 > 5.85
|   |   |   |   |   |   |   |   |   Ch101 <= 6.66
|   |   |   |   |   |   |   |   |   |   bmfu <= 0.6
|   |   |   |   |   |   |   |   |   |   |   Ch11 <= 4.91: non (6.0)
|   |   |   |   |   |   |   |   |   |   |   Ch11 > 4.91: dup (4.0/1.0)
|   |   |   |   |   |   |   |   |   |   bmfu > 0.6: dup (5.0)
|   |   |   |   |   |   |   |   |   Ch101 > 6.66
|   |   |   |   |   |   |   |   |   |   Ch51 <= 19.2
|   |   |   |   |   |   |   |   |   |   |   Ch161 <= 5.29
|   |   |   |   |   |   |   |   |   |   |   |   Ch21 <= 4.84: non (11.0/1.0)
|   |   |   |   |   |   |   |   |   |   |   |   Ch21 > 4.84: dup (3.0)
|   |   |   |   |   |   |   |   |   |   |   Ch161 > 5.29: non (31.0)
|   |   |   |   |   |   |   |   |   |   Ch51 > 19.2: dup (2.0)
|   |   |   |   |   |   |   Ch31 > 6.53: non (298.0/9.0)
|   |   |   |   |   bmfb > 0.03
|   |   |   |   |   |   cosine_similarity <= 0.872: dup (2.0)
|   |   |   |   |   |   cosine_similarity > 0.872: non (23.0/1.0)
|   |   |   bmfu > 1.25
|   |   |   |   bmfu <= 2.49
|   |   |   |   |   Ch122 <= 7.68
|   |   |   |   |   |   bmfb <= 1.03
|   |   |   |   |   |   |   Ch112 <= 7.4
|   |   |   |   |   |   |   |   prior <= 0.5
|   |   |   |   |   |   |   |   |   Ch21 <= 2.08: dup (3.0)
|   |   |   |   |   |   |   |   |   Ch21 > 2.08: non (5.0)
|   |   |   |   |   |   |   |   prior > 0.5
|   |   |   |   |   |   |   |   |   type <= 0
|   |   |   |   |   |   |   |   |   |   Ch182 <= 2.24: dup (3.0)
|   |   |   |   |   |   |   |   |   |   Ch182 > 2.24
|   |   |   |   |   |   |   |   |   |   |   Ch71 <= 7.58: non (27.0/1.0)
|   |   |   |   |   |   |   |   |   |   |   Ch71 > 7.58
|   |   |   |   |   |   |   |   |   |   |   |   Ch91 <= 11.8: dup (4.0)
|   |   |   |   |   |   |   |   |   |   |   |   Ch91 > 11.8: non (4.0)
|   |   |   |   |   |   |   |   |   type > 0: non (61.0/6.0)
|   |   |   |   |   |   |   Ch112 > 7.4
|   |   |   |   |   |   |   |   Ch121 <= 9.27
|   |   |   |   |   |   |   |   |   Ch151 <= 5.37
|   |   |   |   |   |   |   |   |   |   Ch172 <= 6.95
|   |   |   |   |   |   |   |   |   |   |   Ch12 <= 6.08: non (2.0)
|   |   |   |   |   |   |   |   |   |   |   Ch12 > 6.08: dup (7.0)
|   |   |   |   |   |   |   |   |   |   Ch172 > 6.95: non (15.0/1.0)
|   |   |   |   |   |   |   |   |   Ch151 > 5.37
|   |   |   |   |   |   |   |   |   |   Ch21 <= 2.33: non (2.0)
|   |   |   |   |   |   |   |   |   |   Ch21 > 2.33: dup (11.0)
|   |   |   |   |   |   |   |   Ch121 > 9.27: non (9.0)
|   |   |   |   |   |   bmfb > 1.03
|   |   |   |   |   |   |   type <= 0: dup (10.0/1.0)
|   |   |   |   |   |   |   type > 0
|   |   |   |   |   |   |   |   Ch41 <= 11.73: non (5.0)
|   |   |   |   |   |   |   |   Ch41 > 11.73: dup (2.0)
|   |   |   |   |   Ch122 > 7.68
|   |   |   |   |   |   type <= 0: non (79.0/7.0)
|   |   |   |   |   |   type > 0
|   |   |   |   |   |   |   Ch101 <= 10.59: non (46.0/1.0)
|   |   |   |   |   |   |   Ch101 > 10.59
|   |   |   |   |   |   |   |   Ch162 <= 10.18: non (10.0)
|   |   |   |   |   |   |   |   Ch162 > 10.18
|   |   |   |   |   |   |   |   |   Ch191 <= 8.59: dup (5.0)
|   |   |   |   |   |   |   |   |   Ch191 > 8.59: non (4.0)
|   |   |   |   bmfu > 2.49
|   |   |   |   |   Ch72 <= 13.99
|   |   |   |   |   |   Ch141 <= 5.47
|   |   |   |   |   |   |   Ch41 <= 13.98
|   |   |   |   |   |   |   |   prior <= 0.33: dup (5.0/1.0)
|   |   |   |   |   |   |   |   prior > 0.33
|   |   |   |   |   |   |   |   |   Ch171 <= 8.82
|   |   |   |   |   |   |   |   |   |   Ch172 <= 3.48: non (15.0)
|   |   |   |   |   |   |   |   |   |   Ch172 > 3.48
|   |   |   |   |   |   |   |   |   |   |   Ch172 <= 8.12
|   |   |   |   |   |   |   |   |   |   |   |   Ch152 <= 4.23
|   |   |   |   |   |   |   |   |   |   |   |   |   Ch92 <= 5.42: dup (3.0)
|   |   |   |   |   |   |   |   |   |   |   |   |   Ch92 > 5.42: non (11.0)
|   |   |   |   |   |   |   |   |   |   |   |   Ch152 > 4.23
|   |   |   |   |   |   |   |   |   |   |   |   |   Ch191 <= 0.45: non (2.0)
|   |   |   |   |   |   |   |   |   |   |   |   |   Ch191 > 0.45: dup (16.0/1.0)
|   |   |   |   |   |   |   |   |   |   |   Ch172 > 8.12
|   |   |   |   |   |   |   |   |   |   |   |   Ch162 <= 14.82: non (15.0)
|   |   |   |   |   |   |   |   |   |   |   |   Ch162 > 14.82: dup (2.0)
|   |   |   |   |   |   |   |   |   Ch171 > 8.82: dup (4.0)
|   |   |   |   |   |   |   Ch41 > 13.98: dup (11.0)
|   |   |   |   |   |   Ch141 > 5.47
|   |   |   |   |   |   |   Ch122 <= 4.94
|   |   |   |   |   |   |   |   Ch182 <= 4.87: non (9.0)
|   |   |   |   |   |   |   |   Ch182 > 4.87: dup (5.0)
|   |   |   |   |   |   |   Ch122 > 4.94: non (38.0/2.0)
|   |   |   |   |   Ch72 > 13.99: dup (9.0/1.0)
|   comp > 0
|   |   prod <= 0
|   |   |   bmfu <= 2.09: non (244.0/1.0)
|   |   |   bmfu > 2.09
|   |   |   |   Ch192 <= 11.62
|   |   |   |   |   Ch162 <= 5.15: dup (2.0)
|   |   |   |   |   Ch162 > 5.15: non (29.0/1.0)
|   |   |   |   Ch192 > 11.62
|   |   |   |   |   Ch22 <= 7.04: dup (5.0)
|   |   |   |   |   Ch22 > 7.04: non (2.0)
|   |   prod > 0
|   |   |   bmfu <= 0.91
|   |   |   |   Ch121 <= 9.59
|   |   |   |   |   bmfu <= 0.14
|   |   |   |   |   |   Ch141 <= 4.13
|   |   |   |   |   |   |   Ch101 <= 6.44
|   |   |   |   |   |   |   |   Ch62 <= 1.4: non (43.0)
|   |   |   |   |   |   |   |   Ch62 > 1.4
|   |   |   |   |   |   |   |   |   Ch181 <= 1.18
|   |   |   |   |   |   |   |   |   |   Ch11 <= 1.52: non (3.0/1.0)
|   |   |   |   |   |   |   |   |   |   Ch11 > 1.52: dup (4.0)
|   |   |   |   |   |   |   |   |   Ch181 > 1.18
|   |   |   |   |   |   |   |   |   |   Ch111 <= 6.7: non (58.0/5.0)
|   |   |   |   |   |   |   |   |   |   Ch111 > 6.7: dup (4.0/1.0)
|   |   |   |   |   |   |   Ch101 > 6.44
|   |   |   |   |   |   |   |   prior <= 0.5: non (2.0)
|   |   |   |   |   |   |   |   prior > 0.5
|   |   |   |   |   |   |   |   |   Ch191 <= 2.6: non (6.0)
|   |   |   |   |   |   |   |   |   Ch191 > 2.6
|   |   |   |   |   |   |   |   |   |   Ch131 <= 6.96
|   |   |   |   |   |   |   |   |   |   |   Ch122 <= 6.84: dup (14.0)
|   |   |   |   |   |   |   |   |   |   |   Ch122 > 6.84: non (2.0)
|   |   |   |   |   |   |   |   |   |   Ch131 > 6.96: non (4.0)
|   |   |   |   |   |   Ch141 > 4.13: non (50.0/1.0)
|   |   |   |   |   bmfu > 0.14
|   |   |   |   |   |   type <= 0
|   |   |   |   |   |   |   bmfu <= 0.85
|   |   |   |   |   |   |   |   Ch91 <= 3.29: dup (5.0)
|   |   |   |   |   |   |   |   Ch91 > 3.29
|   |   |   |   |   |   |   |   |   Ch22 <= 0.16: dup (3.0)
|   |   |   |   |   |   |   |   |   Ch22 > 0.16
|   |   |   |   |   |   |   |   |   |   Ch192 <= 9.39
|   |   |   |   |   |   |   |   |   |   |   Ch122 <= 5.41
|   |   |   |   |   |   |   |   |   |   |   |   Ch142 <= 2.43: non (8.0)
|   |   |   |   |   |   |   |   |   |   |   |   Ch142 > 2.43
|   |   |   |   |   |   |   |   |   |   |   |   |   Ch61 <= 1.67: non (3.0)
|   |   |   |   |   |   |   |   |   |   |   |   |   Ch61 > 1.67: dup (6.0)
|   |   |   |   |   |   |   |   |   |   |   Ch122 > 5.41: non (21.0/1.0)
|   |   |   |   |   |   |   |   |   |   Ch192 > 9.39: dup (4.0)
|   |   |   |   |   |   |   bmfu > 0.85: non (9.0)
|   |   |   |   |   |   type > 0
|   |   |   |   |   |   |   Ch21 <= 4.41
|   |   |   |   |   |   |   |   Ch31 <= 1.87: dup (2.0)
|   |   |   |   |   |   |   |   Ch31 > 1.87: non (33.0/1.0)
|   |   |   |   |   |   |   Ch21 > 4.41
|   |   |   |   |   |   |   |   Ch11 <= 8.5
|   |   |   |   |   |   |   |   |   Ch82 <= 3.56
|   |   |   |   |   |   |   |   |   |   bmfu <= 0.65: dup (2.0)
|   |   |   |   |   |   |   |   |   |   bmfu > 0.65: non (2.0)
|   |   |   |   |   |   |   |   |   Ch82 > 3.56: dup (8.0)
|   |   |   |   |   |   |   |   Ch11 > 8.5: non (6.0)
|   |   |   |   Ch121 > 9.59: non (38.0)
|   |   |   bmfu > 0.91
|   |   |   |   Ch91 <= 15.75
|   |   |   |   |   type <= 0
|   |   |   |   |   |   Ch132 <= 7.81
|   |   |   |   |   |   |   Ch11 <= 2.04: dup (24.0)
|   |   |   |   |   |   |   Ch11 > 2.04
|   |   |   |   |   |   |   |   cosine_similarity <= 0.958
|   |   |   |   |   |   |   |   |   Ch52 <= 16.46
|   |   |   |   |   |   |   |   |   |   Ch32 <= 9.1
|   |   |   |   |   |   |   |   |   |   |   Ch92 <= 8.28
|   |   |   |   |   |   |   |   |   |   |   |   cosine_similarity <= 0.682: non (5.0)
|   |   |   |   |   |   |   |   |   |   |   |   cosine_similarity > 0.682
|   |   |   |   |   |   |   |   |   |   |   |   |   Ch32 <= 2.65: dup (19.0)
|   |   |   |   |   |   |   |   |   |   |   |   |   Ch32 > 2.65
|   |   |   |   |   |   |   |   |   |   |   |   |   |   Ch141 <= 7.41
|   |   |   |   |   |   |   |   |   |   |   |   |   |   |   Ch22 <= 2.52
|   |   |   |   |   |   |   |   |   |   |   |   |   |   |   |   Ch62 <= 1.18: dup (7.0)
|   |   |   |   |   |   |   |   |   |   |   |   |   |   |   |   Ch62 > 1.18
|   |   |   |   |   |   |   |   |   |   |   |   |   |   |   |   |   Ch62 <= 3.51: non (16.0/1.0)
|   |   |   |   |   |   |   |   |   |   |   |   |   |   |   |   |   Ch62 > 3.51: dup (3.0)
|   |   |   |   |   |   |   |   |   |   |   |   |   |   |   Ch22 > 2.52
|   |   |   |   |   |   |   |   |   |   |   |   |   |   |   |   bmfb <= 2.2
|   |   |   |   |   |   |   |   |   |   |   |   |   |   |   |   |   Ch42 <= 13.89
|   |   |   |   |   |   |   |   |   |   |   |   |   |   |   |   |   |   Ch52 <= 7.9
|   |   |   |   |   |   |   |   |   |   |   |   |   |   |   |   |   |   |   Ch102 <= 5.62: dup (7.0)
|   |   |   |   |   |   |   |   |   |   |   |   |   |   |   |   |   |   |   Ch102 > 5.62: non (4.0/1.0)
|   |   |   |   |   |   |   |   |   |   |   |   |   |   |   |   |   |   Ch52 > 7.9: dup (25.0)
|   |   |   |   |   |   |   |   |   |   |   |   |   |   |   |   |   Ch42 > 13.89: non (2.0)
|   |   |   |   |   |   |   |   |   |   |   |   |   |   |   |   bmfb > 2.2: non (2.0)
|   |   |   |   |   |   |   |   |   |   |   |   |   |   Ch141 > 7.41: non (6.0)
|   |   |   |   |   |   |   |   |   |   |   Ch92 > 8.28
|   |   |   |   |   |   |   |   |   |   |   |   Ch12 <= 5.08: non (11.0)
|   |   |   |   |   |   |   |   |   |   |   |   Ch12 > 5.08
|   |   |   |   |   |   |   |   |   |   |   |   |   Ch141 <= 5.61
|   |   |   |   |   |   |   |   |   |   |   |   |   |   Ch51 <= 11.93: non (9.0)
|   |   |   |   |   |   |   |   |   |   |   |   |   |   Ch51 > 11.93: dup (4.0/1.0)
|   |   |   |   |   |   |   |   |   |   |   |   |   Ch141 > 5.61: dup (5.0)
|   |   |   |   |   |   |   |   |   |   Ch32 > 9.1: dup (10.0)
|   |   |   |   |   |   |   |   |   Ch52 > 16.46: non (12.0/1.0)
|   |   |   |   |   |   |   |   cosine_similarity > 0.958
|   |   |   |   |   |   |   |   |   Ch161 <= 11.31
|   |   |   |   |   |   |   |   |   |   bmfb <= 1.97
|   |   |   |   |   |   |   |   |   |   |   Ch121 <= 8.93
|   |   |   |   |   |   |   |   |   |   |   |   Ch12 <= 4.2
|   |   |   |   |   |   |   |   |   |   |   |   |   Ch11 <= 5.3: non (2.0)
|   |   |   |   |   |   |   |   |   |   |   |   |   Ch11 > 5.3: dup (3.0)
|   |   |   |   |   |   |   |   |   |   |   |   Ch12 > 4.2: dup (44.0)
|   |   |   |   |   |   |   |   |   |   |   Ch121 > 8.93
|   |   |   |   |   |   |   |   |   |   |   |   Ch41 <= 14.15: non (3.0)
|   |   |   |   |   |   |   |   |   |   |   |   Ch41 > 14.15: dup (2.0)
|   |   |   |   |   |   |   |   |   |   bmfb > 1.97: non (4.0/1.0)
|   |   |   |   |   |   |   |   |   Ch161 > 11.31
|   |   |   |   |   |   |   |   |   |   Ch111 <= 13.25: non (5.0)
|   |   |   |   |   |   |   |   |   |   Ch111 > 13.25: dup (2.0)
|   |   |   |   |   |   Ch132 > 7.81
|   |   |   |   |   |   |   prior <= 0.5: non (2.0)
|   |   |   |   |   |   |   prior > 0.5
|   |   |   |   |   |   |   |   Ch72 <= 14.37
|   |   |   |   |   |   |   |   |   Ch12 <= 7.49
|   |   |   |   |   |   |   |   |   |   Ch11 <= 7.85: dup (4.0)
|   |   |   |   |   |   |   |   |   |   Ch11 > 7.85: non (2.0)
|   |   |   |   |   |   |   |   |   Ch12 > 7.49: non (24.0/2.0)
|   |   |   |   |   |   |   |   Ch72 > 14.37: dup (5.0/1.0)
|   |   |   |   |   type > 0
|   |   |   |   |   |   Ch42 <= 4.57
|   |   |   |   |   |   |   Ch142 <= 1.69
|   |   |   |   |   |   |   |   prior <= 0.5: dup (3.0/1.0)
|   |   |   |   |   |   |   |   prior > 0.5
|   |   |   |   |   |   |   |   |   Ch151 <= 0.94: non (13.0)
|   |   |   |   |   |   |   |   |   Ch151 > 0.94
|   |   |   |   |   |   |   |   |   |   Ch132 <= 1
|   |   |   |   |   |   |   |   |   |   |   Ch52 <= 1.77: non (2.0)
|   |   |   |   |   |   |   |   |   |   |   Ch52 > 1.77: dup (12.0)
|   |   |   |   |   |   |   |   |   |   Ch132 > 1
|   |   |   |   |   |   |   |   |   |   |   Ch161 <= 4.89
|   |   |   |   |   |   |   |   |   |   |   |   Ch21 <= 1.89: non (5.0)
|   |   |   |   |   |   |   |   |   |   |   |   Ch21 > 1.89: dup (3.0)
|   |   |   |   |   |   |   |   |   |   |   Ch161 > 4.89: non (11.0/1.0)
|   |   |   |   |   |   |   Ch142 > 1.69: non (25.0)
|   |   |   |   |   |   Ch42 > 4.57
|   |   |   |   |   |   |   prior <= 0.5
|   |   |   |   |   |   |   |   Ch72 <= 4.92: dup (5.0)
|   |   |   |   |   |   |   |   Ch72 > 4.92: non (13.0/1.0)
|   |   |   |   |   |   |   prior > 0.5
|   |   |   |   |   |   |   |   Ch111 <= 2.37
|   |   |   |   |   |   |   |   |   bmfb <= 0.42
|   |   |   |   |   |   |   |   |   |   cosine_similarity <= 0.937: non (16.0)
|   |   |   |   |   |   |   |   |   |   cosine_similarity > 0.937: dup (3.0/1.0)
|   |   |   |   |   |   |   |   |   bmfb > 0.42: dup (2.0)
|   |   |   |   |   |   |   |   Ch111 > 2.37
|   |   |   |   |   |   |   |   |   Ch122 <= 6.57
|   |   |   |   |   |   |   |   |   |   Ch141 <= 6.97
|   |   |   |   |   |   |   |   |   |   |   Ch112 <= 4.88
|   |   |   |   |   |   |   |   |   |   |   |   Ch121 <= 2.62: non (4.0)
|   |   |   |   |   |   |   |   |   |   |   |   Ch121 > 2.62
|   |   |   |   |   |   |   |   |   |   |   |   |   Ch11 <= 6.78: dup (44.0/1.0)
|   |   |   |   |   |   |   |   |   |   |   |   |   Ch11 > 6.78
|   |   |   |   |   |   |   |   |   |   |   |   |   |   Ch51 <= 16.32: non (5.0/1.0)
|   |   |   |   |   |   |   |   |   |   |   |   |   |   Ch51 > 16.32: dup (6.0)
|   |   |   |   |   |   |   |   |   |   |   Ch112 > 4.88
|   |   |   |   |   |   |   |   |   |   |   |   Ch151 <= 4.65
|   |   |   |   |   |   |   |   |   |   |   |   |   Ch172 <= 6.75
|   |   |   |   |   |   |   |   |   |   |   |   |   |   Ch152 <= 4.56
|   |   |   |   |   |   |   |   |   |   |   |   |   |   |   Ch21 <= 5.67
|   |   |   |   |   |   |   |   |   |   |   |   |   |   |   |   Ch91 <= 6.98
|   |   |   |   |   |   |   |   |   |   |   |   |   |   |   |   |   Ch71 <= 4.73
|   |   |   |   |   |   |   |   |   |   |   |   |   |   |   |   |   |   Ch142 <= 4.19: dup (9.0)
|   |   |   |   |   |   |   |   |   |   |   |   |   |   |   |   |   |   Ch142 > 4.19: non (7.0/1.0)
|   |   |   |   |   |   |   |   |   |   |   |   |   |   |   |   |   Ch71 > 4.73: non (9.0)
|   |   |   |   |   |   |   |   |   |   |   |   |   |   |   |   Ch91 > 6.98
|   |   |   |   |   |   |   |   |   |   |   |   |   |   |   |   |   Ch172 <= 1.72: non (2.0)
|   |   |   |   |   |   |   |   |   |   |   |   |   |   |   |   |   Ch172 > 1.72: dup (14.0)
|   |   |   |   |   |   |   |   |   |   |   |   |   |   |   Ch21 > 5.67: non (6.0)
|   |   |   |   |   |   |   |   |   |   |   |   |   |   Ch152 > 4.56: non (8.0)
|   |   |   |   |   |   |   |   |   |   |   |   |   Ch172 > 6.75: dup (7.0)
|   |   |   |   |   |   |   |   |   |   |   |   Ch151 > 4.65
|   |   |   |   |   |   |   |   |   |   |   |   |   Ch62 <= 4.29: dup (19.0)
|   |   |   |   |   |   |   |   |   |   |   |   |   Ch62 > 4.29
|   |   |   |   |   |   |   |   |   |   |   |   |   |   bmfb <= 0.08: dup (3.0)
|   |   |   |   |   |   |   |   |   |   |   |   |   |   bmfb > 0.08: non (2.0)
|   |   |   |   |   |   |   |   |   |   Ch141 > 6.97
|   |   |   |   |   |   |   |   |   |   |   Ch151 <= 7.38: non (12.0)
|   |   |   |   |   |   |   |   |   |   |   Ch151 > 7.38: dup (4.0/1.0)
|   |   |   |   |   |   |   |   |   Ch122 > 6.57
|   |   |   |   |   |   |   |   |   |   Ch42 <= 15.32
|   |   |   |   |   |   |   |   |   |   |   cosine_similarity <= 0.951
|   |   |   |   |   |   |   |   |   |   |   |   Ch82 <= 4.16
|   |   |   |   |   |   |   |   |   |   |   |   |   bmfu <= 2.64: dup (3.0)
|   |   |   |   |   |   |   |   |   |   |   |   |   bmfu > 2.64: non (2.0)
|   |   |   |   |   |   |   |   |   |   |   |   Ch82 > 4.16
|   |   |   |   |   |   |   |   |   |   |   |   |   Ch22 <= 2.58
|   |   |   |   |   |   |   |   |   |   |   |   |   |   Ch141 <= 3.87: non (6.0)
|   |   |   |   |   |   |   |   |   |   |   |   |   |   Ch141 > 3.87: dup (2.0)
|   |   |   |   |   |   |   |   |   |   |   |   |   Ch22 > 2.58: non (28.0)
|   |   |   |   |   |   |   |   |   |   |   cosine_similarity > 0.951
|   |   |   |   |   |   |   |   |   |   |   |   Ch132 <= 4.11: dup (7.0)
|   |   |   |   |   |   |   |   |   |   |   |   Ch132 > 4.11
|   |   |   |   |   |   |   |   |   |   |   |   |   Ch31 <= 5.19: dup (8.0/1.0)
|   |   |   |   |   |   |   |   |   |   |   |   |   Ch31 > 5.19
|   |   |   |   |   |   |   |   |   |   |   |   |   |   Ch101 <= 7.2: non (13.0)
|   |   |   |   |   |   |   |   |   |   |   |   |   |   Ch101 > 7.2
|   |   |   |   |   |   |   |   |   |   |   |   |   |   |   Ch101 <= 8.22: dup (4.0)
|   |   |   |   |   |   |   |   |   |   |   |   |   |   |   Ch101 > 8.22
|   |   |   |   |   |   |   |   |   |   |   |   |   |   |   |   bmfu <= 2.79: non (11.0)
|   |   |   |   |   |   |   |   |   |   |   |   |   |   |   |   bmfu > 2.79: dup (5.0/1.0)
|   |   |   |   |   |   |   |   |   |   Ch42 > 15.32
|   |   |   |   |   |   |   |   |   |   |   Ch72 <= 9.1: dup (16.0)
|   |   |   |   |   |   |   |   |   |   |   Ch72 > 9.1
|   |   |   |   |   |   |   |   |   |   |   |   bmfu <= 2.75
|   |   |   |   |   |   |   |   |   |   |   |   |   Ch182 <= 10.02: dup (4.0)
|   |   |   |   |   |   |   |   |   |   |   |   |   Ch182 > 10.02
|   |   |   |   |   |   |   |   |   |   |   |   |   |   Ch62 <= 13.12: non (17.0/3.0)
|   |   |   |   |   |   |   |   |   |   |   |   |   |   Ch62 > 13.12: dup (2.0)
|   |   |   |   |   |   |   |   |   |   |   |   bmfu > 2.75: dup (13.0/1.0)
|   |   |   |   Ch91 > 15.75
|   |   |   |   |   Ch71 <= 9.77: dup (2.0)
|   |   |   |   |   Ch71 > 9.77: non (30.0/2.0)
bmfu > 3.36
|   prod <= 0
|   |   cosine_similarity <= 0.999
|   |   |   bmfb <= 20.29
|   |   |   |   bmfu <= 5.03
|   |   |   |   |   Ch62 <= 0.87
|   |   |   |   |   |   Ch11 <= 2.88: non (4.0)
|   |   |   |   |   |   Ch11 > 2.88
|   |   |   |   |   |   |   Ch82 <= 1.69: non (3.0/1.0)
|   |   |   |   |   |   |   Ch82 > 1.69: dup (18.0)
|   |   |   |   |   Ch62 > 0.87
|   |   |   |   |   |   Ch62 <= 9.37
|   |   |   |   |   |   |   Ch122 <= 12.38
|   |   |   |   |   |   |   |   bmfu <= 4.24
|   |   |   |   |   |   |   |   |   prior <= 0.33: non (25.0)
|   |   |   |   |   |   |   |   |   prior > 0.33
|   |   |   |   |   |   |   |   |   |   type <= 0
|   |   |   |   |   |   |   |   |   |   |   Ch121 <= 4.69
|   |   |   |   |   |   |   |   |   |   |   |   Ch152 <= 6.99
|   |   |   |   |   |   |   |   |   |   |   |   |   Ch12 <= 4.75: non (4.0)
|   |   |   |   |   |   |   |   |   |   |   |   |   Ch12 > 4.75
|   |   |   |   |   |   |   |   |   |   |   |   |   |   Ch31 <= 7.77: dup (11.0)
|   |   |   |   |   |   |   |   |   |   |   |   |   |   Ch31 > 7.77: non (3.0/1.0)
|   |   |   |   |   |   |   |   |   |   |   |   Ch152 > 6.99: non (7.0)
|   |   |   |   |   |   |   |   |   |   |   Ch121 > 4.69
|   |   |   |   |   |   |   |   |   |   |   |   Ch62 <= 4.93
|   |   |   |   |   |   |   |   |   |   |   |   |   Ch112 <= 5.29: non (22.0)
|   |   |   |   |   |   |   |   |   |   |   |   |   Ch112 > 5.29
|   |   |   |   |   |   |   |   |   |   |   |   |   |   Ch141 <= 4.08
|   |   |   |   |   |   |   |   |   |   |   |   |   |   |   Ch51 <= 13.57: dup (7.0)
|   |   |   |   |   |   |   |   |   |   |   |   |   |   |   Ch51 > 13.57: non (4.0)
|   |   |   |   |   |   |   |   |   |   |   |   |   |   Ch141 > 4.08
|   |   |   |   |   |   |   |   |   |   |   |   |   |   |   prior <= 0.5: non (8.0/1.0)
|   |   |   |   |   |   |   |   |   |   |   |   |   |   |   prior > 0.5
|   |   |   |   |   |   |   |   |   |   |   |   |   |   |   |   Ch132 <= 4.64: non (18.0)
|   |   |   |   |   |   |   |   |   |   |   |   |   |   |   |   Ch132 > 4.64
|   |   |   |   |   |   |   |   |   |   |   |   |   |   |   |   |   Ch162 <= 5.91: dup (3.0)
|   |   |   |   |   |   |   |   |   |   |   |   |   |   |   |   |   Ch162 > 5.91
|   |   |   |   |   |   |   |   |   |   |   |   |   |   |   |   |   |   Ch31 <= 7.59: dup (2.0)
|   |   |   |   |   |   |   |   |   |   |   |   |   |   |   |   |   |   Ch31 > 7.59: non (19.0/1.0)
|   |   |   |   |   |   |   |   |   |   |   |   Ch62 > 4.93: non (40.0)
|   |   |   |   |   |   |   |   |   |   type > 0
|   |   |   |   |   |   |   |   |   |   |   cosine_similarity <= 0.986
|   |   |   |   |   |   |   |   |   |   |   |   Ch122 <= 5.46
|   |   |   |   |   |   |   |   |   |   |   |   |   Ch112 <= 8.9
|   |   |   |   |   |   |   |   |   |   |   |   |   |   Ch101 <= 4.43: dup (3.0/1.0)
|   |   |   |   |   |   |   |   |   |   |   |   |   |   Ch101 > 4.43: non (42.0/1.0)
|   |   |   |   |   |   |   |   |   |   |   |   |   Ch112 > 8.9: dup (3.0)
|   |   |   |   |   |   |   |   |   |   |   |   Ch122 > 5.46: non (118.0)
|   |   |   |   |   |   |   |   |   |   |   cosine_similarity > 0.986
|   |   |   |   |   |   |   |   |   |   |   |   Ch61 <= 4.06: dup (4.0)
|   |   |   |   |   |   |   |   |   |   |   |   Ch61 > 4.06: non (6.0)
|   |   |   |   |   |   |   |   bmfu > 4.24
|   |   |   |   |   |   |   |   |   Ch22 <= 2.25
|   |   |   |   |   |   |   |   |   |   Ch62 <= 1.83: non (4.0)
|   |   |   |   |   |   |   |   |   |   Ch62 > 1.83
|   |   |   |   |   |   |   |   |   |   |   Ch122 <= 7.72: dup (12.0)
|   |   |   |   |   |   |   |   |   |   |   Ch122 > 7.72: non (2.0)
|   |   |   |   |   |   |   |   |   Ch22 > 2.25
|   |   |   |   |   |   |   |   |   |   cosine_similarity <= 0.926
|   |   |   |   |   |   |   |   |   |   |   Ch22 <= 3.04: non (6.0)
|   |   |   |   |   |   |   |   |   |   |   Ch22 > 3.04: dup (9.0)
|   |   |   |   |   |   |   |   |   |   cosine_similarity > 0.926
|   |   |   |   |   |   |   |   |   |   |   Ch171 <= 9.52
|   |   |   |   |   |   |   |   |   |   |   |   prior <= 0.33
|   |   |   |   |   |   |   |   |   |   |   |   |   bmfu <= 4.56: dup (3.0)
|   |   |   |   |   |   |   |   |   |   |   |   |   bmfu > 4.56: non (7.0)
|   |   |   |   |   |   |   |   |   |   |   |   prior > 0.33
|   |   |   |   |   |   |   |   |   |   |   |   |   type <= 0
|   |   |   |   |   |   |   |   |   |   |   |   |   |   Ch142 <= 7.74
|   |   |   |   |   |   |   |   |   |   |   |   |   |   |   Ch62 <= 2.13
|   |   |   |   |   |   |   |   |   |   |   |   |   |   |   |   Ch172 <= 6.07: non (3.0)
|   |   |   |   |   |   |   |   |   |   |   |   |   |   |   |   Ch172 > 6.07: dup (3.0)
|   |   |   |   |   |   |   |   |   |   |   |   |   |   |   Ch62 > 2.13: non (41.0)
|   |   |   |   |   |   |   |   |   |   |   |   |   |   Ch142 > 7.74: dup (4.0/1.0)
|   |   |   |   |   |   |   |   |   |   |   |   |   type > 0: non (61.0/2.0)
|   |   |   |   |   |   |   |   |   |   |   Ch171 > 9.52
|   |   |   |   |   |   |   |   |   |   |   |   comp <= 0
|   |   |   |   |   |   |   |   |   |   |   |   |   Ch51 <= 15.53
|   |   |   |   |   |   |   |   |   |   |   |   |   |   Ch41 <= 14.61: non (4.0/1.0)
|   |   |   |   |   |   |   |   |   |   |   |   |   |   Ch41 > 14.61: dup (10.0)
|   |   |   |   |   |   |   |   |   |   |   |   |   Ch51 > 15.53
|   |   |   |   |   |   |   |   |   |   |   |   |   |   Ch121 <= 6.78: dup (3.0)
|   |   |   |   |   |   |   |   |   |   |   |   |   |   Ch121 > 6.78
|   |   |   |   |   |   |   |   |   |   |   |   |   |   |   bmfb <= 2.7: non (40.0)
|   |   |   |   |   |   |   |   |   |   |   |   |   |   |   bmfb > 2.7: dup (3.0/1.0)
|   |   |   |   |   |   |   |   |   |   |   |   comp > 0: dup (5.0)
|   |   |   |   |   |   |   Ch122 > 12.38: non (78.0)
|   |   |   |   |   |   Ch62 > 9.37
|   |   |   |   |   |   |   Ch42 <= 16.1: dup (16.0)
|   |   |   |   |   |   |   Ch42 > 16.1
|   |   |   |   |   |   |   |   comp <= 0
|   |   |   |   |   |   |   |   |   bmfu <= 4.47: non (28.0/2.0)
|   |   |   |   |   |   |   |   |   bmfu > 4.47
|   |   |   |   |   |   |   |   |   |   Ch12 <= 16.39: dup (4.0)
|   |   |   |   |   |   |   |   |   |   Ch12 > 16.39: non (2.0)
|   |   |   |   |   |   |   |   comp > 0: dup (2.0)
|   |   |   |   bmfu > 5.03
|   |   |   |   |   Ch192 <= 15.07
|   |   |   |   |   |   Ch31 <= 12.48
|   |   |   |   |   |   |   Ch191 <= 9.16
|   |   |   |   |   |   |   |   Ch111 <= 4.33
|   |   |   |   |   |   |   |   |   Ch31 <= 1.71: dup (5.0)
|   |   |   |   |   |   |   |   |   Ch31 > 1.71
|   |   |   |   |   |   |   |   |   |   Ch152 <= 1.6: non (27.0)
|   |   |   |   |   |   |   |   |   |   Ch152 > 1.6
|   |   |   |   |   |   |   |   |   |   |   Ch41 <= 7.87
|   |   |   |   |   |   |   |   |   |   |   |   Ch191 <= 3.16: dup (7.0/1.0)
|   |   |   |   |   |   |   |   |   |   |   |   Ch191 > 3.16
|   |   |   |   |   |   |   |   |   |   |   |   |   Ch172 <= 6.55: non (10.0)
|   |   |   |   |   |   |   |   |   |   |   |   |   Ch172 > 6.55: dup (3.0)
|   |   |   |   |   |   |   |   |   |   |   Ch41 > 7.87: non (11.0)
|   |   |   |   |   |   |   |   Ch111 > 4.33
|   |   |   |   |   |   |   |   |   Ch122 <= 12.98
|   |   |   |   |   |   |   |   |   |   Ch91 <= 13.5
|   |   |   |   |   |   |   |   |   |   |   Ch122 <= 10.13
|   |   |   |   |   |   |   |   |   |   |   |   cosine_similarity <= 0.982
|   |   |   |   |   |   |   |   |   |   |   |   |   Ch101 <= 3.99: dup (16.0)
|   |   |   |   |   |   |   |   |   |   |   |   |   Ch101 > 3.99
|   |   |   |   |   |   |   |   |   |   |   |   |   |   Ch171 <= 10.76
|   |   |   |   |   |   |   |   |   |   |   |   |   |   |   Ch32 <= 6.31
|   |   |   |   |   |   |   |   |   |   |   |   |   |   |   |   Ch111 <= 9.83
|   |   |   |   |   |   |   |   |   |   |   |   |   |   |   |   |   Ch152 <= 4.85
|   |   |   |   |   |   |   |   |   |   |   |   |   |   |   |   |   |   Ch22 <= 1.28: non (6.0/1.0)
|   |   |   |   |   |   |   |   |   |   |   |   |   |   |   |   |   |   Ch22 > 1.28
|   |   |   |   |   |   |   |   |   |   |   |   |   |   |   |   |   |   |   Ch161 <= 10
|   |   |   |   |   |   |   |   |   |   |   |   |   |   |   |   |   |   |   |   bmfu <= 6.01
|   |   |   |   |   |   |   |   |   |   |   |   |   |   |   |   |   |   |   |   |   bmfu <= 5.67: dup (6.0/1.0)
|   |   |   |   |   |   |   |   |   |   |   |   |   |   |   |   |   |   |   |   |   bmfu > 5.67: non (3.0)
|   |   |   |   |   |   |   |   |   |   |   |   |   |   |   |   |   |   |   |   bmfu > 6.01: dup (39.0/1.0)
|   |   |   |   |   |   |   |   |   |   |   |   |   |   |   |   |   |   |   Ch161 > 10: non (3.0)
|   |   |   |   |   |   |   |   |   |   |   |   |   |   |   |   |   Ch152 > 4.85: non (5.0)
|   |   |   |   |   |   |   |   |   |   |   |   |   |   |   |   Ch111 > 9.83: dup (22.0)
|   |   |   |   |   |   |   |   |   |   |   |   |   |   |   Ch32 > 6.31
|   |   |   |   |   |   |   |   |   |   |   |   |   |   |   |   Ch52 <= 9.58: dup (10.0)
|   |   |   |   |   |   |   |   |   |   |   |   |   |   |   |   Ch52 > 9.58
|   |   |   |   |   |   |   |   |   |   |   |   |   |   |   |   |   bmfu <= 13.86
|   |   |   |   |   |   |   |   |   |   |   |   |   |   |   |   |   |   Ch162 <= 9.79
|   |   |   |   |   |   |   |   |   |   |   |   |   |   |   |   |   |   |   Ch192 <= 8.87
|   |   |   |   |   |   |   |   |   |   |   |   |   |   |   |   |   |   |   |   Ch12 <= 9.14
|   |   |   |   |   |   |   |   |   |   |   |   |   |   |   |   |   |   |   |   |   Ch181 <= 14.25
|   |   |   |   |   |   |   |   |   |   |   |   |   |   |   |   |   |   |   |   |   |   Ch161 <= 8.8
|   |   |   |   |   |   |   |   |   |   |   |   |   |   |   |   |   |   |   |   |   |   |   prior <= 0.5
|   |   |   |   |   |   |   |   |   |   |   |   |   |   |   |   |   |   |   |   |   |   |   |   bmfu <= 5.7: dup (2.0)
|   |   |   |   |   |   |   |   |   |   |   |   |   |   |   |   |   |   |   |   |   |   |   |   bmfu > 5.7: non (8.0)
|   |   |   |   |   |   |   |   |   |   |   |   |   |   |   |   |   |   |   |   |   |   |   prior > 0.5
|   |   |   |   |   |   |   |   |   |   |   |   |   |   |   |   |   |   |   |   |   |   |   |   Ch92 <= 8.96
|   |   |   |   |   |   |   |   |   |   |   |   |   |   |   |   |   |   |   |   |   |   |   |   |   Ch71 <= 3.01: non (6.0)
|   |   |   |   |   |   |   |   |   |   |   |   |   |   |   |   |   |   |   |   |   |   |   |   |   Ch71 > 3.01
|   |   |   |   |   |   |   |   |   |   |   |   |   |   |   |   |   |   |   |   |   |   |   |   |   |   Ch182 <= 6.6: non (3.0)
|   |   |   |   |   |   |   |   |   |   |   |   |   |   |   |   |   |   |   |   |   |   |   |   |   |   Ch182 > 6.6
|   |   |   |   |   |   |   |   |   |   |   |   |   |   |   |   |   |   |   |   |   |   |   |   |   |   |   Ch71 <= 8.37: dup (20.0)
|   |   |   |   |   |   |   |   |   |   |   |   |   |   |   |   |   |   |   |   |   |   |   |   |   |   |   Ch71 > 8.37: non (3.0/1.0)
|   |   |   |   |   |   |   |   |   |   |   |   |   |   |   |   |   |   |   |   |   |   |   |   Ch92 > 8.96
|   |   |   |   |   |   |   |   |   |   |   |   |   |   |   |   |   |   |   |   |   |   |   |   |   Ch12 <= 6.33
|   |   |   |   |   |   |   |   |   |   |   |   |   |   |   |   |   |   |   |   |   |   |   |   |   |   Ch62 <= 3.64: non (3.0)
|   |   |   |   |   |   |   |   |   |   |   |   |   |   |   |   |   |   |   |   |   |   |   |   |   |   Ch62 > 3.64: dup (4.0)
|   |   |   |   |   |   |   |   |   |   |   |   |   |   |   |   |   |   |   |   |   |   |   |   |   Ch12 > 6.33: non (17.0)
|   |   |   |   |   |   |   |   |   |   |   |   |   |   |   |   |   |   |   |   |   |   Ch161 > 8.8: non (15.0)
|   |   |   |   |   |   |   |   |   |   |   |   |   |   |   |   |   |   |   |   |   Ch181 > 14.25: dup (7.0)
|   |   |   |   |   |   |   |   |   |   |   |   |   |   |   |   |   |   |   |   Ch12 > 9.14: dup (11.0)
|   |   |   |   |   |   |   |   |   |   |   |   |   |   |   |   |   |   |   Ch192 > 8.87: non (13.0)
|   |   |   |   |   |   |   |   |   |   |   |   |   |   |   |   |   |   Ch162 > 9.79
|   |   |   |   |   |   |   |   |   |   |   |   |   |   |   |   |   |   |   Ch192 <= 11.72
|   |   |   |   |   |   |   |   |   |   |   |   |   |   |   |   |   |   |   |   Ch92 <= 9.27: non (4.0/1.0)
|   |   |   |   |   |   |   |   |   |   |   |   |   |   |   |   |   |   |   |   Ch92 > 9.27: dup (25.0)
|   |   |   |   |   |   |   |   |   |   |   |   |   |   |   |   |   |   |   Ch192 > 11.72: non (4.0)
|   |   |   |   |   |   |   |   |   |   |   |   |   |   |   |   |   bmfu > 13.86: non (14.0)
|   |   |   |   |   |   |   |   |   |   |   |   |   |   Ch171 > 10.76: dup (22.0/1.0)
|   |   |   |   |   |   |   |   |   |   |   |   cosine_similarity > 0.982
|   |   |   |   |   |   |   |   |   |   |   |   |   Ch191 <= 8.39
|   |   |   |   |   |   |   |   |   |   |   |   |   |   Ch71 <= 6.31
|   |   |   |   |   |   |   |   |   |   |   |   |   |   |   Ch161 <= 5.64: non (6.0)
|   |   |   |   |   |   |   |   |   |   |   |   |   |   |   Ch161 > 5.64: dup (7.0/1.0)
|   |   |   |   |   |   |   |   |   |   |   |   |   |   Ch71 > 6.31
|   |   |   |   |   |   |   |   |   |   |   |   |   |   |   Ch41 <= 16.45: non (33.0)
|   |   |   |   |   |   |   |   |   |   |   |   |   |   |   Ch41 > 16.45: dup (2.0)
|   |   |   |   |   |   |   |   |   |   |   |   |   Ch191 > 8.39: dup (5.0)
|   |   |   |   |   |   |   |   |   |   |   Ch122 > 10.13
|   |   |   |   |   |   |   |   |   |   |   |   Ch42 <= 19.16: dup (46.0)
|   |   |   |   |   |   |   |   |   |   |   |   Ch42 > 19.16
|   |   |   |   |   |   |   |   |   |   |   |   |   Ch162 <= 13.1: dup (8.0/1.0)
|   |   |   |   |   |   |   |   |   |   |   |   |   Ch162 > 13.1: non (6.0)
|   |   |   |   |   |   |   |   |   |   Ch91 > 13.5
|   |   |   |   |   |   |   |   |   |   |   Ch152 <= 7.47: non (19.0/1.0)
|   |   |   |   |   |   |   |   |   |   |   Ch152 > 7.47: dup (4.0)
|   |   |   |   |   |   |   |   |   Ch122 > 12.98
|   |   |   |   |   |   |   |   |   |   Ch142 <= 4.93: dup (2.0)
|   |   |   |   |   |   |   |   |   |   Ch142 > 4.93
|   |   |   |   |   |   |   |   |   |   |   Ch81 <= 5.08
|   |   |   |   |   |   |   |   |   |   |   |   Ch81 <= 4.84: non (2.0)
|   |   |   |   |   |   |   |   |   |   |   |   Ch81 > 4.84: dup (2.0)
|   |   |   |   |   |   |   |   |   |   |   Ch81 > 5.08: non (22.0)
|   |   |   |   |   |   |   Ch191 > 9.16
|   |   |   |   |   |   |   |   Ch162 <= 12.67: dup (51.0/1.0)
|   |   |   |   |   |   |   |   Ch162 > 12.67: non (4.0/1.0)
|   |   |   |   |   |   Ch31 > 12.48
|   |   |   |   |   |   |   comp <= 0
|   |   |   |   |   |   |   |   type <= 0
|   |   |   |   |   |   |   |   |   Ch141 <= 5.16: dup (3.0/1.0)
|   |   |   |   |   |   |   |   |   Ch141 > 5.16: non (42.0/1.0)
|   |   |   |   |   |   |   |   type > 0
|   |   |   |   |   |   |   |   |   Ch171 <= 12.32
|   |   |   |   |   |   |   |   |   |   Ch131 <= 9.58
|   |   |   |   |   |   |   |   |   |   |   Ch11 <= 11.87: non (19.0)
|   |   |   |   |   |   |   |   |   |   |   Ch11 > 11.87: dup (3.0/1.0)
|   |   |   |   |   |   |   |   |   |   Ch131 > 9.58: dup (11.0)
|   |   |   |   |   |   |   |   |   Ch171 > 12.32: non (11.0/2.0)
|   |   |   |   |   |   |   comp > 0: dup (5.0)
|   |   |   |   |   Ch192 > 15.07
|   |   |   |   |   |   Ch12 <= 16.08: dup (42.0)
|   |   |   |   |   |   Ch12 > 16.08: non (5.0/1.0)
|   |   |   bmfb > 20.29
|   |   |   |   Ch171 <= 3.1
|   |   |   |   |   Ch122 <= 4.4: dup (7.0)
|   |   |   |   |   Ch122 > 4.4
|   |   |   |   |   |   Ch182 <= 7.3: non (11.0)
|   |   |   |   |   |   Ch182 > 7.3: dup (3.0)
|   |   |   |   Ch171 > 3.1
|   |   |   |   |   bmfu <= 19.75
|   |   |   |   |   |   Ch102 <= 5.63: dup (10.0)
|   |   |   |   |   |   Ch102 > 5.63
|   |   |   |   |   |   |   Ch22 <= 4.84
|   |   |   |   |   |   |   |   Ch32 <= 5.85: dup (2.0)
|   |   |   |   |   |   |   |   Ch32 > 5.85: non (9.0)
|   |   |   |   |   |   |   Ch22 > 4.84: dup (6.0)
|   |   |   |   |   bmfu > 19.75
|   |   |   |   |   |   bmfb <= 60.95: dup (184.0/5.0)
|   |   |   |   |   |   bmfb > 60.95
|   |   |   |   |   |   |   type <= 0: non (3.0)
|   |   |   |   |   |   |   type > 0: dup (7.0/1.0)
|   |   cosine_similarity > 0.999
|   |   |   Ch151 <= 4.72: non (302.0)
|   |   |   Ch151 > 4.72
|   |   |   |   Ch11 <= 7.17: non (11.0)
|   |   |   |   Ch11 > 7.17: dup (12.0/1.0)
|   prod > 0
|   |   Ch112 <= 1.77
|   |   |   type <= 0
|   |   |   |   comp <= 0: non (3.0)
|   |   |   |   comp > 0
|   |   |   |   |   Ch182 <= 4.57: dup (15.0)
|   |   |   |   |   Ch182 > 4.57: non (2.0)
|   |   |   type > 0
|   |   |   |   Ch91 <= 6.15
|   |   |   |   |   bmfb <= 25.99
|   |   |   |   |   |   Ch121 <= 3.6
|   |   |   |   |   |   |   Ch122 <= 2.62
|   |   |   |   |   |   |   |   Ch81 <= 2.89: non (53.0)
|   |   |   |   |   |   |   |   Ch81 > 2.89
|   |   |   |   |   |   |   |   |   Ch152 <= 0.06: dup (7.0)
|   |   |   |   |   |   |   |   |   Ch152 > 0.06: non (7.0)
|   |   |   |   |   |   |   Ch122 > 2.62
|   |   |   |   |   |   |   |   Ch141 <= 2.69: dup (6.0)
|   |   |   |   |   |   |   |   Ch141 > 2.69: non (3.0)
|   |   |   |   |   |   Ch121 > 3.6: non (43.0)
|   |   |   |   |   bmfb > 25.99
|   |   |   |   |   |   Ch101 <= 2.79: dup (10.0/1.0)
|   |   |   |   |   |   Ch101 > 2.79: non (5.0)
|   |   |   |   Ch91 > 6.15
|   |   |   |   |   Ch121 <= 4.88
|   |   |   |   |   |   Ch162 <= 2.98: non (10.0)
|   |   |   |   |   |   Ch162 > 2.98: dup (3.0)
|   |   |   |   |   Ch121 > 4.88: dup (14.0/1.0)
|   |   Ch112 > 1.77
|   |   |   cosine_similarity <= 0.971
|   |   |   |   type <= 0
|   |   |   |   |   Ch82 <= 13
|   |   |   |   |   |   prior <= 0.33
|   |   |   |   |   |   |   Ch82 <= 3.15
|   |   |   |   |   |   |   |   Ch11 <= 6.24: dup (3.0)
|   |   |   |   |   |   |   |   Ch11 > 6.24: non (2.0)
|   |   |   |   |   |   |   Ch82 > 3.15: dup (34.0)
|   |   |   |   |   |   prior > 0.33
|   |   |   |   |   |   |   Ch121 <= 7.78
|   |   |   |   |   |   |   |   Ch111 <= 4.28
|   |   |   |   |   |   |   |   |   Ch51 <= 10.86
|   |   |   |   |   |   |   |   |   |   Ch151 <= 1.49
|   |   |   |   |   |   |   |   |   |   |   Ch112 <= 11.72
|   |   |   |   |   |   |   |   |   |   |   |   Ch52 <= 6.54
|   |   |   |   |   |   |   |   |   |   |   |   |   Ch32 <= 3.11: dup (6.0)
|   |   |   |   |   |   |   |   |   |   |   |   |   Ch32 > 3.11: non (3.0)
|   |   |   |   |   |   |   |   |   |   |   |   Ch52 > 6.54: dup (41.0)
|   |   |   |   |   |   |   |   |   |   |   Ch112 > 11.72: non (3.0)
|   |   |   |   |   |   |   |   |   |   Ch151 > 1.49
|   |   |   |   |   |   |   |   |   |   |   Ch151 <= 2.23
|   |   |   |   |   |   |   |   |   |   |   |   Ch72 <= 2.43: dup (2.0)
|   |   |   |   |   |   |   |   |   |   |   |   Ch72 > 2.43: non (12.0)
|   |   |   |   |   |   |   |   |   |   |   Ch151 > 2.23
|   |   |   |   |   |   |   |   |   |   |   |   Ch141 <= 1.6
|   |   |   |   |   |   |   |   |   |   |   |   |   Ch52 <= 13.86: dup (5.0)
|   |   |   |   |   |   |   |   |   |   |   |   |   Ch52 > 13.86: non (8.0)
|   |   |   |   |   |   |   |   |   |   |   |   Ch141 > 1.6: dup (21.0/1.0)
|   |   |   |   |   |   |   |   |   Ch51 > 10.86: non (7.0)
|   |   |   |   |   |   |   |   Ch111 > 4.28
|   |   |   |   |   |   |   |   |   Ch52 <= 6.76
|   |   |   |   |   |   |   |   |   |   Ch42 <= 6.18: dup (26.0/1.0)
|   |   |   |   |   |   |   |   |   |   Ch42 > 6.18
|   |   |   |   |   |   |   |   |   |   |   Ch22 <= 1.68
|   |   |   |   |   |   |   |   |   |   |   |   Ch11 <= 4.02: dup (2.0)
|   |   |   |   |   |   |   |   |   |   |   |   Ch11 > 4.02: non (2.0)
|   |   |   |   |   |   |   |   |   |   |   Ch22 > 1.68: non (11.0)
|   |   |   |   |   |   |   |   |   Ch52 > 6.76
|   |   |   |   |   |   |   |   |   |   prior <= 0.5
|   |   |   |   |   |   |   |   |   |   |   Ch21 <= 6.74: dup (20.0/1.0)
|   |   |   |   |   |   |   |   |   |   |   Ch21 > 6.74: non (4.0)
|   |   |   |   |   |   |   |   |   |   prior > 0.5
|   |   |   |   |   |   |   |   |   |   |   comp <= 0
|   |   |   |   |   |   |   |   |   |   |   |   Ch122 <= 10.63
|   |   |   |   |   |   |   |   |   |   |   |   |   Ch11 <= 3.42
|   |   |   |   |   |   |   |   |   |   |   |   |   |   Ch101 <= 7.97: dup (6.0)
|   |   |   |   |   |   |   |   |   |   |   |   |   |   Ch101 > 7.97: non (3.0)
|   |   |   |   |   |   |   |   |   |   |   |   |   Ch11 > 3.42: dup (96.0/2.0)
|   |   |   |   |   |   |   |   |   |   |   |   Ch122 > 10.63: non (7.0/1.0)
|   |   |   |   |   |   |   |   |   |   |   comp > 0
|   |   |   |   |   |   |   |   |   |   |   |   Ch151 <= 6.26
|   |   |   |   |   |   |   |   |   |   |   |   |   Ch51 <= 7.91
|   |   |   |   |   |   |   |   |   |   |   |   |   |   bmfb <= 2.88: dup (23.0/1.0)
|   |   |   |   |   |   |   |   |   |   |   |   |   |   bmfb > 2.88
|   |   |   |   |   |   |   |   |   |   |   |   |   |   |   Ch81 <= 5.03: non (5.0)
|   |   |   |   |   |   |   |   |   |   |   |   |   |   |   Ch81 > 5.03: dup (4.0)
|   |   |   |   |   |   |   |   |   |   |   |   |   Ch51 > 7.91: dup (166.0/3.0)
|   |   |   |   |   |   |   |   |   |   |   |   Ch151 > 6.26
|   |   |   |   |   |   |   |   |   |   |   |   |   Ch91 <= 6.94: non (4.0)
|   |   |   |   |   |   |   |   |   |   |   |   |   Ch91 > 6.94
|   |   |   |   |   |   |   |   |   |   |   |   |   |   Ch22 <= 1.37: non (3.0)
|   |   |   |   |   |   |   |   |   |   |   |   |   |   Ch22 > 1.37: dup (22.0/1.0)
|   |   |   |   |   |   |   Ch121 > 7.78
|   |   |   |   |   |   |   |   Ch51 <= 12.83
|   |   |   |   |   |   |   |   |   Ch12 <= 6.87
|   |   |   |   |   |   |   |   |   |   Ch181 <= 10.45: non (19.0)
|   |   |   |   |   |   |   |   |   |   Ch181 > 10.45: dup (3.0/1.0)
|   |   |   |   |   |   |   |   |   Ch12 > 6.87
|   |   |   |   |   |   |   |   |   |   Ch51 <= 10.42: dup (8.0)
|   |   |   |   |   |   |   |   |   |   Ch51 > 10.42
|   |   |   |   |   |   |   |   |   |   |   bmfu <= 6.84: non (3.0)
|   |   |   |   |   |   |   |   |   |   |   bmfu > 6.84: dup (2.0)
|   |   |   |   |   |   |   |   Ch51 > 12.83
|   |   |   |   |   |   |   |   |   cosine_similarity <= 0.952
|   |   |   |   |   |   |   |   |   |   prior <= 0.5: dup (3.0)
|   |   |   |   |   |   |   |   |   |   prior > 0.5
|   |   |   |   |   |   |   |   |   |   |   Ch132 <= 1.57: dup (6.0)
|   |   |   |   |   |   |   |   |   |   |   Ch132 > 1.57
|   |   |   |   |   |   |   |   |   |   |   |   Ch31 <= 7.61: dup (4.0)
|   |   |   |   |   |   |   |   |   |   |   |   Ch31 > 7.61
|   |   |   |   |   |   |   |   |   |   |   |   |   Ch141 <= 9.08: non (17.0/1.0)
|   |   |   |   |   |   |   |   |   |   |   |   |   Ch141 > 9.08: dup (2.0)
|   |   |   |   |   |   |   |   |   cosine_similarity > 0.952
|   |   |   |   |   |   |   |   |   |   Ch82 <= 7.66: dup (72.0/5.0)
|   |   |   |   |   |   |   |   |   |   Ch82 > 7.66
|   |   |   |   |   |   |   |   |   |   |   Ch121 <= 9.63: dup (11.0)
|   |   |   |   |   |   |   |   |   |   |   Ch121 > 9.63
|   |   |   |   |   |   |   |   |   |   |   |   Ch181 <= 10.93: dup (5.0)
|   |   |   |   |   |   |   |   |   |   |   |   Ch181 > 10.93
|   |   |   |   |   |   |   |   |   |   |   |   |   Ch131 <= 6.16: non (9.0)
|   |   |   |   |   |   |   |   |   |   |   |   |   Ch131 > 6.16
|   |   |   |   |   |   |   |   |   |   |   |   |   |   Ch91 <= 13.95: dup (8.0)
|   |   |   |   |   |   |   |   |   |   |   |   |   |   Ch91 > 13.95
|   |   |   |   |   |   |   |   |   |   |   |   |   |   |   Ch131 <= 10.66: non (8.0/1.0)
|   |   |   |   |   |   |   |   |   |   |   |   |   |   |   Ch131 > 10.66: dup (2.0)
|   |   |   |   |   Ch82 > 13
|   |   |   |   |   |   bmfu <= 7.21
|   |   |   |   |   |   |   Ch101 <= 9.39: non (15.0/1.0)
|   |   |   |   |   |   |   Ch101 > 9.39
|   |   |   |   |   |   |   |   Ch71 <= 6.84: dup (5.0)
|   |   |   |   |   |   |   |   Ch71 > 6.84: non (5.0)
|   |   |   |   |   |   bmfu > 7.21: dup (13.0/1.0)
|   |   |   |   type > 0
|   |   |   |   |   Ch172 <= 13.54
|   |   |   |   |   |   bmfu <= 4.35
|   |   |   |   |   |   |   cosine_similarity <= 0.863: non (12.0)
|   |   |   |   |   |   |   cosine_similarity > 0.863
|   |   |   |   |   |   |   |   bmfu <= 4.12
|   |   |   |   |   |   |   |   |   comp <= 0
|   |   |   |   |   |   |   |   |   |   Ch71 <= 8.15
|   |   |   |   |   |   |   |   |   |   |   bmfu <= 3.92
|   |   |   |   |   |   |   |   |   |   |   |   Ch102 <= 12.58: non (23.0)
|   |   |   |   |   |   |   |   |   |   |   |   Ch102 > 12.58: dup (2.0)
|   |   |   |   |   |   |   |   |   |   |   bmfu > 3.92
|   |   |   |   |   |   |   |   |   |   |   |   Ch22 <= 3.7: non (4.0/1.0)
|   |   |   |   |   |   |   |   |   |   |   |   Ch22 > 3.7: dup (4.0)
|   |   |   |   |   |   |   |   |   |   Ch71 > 8.15
|   |   |   |   |   |   |   |   |   |   |   Ch21 <= 8.32: dup (8.0)
|   |   |   |   |   |   |   |   |   |   |   Ch21 > 8.32: non (2.0)
|   |   |   |   |   |   |   |   |   comp > 0
|   |   |   |   |   |   |   |   |   |   bmfu <= 3.86
|   |   |   |   |   |   |   |   |   |   |   prior <= 0.5: non (4.0/1.0)
|   |   |   |   |   |   |   |   |   |   |   prior > 0.5
|   |   |   |   |   |   |   |   |   |   |   |   Ch121 <= 8.2
|   |   |   |   |   |   |   |   |   |   |   |   |   Ch31 <= 7.83
|   |   |   |   |   |   |   |   |   |   |   |   |   |   bmfb <= 3.49
|   |   |   |   |   |   |   |   |   |   |   |   |   |   |   cosine_similarity <= 0.906: non (7.0/1.0)
|   |   |   |   |   |   |   |   |   |   |   |   |   |   |   cosine_similarity > 0.906
|   |   |   |   |   |   |   |   |   |   |   |   |   |   |   |   Ch62 <= 5.51
|   |   |   |   |   |   |   |   |   |   |   |   |   |   |   |   |   Ch92 <= 10.85: dup (13.0)
|   |   |   |   |   |   |   |   |   |   |   |   |   |   |   |   |   Ch92 > 10.85: non (2.0)
|   |   |   |   |   |   |   |   |   |   |   |   |   |   |   |   Ch62 > 5.51: non (2.0)
|   |   |   |   |   |   |   |   |   |   |   |   |   |   bmfb > 3.49: non (6.0)
|   |   |   |   |   |   |   |   |   |   |   |   |   Ch31 > 7.83: dup (11.0)
|   |   |   |   |   |   |   |   |   |   |   |   Ch121 > 8.2: non (14.0/1.0)
|   |   |   |   |   |   |   |   |   |   bmfu > 3.86
|   |   |   |   |   |   |   |   |   |   |   Ch162 <= 7.76: dup (21.0/1.0)
|   |   |   |   |   |   |   |   |   |   |   Ch162 > 7.76
|   |   |   |   |   |   |   |   |   |   |   |   Ch91 <= 5.08: dup (5.0/1.0)
|   |   |   |   |   |   |   |   |   |   |   |   Ch91 > 5.08: non (5.0)
|   |   |   |   |   |   |   |   bmfu > 4.12
|   |   |   |   |   |   |   |   |   Ch22 <= 4.81: non (45.0/4.0)
|   |   |   |   |   |   |   |   |   Ch22 > 4.81: dup (7.0/1.0)
|   |   |   |   |   |   bmfu > 4.35
|   |   |   |   |   |   |   Ch192 <= 1.89
|   |   |   |   |   |   |   |   Ch112 <= 7.41
|   |   |   |   |   |   |   |   |   Ch92 <= 1.28: dup (8.0)
|   |   |   |   |   |   |   |   |   Ch92 > 1.28
|   |   |   |   |   |   |   |   |   |   Ch182 <= 2.32
|   |   |   |   |   |   |   |   |   |   |   Ch122 <= 0.86: non (3.0)
|   |   |   |   |   |   |   |   |   |   |   Ch122 > 0.86: dup (9.0)
|   |   |   |   |   |   |   |   |   |   Ch182 > 2.32
|   |   |   |   |   |   |   |   |   |   |   Ch142 <= 0.59: dup (6.0/1.0)
|   |   |   |   |   |   |   |   |   |   |   Ch142 > 0.59
|   |   |   |   |   |   |   |   |   |   |   |   Ch12 <= 3: non (45.0/1.0)
|   |   |   |   |   |   |   |   |   |   |   |   Ch12 > 3
|   |   |   |   |   |   |   |   |   |   |   |   |   Ch22 <= 0.95: dup (5.0)
|   |   |   |   |   |   |   |   |   |   |   |   |   Ch22 > 0.95
|   |   |   |   |   |   |   |   |   |   |   |   |   |   Ch141 <= 0.31: dup (2.0)
|   |   |   |   |   |   |   |   |   |   |   |   |   |   Ch141 > 0.31: non (26.0/3.0)
|   |   |   |   |   |   |   |   Ch112 > 7.41: dup (9.0)
|   |   |   |   |   |   |   Ch192 > 1.89
|   |   |   |   |   |   |   |   comp <= 0
|   |   |   |   |   |   |   |   |   Ch22 <= 7.56
|   |   |   |   |   |   |   |   |   |   Ch131 <= 5.47
|   |   |   |   |   |   |   |   |   |   |   Ch111 <= 8.67
|   |   |   |   |   |   |   |   |   |   |   |   Ch181 <= 8.41
|   |   |   |   |   |   |   |   |   |   |   |   |   Ch121 <= 6.47
|   |   |   |   |   |   |   |   |   |   |   |   |   |   Ch131 <= 4.2
|   |   |   |   |   |   |   |   |   |   |   |   |   |   |   Ch72 <= 6.73
|   |   |   |   |   |   |   |   |   |   |   |   |   |   |   |   Ch31 <= 5.65
|   |   |   |   |   |   |   |   |   |   |   |   |   |   |   |   |   Ch162 <= 4.49
|   |   |   |   |   |   |   |   |   |   |   |   |   |   |   |   |   |   bmfb <= 9.18: dup (11.0)
|   |   |   |   |   |   |   |   |   |   |   |   |   |   |   |   |   |   bmfb > 9.18
|   |   |   |   |   |   |   |   |   |   |   |   |   |   |   |   |   |   |   Ch121 <= 2.27: non (3.0)
|   |   |   |   |   |   |   |   |   |   |   |   |   |   |   |   |   |   |   Ch121 > 2.27: dup (4.0/1.0)
|   |   |   |   |   |   |   |   |   |   |   |   |   |   |   |   |   Ch162 > 4.49
|   |   |   |   |   |   |   |   |   |   |   |   |   |   |   |   |   |   Ch152 <= 5.9: non (16.0)
|   |   |   |   |   |   |   |   |   |   |   |   |   |   |   |   |   |   Ch152 > 5.9: dup (3.0)
|   |   |   |   |   |   |   |   |   |   |   |   |   |   |   |   Ch31 > 5.65: dup (8.0)
|   |   |   |   |   |   |   |   |   |   |   |   |   |   |   Ch72 > 6.73: dup (14.0)
|   |   |   |   |   |   |   |   |   |   |   |   |   |   Ch131 > 4.2
|   |   |   |   |   |   |   |   |   |   |   |   |   |   |   Ch21 <= 3.37: non (14.0)
|   |   |   |   |   |   |   |   |   |   |   |   |   |   |   Ch21 > 3.37: dup (2.0)
|   |   |   |   |   |   |   |   |   |   |   |   |   Ch121 > 6.47: non (17.0/1.0)
|   |   |   |   |   |   |   |   |   |   |   |   Ch181 > 8.41: dup (14.0/1.0)
|   |   |   |   |   |   |   |   |   |   |   Ch111 > 8.67
|   |   |   |   |   |   |   |   |   |   |   |   Ch91 <= 7.88
|   |   |   |   |   |   |   |   |   |   |   |   |   Ch91 <= 7.49: dup (3.0)
|   |   |   |   |   |   |   |   |   |   |   |   |   Ch91 > 7.49: non (2.0)
|   |   |   |   |   |   |   |   |   |   |   |   Ch91 > 7.88: dup (25.0)
|   |   |   |   |   |   |   |   |   |   Ch131 > 5.47
|   |   |   |   |   |   |   |   |   |   |   Ch21 <= 4.8
|   |   |   |   |   |   |   |   |   |   |   |   Ch151 <= 4.04
|   |   |   |   |   |   |   |   |   |   |   |   |   Ch141 <= 3.6: non (5.0)
|   |   |   |   |   |   |   |   |   |   |   |   |   Ch141 > 3.6: dup (4.0/1.0)
|   |   |   |   |   |   |   |   |   |   |   |   Ch151 > 4.04: non (21.0)
|   |   |   |   |   |   |   |   |   |   |   Ch21 > 4.8
|   |   |   |   |   |   |   |   |   |   |   |   Ch171 <= 7.02: dup (8.0)
|   |   |   |   |   |   |   |   |   |   |   |   Ch171 > 7.02
|   |   |   |   |   |   |   |   |   |   |   |   |   Ch102 <= 11.98
|   |   |   |   |   |   |   |   |   |   |   |   |   |   Ch122 <= 3.78: dup (5.0)
|   |   |   |   |   |   |   |   |   |   |   |   |   |   Ch122 > 3.78
|   |   |   |   |   |   |   |   |   |   |   |   |   |   |   Ch111 <= 12.98: non (17.0)
|   |   |   |   |   |   |   |   |   |   |   |   |   |   |   Ch111 > 12.98
|   |   |   |   |   |   |   |   |   |   |   |   |   |   |   |   Ch122 <= 9.02: dup (4.0/1.0)
|   |   |   |   |   |   |   |   |   |   |   |   |   |   |   |   Ch122 > 9.02: non (5.0)
|   |   |   |   |   |   |   |   |   |   |   |   |   Ch102 > 11.98: dup (3.0)
|   |   |   |   |   |   |   |   |   Ch22 > 7.56: dup (18.0)
|   |   |   |   |   |   |   |   comp > 0
|   |   |   |   |   |   |   |   |   prior <= 0.5
|   |   |   |   |   |   |   |   |   |   Ch102 <= 10.4
|   |   |   |   |   |   |   |   |   |   |   Ch171 <= 3.07
|   |   |   |   |   |   |   |   |   |   |   |   prior <= 0.33: dup (6.0/1.0)
|   |   |   |   |   |   |   |   |   |   |   |   prior > 0.33: non (5.0/1.0)
|   |   |   |   |   |   |   |   |   |   |   Ch171 > 3.07: dup (33.0)
|   |   |   |   |   |   |   |   |   |   Ch102 > 10.4
|   |   |   |   |   |   |   |   |   |   |   Ch42 <= 15.43: non (9.0/1.0)
|   |   |   |   |   |   |   |   |   |   |   Ch42 > 15.43: dup (5.0)
|   |   |   |   |   |   |   |   |   prior > 0.5
|   |   |   |   |   |   |   |   |   |   Ch132 <= 2.67
|   |   |   |   |   |   |   |   |   |   |   Ch161 <= 4.52
|   |   |   |   |   |   |   |   |   |   |   |   Ch42 <= 3.28: non (6.0/1.0)
|   |   |   |   |   |   |   |   |   |   |   |   Ch42 > 3.28
|   |   |   |   |   |   |   |   |   |   |   |   |   Ch62 <= 0.84
|   |   |   |   |   |   |   |   |   |   |   |   |   |   Ch151 <= 0.66: non (2.0)
|   |   |   |   |   |   |   |   |   |   |   |   |   |   Ch151 > 0.66: dup (3.0)
|   |   |   |   |   |   |   |   |   |   |   |   |   Ch62 > 0.84: dup (73.0)
|   |   |   |   |   |   |   |   |   |   |   Ch161 > 4.52
|   |   |   |   |   |   |   |   |   |   |   |   Ch81 <= 3.98
|   |   |   |   |   |   |   |   |   |   |   |   |   Ch22 <= 1.44: dup (3.0/1.0)
|   |   |   |   |   |   |   |   |   |   |   |   |   Ch22 > 1.44: non (13.0)
|   |   |   |   |   |   |   |   |   |   |   |   Ch81 > 3.98: dup (82.0/16.0)
|   |   |   |   |   |   |   |   |   |   Ch132 > 2.67
|   |   |   |   |   |   |   |   |   |   |   Ch82 <= 4.08
|   |   |   |   |   |   |   |   |   |   |   |   Ch61 <= 1.9
|   |   |   |   |   |   |   |   |   |   |   |   |   Ch61 <= 0.95
|   |   |   |   |   |   |   |   |   |   |   |   |   |   Ch52 <= 8.29: dup (3.0)
|   |   |   |   |   |   |   |   |   |   |   |   |   |   Ch52 > 8.29: non (4.0)
|   |   |   |   |   |   |   |   |   |   |   |   |   Ch61 > 0.95: non (22.0)
|   |   |   |   |   |   |   |   |   |   |   |   Ch61 > 1.9
|   |   |   |   |   |   |   |   |   |   |   |   |   Ch132 <= 4.72
|   |   |   |   |   |   |   |   |   |   |   |   |   |   Ch102 <= 2.9: non (4.0)
|   |   |   |   |   |   |   |   |   |   |   |   |   |   Ch102 > 2.9: dup (18.0/1.0)
|   |   |   |   |   |   |   |   |   |   |   |   |   Ch132 > 4.72: non (4.0)
|   |   |   |   |   |   |   |   |   |   |   Ch82 > 4.08
|   |   |   |   |   |   |   |   |   |   |   |   Ch132 <= 9.11
|   |   |   |   |   |   |   |   |   |   |   |   |   Ch132 <= 7.48
|   |   |   |   |   |   |   |   |   |   |   |   |   |   Ch72 <= 5.97
|   |   |   |   |   |   |   |   |   |   |   |   |   |   |   Ch141 <= 7.78
|   |   |   |   |   |   |   |   |   |   |   |   |   |   |   |   Ch122 <= 4.79
|   |   |   |   |   |   |   |   |   |   |   |   |   |   |   |   |   cosine_similarity <= 0.967
|   |   |   |   |   |   |   |   |   |   |   |   |   |   |   |   |   |   cosine_similarity <= 0.914: non (3.0)
|   |   |   |   |   |   |   |   |   |   |   |   |   |   |   |   |   |   cosine_similarity > 0.914
|   |   |   |   |   |   |   |   |   |   |   |   |   |   |   |   |   |   |   bmfu <= 12.11
|   |   |   |   |   |   |   |   |   |   |   |   |   |   |   |   |   |   |   |   Ch52 <= 7.93: non (3.0/1.0)
|   |   |   |   |   |   |   |   |   |   |   |   |   |   |   |   |   |   |   |   Ch52 > 7.93: dup (17.0)
|   |   |   |   |   |   |   |   |   |   |   |   |   |   |   |   |   |   |   bmfu > 12.11: non (2.0)
|   |   |   |   |   |   |   |   |   |   |   |   |   |   |   |   |   cosine_similarity > 0.967: non (4.0)
|   |   |   |   |   |   |   |   |   |   |   |   |   |   |   |   Ch122 > 4.79: dup (82.0/6.0)
|   |   |   |   |   |   |   |   |   |   |   |   |   |   |   Ch141 > 7.78
|   |   |   |   |   |   |   |   |   |   |   |   |   |   |   |   Ch191 <= 5.98: non (8.0)
|   |   |   |   |   |   |   |   |   |   |   |   |   |   |   |   Ch191 > 5.98: dup (7.0/1.0)
|   |   |   |   |   |   |   |   |   |   |   |   |   |   Ch72 > 5.97
|   |   |   |   |   |   |   |   |   |   |   |   |   |   |   Ch101 <= 2.14: non (11.0/1.0)
|   |   |   |   |   |   |   |   |   |   |   |   |   |   |   Ch101 > 2.14
|   |   |   |   |   |   |   |   |   |   |   |   |   |   |   |   Ch142 <= 3.51
|   |   |   |   |   |   |   |   |   |   |   |   |   |   |   |   |   Ch41 <= 14.65
|   |   |   |   |   |   |   |   |   |   |   |   |   |   |   |   |   |   Ch151 <= 1.19: dup (3.0)
|   |   |   |   |   |   |   |   |   |   |   |   |   |   |   |   |   |   Ch151 > 1.19
|   |   |   |   |   |   |   |   |   |   |   |   |   |   |   |   |   |   |   Ch71 <= 5.31: non (15.0)
|   |   |   |   |   |   |   |   |   |   |   |   |   |   |   |   |   |   |   Ch71 > 5.31
|   |   |   |   |   |   |   |   |   |   |   |   |   |   |   |   |   |   |   |   Ch171 <= 7.37
|   |   |   |   |   |   |   |   |   |   |   |   |   |   |   |   |   |   |   |   |   Ch131 <= 2.09: non (3.0)
|   |   |   |   |   |   |   |   |   |   |   |   |   |   |   |   |   |   |   |   |   Ch131 > 2.09: dup (7.0)
|   |   |   |   |   |   |   |   |   |   |   |   |   |   |   |   |   |   |   |   Ch171 > 7.37: non (12.0)
|   |   |   |   |   |   |   |   |   |   |   |   |   |   |   |   |   Ch41 > 14.65: dup (9.0)
|   |   |   |   |   |   |   |   |   |   |   |   |   |   |   |   Ch142 > 3.51
|   |   |   |   |   |   |   |   |   |   |   |   |   |   |   |   |   Ch11 <= 11.66: dup (112.0/21.0)
|   |   |   |   |   |   |   |   |   |   |   |   |   |   |   |   |   Ch11 > 11.66
|   |   |   |   |   |   |   |   |   |   |   |   |   |   |   |   |   |   Ch51 <= 22.49: non (11.0/1.0)
|   |   |   |   |   |   |   |   |   |   |   |   |   |   |   |   |   |   Ch51 > 22.49: dup (3.0)
|   |   |   |   |   |   |   |   |   |   |   |   |   Ch132 > 7.48
|   |   |   |   |   |   |   |   |   |   |   |   |   |   Ch112 <= 11.69
|   |   |   |   |   |   |   |   |   |   |   |   |   |   |   Ch92 <= 6.94: dup (2.0)
|   |   |   |   |   |   |   |   |   |   |   |   |   |   |   Ch92 > 6.94: non (22.0/1.0)
|   |   |   |   |   |   |   |   |   |   |   |   |   |   Ch112 > 11.69
|   |   |   |   |   |   |   |   |   |   |   |   |   |   |   Ch131 <= 6.14
|   |   |   |   |   |   |   |   |   |   |   |   |   |   |   |   Ch171 <= 1.78: non (2.0)
|   |   |   |   |   |   |   |   |   |   |   |   |   |   |   |   Ch171 > 1.78: dup (14.0)
|   |   |   |   |   |   |   |   |   |   |   |   |   |   |   Ch131 > 6.14: non (3.0)
|   |   |   |   |   |   |   |   |   |   |   |   Ch132 > 9.11
|   |   |   |   |   |   |   |   |   |   |   |   |   Ch171 <= 11.1: dup (32.0/1.0)
|   |   |   |   |   |   |   |   |   |   |   |   |   Ch171 > 11.1: non (2.0)
|   |   |   |   |   Ch172 > 13.54
|   |   |   |   |   |   bmfb <= 10.45: dup (35.0)
|   |   |   |   |   |   bmfb > 10.45: non (2.0)
|   |   |   cosine_similarity > 0.971
|   |   |   |   Ch121 <= 1.29
|   |   |   |   |   Ch191 <= 1.55: non (22.0)
|   |   |   |   |   Ch191 > 1.55
|   |   |   |   |   |   bmfu <= 10.86: non (2.0)
|   |   |   |   |   |   bmfu > 10.86: dup (2.0)
|   |   |   |   Ch121 > 1.29
|   |   |   |   |   Ch191 <= 3.01
|   |   |   |   |   |   comp <= 0
|   |   |   |   |   |   |   prior <= 0.5: dup (4.0)
|   |   |   |   |   |   |   prior > 0.5
|   |   |   |   |   |   |   |   bmfb <= 58.38
|   |   |   |   |   |   |   |   |   Ch112 <= 6.21: non (24.0)
|   |   |   |   |   |   |   |   |   Ch112 > 6.21
|   |   |   |   |   |   |   |   |   |   Ch41 <= 8.38: dup (5.0)
|   |   |   |   |   |   |   |   |   |   Ch41 > 8.38
|   |   |   |   |   |   |   |   |   |   |   Ch191 <= 2.51: non (9.0)
|   |   |   |   |   |   |   |   |   |   |   Ch191 > 2.51: dup (3.0/1.0)
|   |   |   |   |   |   |   |   bmfb > 58.38: dup (4.0)
|   |   |   |   |   |   comp > 0
|   |   |   |   |   |   |   Ch171 <= 1.52
|   |   |   |   |   |   |   |   Ch131 <= 1.26
|   |   |   |   |   |   |   |   |   bmfu <= 14.11: non (2.0)
|   |   |   |   |   |   |   |   |   bmfu > 14.11: dup (2.0)
|   |   |   |   |   |   |   |   Ch131 > 1.26: dup (70.0)
|   |   |   |   |   |   |   Ch171 > 1.52
|   |   |   |   |   |   |   |   Ch91 <= 4.42
|   |   |   |   |   |   |   |   |   Ch41 <= 4: dup (7.0)
|   |   |   |   |   |   |   |   |   Ch41 > 4
|   |   |   |   |   |   |   |   |   |   type <= 0: dup (4.0/1.0)
|   |   |   |   |   |   |   |   |   |   type > 0
|   |   |   |   |   |   |   |   |   |   |   Ch61 <= 2.05
|   |   |   |   |   |   |   |   |   |   |   |   Ch101 <= 4.61: non (20.0)
|   |   |   |   |   |   |   |   |   |   |   |   Ch101 > 4.61
|   |   |   |   |   |   |   |   |   |   |   |   |   Ch61 <= 0.62: non (3.0)
|   |   |   |   |   |   |   |   |   |   |   |   |   Ch61 > 0.62: dup (2.0)
|   |   |   |   |   |   |   |   |   |   |   Ch61 > 2.05: dup (2.0)
|   |   |   |   |   |   |   |   Ch91 > 4.42
|   |   |   |   |   |   |   |   |   Ch91 <= 11.12
|   |   |   |   |   |   |   |   |   |   prior <= 0.5: dup (5.0)
|   |   |   |   |   |   |   |   |   |   prior > 0.5
|   |   |   |   |   |   |   |   |   |   |   Ch172 <= 6.98
|   |   |   |   |   |   |   |   |   |   |   |   Ch31 <= 8.14
|   |   |   |   |   |   |   |   |   |   |   |   |   Ch21 <= 2.22
|   |   |   |   |   |   |   |   |   |   |   |   |   |   Ch21 <= 1.8
|   |   |   |   |   |   |   |   |   |   |   |   |   |   |   Ch81 <= 5.14: dup (9.0)
|   |   |   |   |   |   |   |   |   |   |   |   |   |   |   Ch81 > 5.14
|   |   |   |   |   |   |   |   |   |   |   |   |   |   |   |   Ch11 <= 3.28: dup (2.0)
|   |   |   |   |   |   |   |   |   |   |   |   |   |   |   |   Ch11 > 3.28: non (2.0)
|   |   |   |   |   |   |   |   |   |   |   |   |   |   Ch21 > 1.8: non (7.0/1.0)
|   |   |   |   |   |   |   |   |   |   |   |   |   Ch21 > 2.22
|   |   |   |   |   |   |   |   |   |   |   |   |   |   Ch111 <= 7.78: dup (32.0)
|   |   |   |   |   |   |   |   |   |   |   |   |   |   Ch111 > 7.78: non (3.0/1.0)
|   |   |   |   |   |   |   |   |   |   |   |   Ch31 > 8.14: non (4.0)
|   |   |   |   |   |   |   |   |   |   |   Ch172 > 6.98: dup (26.0)
|   |   |   |   |   |   |   |   |   Ch91 > 11.12: non (6.0/1.0)
|   |   |   |   |   Ch191 > 3.01
|   |   |   |   |   |   Ch121 <= 7.82
|   |   |   |   |   |   |   bmfu <= 13.07
|   |   |   |   |   |   |   |   Ch82 <= 5.55
|   |   |   |   |   |   |   |   |   Ch22 <= 2.91
|   |   |   |   |   |   |   |   |   |   Ch92 <= 6.58: dup (28.0)
|   |   |   |   |   |   |   |   |   |   Ch92 > 6.58
|   |   |   |   |   |   |   |   |   |   |   Ch142 <= 2.85
|   |   |   |   |   |   |   |   |   |   |   |   Ch62 <= 1.39: dup (2.0)
|   |   |   |   |   |   |   |   |   |   |   |   Ch62 > 1.39: non (6.0/1.0)
|   |   |   |   |   |   |   |   |   |   |   Ch142 > 2.85: dup (13.0)
|   |   |   |   |   |   |   |   |   Ch22 > 2.91
|   |   |   |   |   |   |   |   |   |   Ch52 <= 12.95
|   |   |   |   |   |   |   |   |   |   |   Ch91 <= 10.34
|   |   |   |   |   |   |   |   |   |   |   |   Ch162 <= 3.79: dup (3.0)
|   |   |   |   |   |   |   |   |   |   |   |   Ch162 > 3.79: non (32.0/3.0)
|   |   |   |   |   |   |   |   |   |   |   Ch91 > 10.34: dup (4.0)
|   |   |   |   |   |   |   |   |   |   Ch52 > 12.95: dup (8.0)
|   |   |   |   |   |   |   |   Ch82 > 5.55
|   |   |   |   |   |   |   |   |   prior <= 0.5: dup (34.0)
|   |   |   |   |   |   |   |   |   prior > 0.5
|   |   |   |   |   |   |   |   |   |   Ch152 <= 4.01: dup (53.0)
|   |   |   |   |   |   |   |   |   |   Ch152 > 4.01
|   |   |   |   |   |   |   |   |   |   |   Ch12 <= 6.03
|   |   |   |   |   |   |   |   |   |   |   |   Ch132 <= 4.11: dup (5.0)
|   |   |   |   |   |   |   |   |   |   |   |   Ch132 > 4.11: non (11.0/1.0)
|   |   |   |   |   |   |   |   |   |   |   Ch12 > 6.03
|   |   |   |   |   |   |   |   |   |   |   |   cosine_similarity <= 0.976: dup (73.0/1.0)
|   |   |   |   |   |   |   |   |   |   |   |   cosine_similarity > 0.976
|   |   |   |   |   |   |   |   |   |   |   |   |   Ch151 <= 4.22: dup (32.0)
|   |   |   |   |   |   |   |   |   |   |   |   |   Ch151 > 4.22
|   |   |   |   |   |   |   |   |   |   |   |   |   |   Ch51 <= 17.44
|   |   |   |   |   |   |   |   |   |   |   |   |   |   |   Ch41 <= 11.6
|   |   |   |   |   |   |   |   |   |   |   |   |   |   |   |   type <= 0
|   |   |   |   |   |   |   |   |   |   |   |   |   |   |   |   |   Ch81 <= 5.34: non (2.0)
|   |   |   |   |   |   |   |   |   |   |   |   |   |   |   |   |   Ch81 > 5.34
|   |   |   |   |   |   |   |   |   |   |   |   |   |   |   |   |   |   Ch102 <= 11.87: dup (17.0)
|   |   |   |   |   |   |   |   |   |   |   |   |   |   |   |   |   |   Ch102 > 11.87: non (3.0/1.0)
|   |   |   |   |   |   |   |   |   |   |   |   |   |   |   |   type > 0: dup (30.0/2.0)
|   |   |   |   |   |   |   |   |   |   |   |   |   |   |   Ch41 > 11.6
|   |   |   |   |   |   |   |   |   |   |   |   |   |   |   |   Ch32 <= 14.07
|   |   |   |   |   |   |   |   |   |   |   |   |   |   |   |   |   Ch142 <= 4.47: dup (6.0/1.0)
|   |   |   |   |   |   |   |   |   |   |   |   |   |   |   |   |   Ch142 > 4.47
|   |   |   |   |   |   |   |   |   |   |   |   |   |   |   |   |   |   Ch112 <= 12.31: non (10.0)
|   |   |   |   |   |   |   |   |   |   |   |   |   |   |   |   |   |   Ch112 > 12.31
|   |   |   |   |   |   |   |   |   |   |   |   |   |   |   |   |   |   |   Ch61 <= 5.28: dup (5.0/1.0)
|   |   |   |   |   |   |   |   |   |   |   |   |   |   |   |   |   |   |   Ch61 > 5.28: non (4.0)
|   |   |   |   |   |   |   |   |   |   |   |   |   |   |   |   Ch32 > 14.07: dup (6.0)
|   |   |   |   |   |   |   |   |   |   |   |   |   |   Ch51 > 17.44: dup (22.0)
|   |   |   |   |   |   |   bmfu > 13.07
|   |   |   |   |   |   |   |   Ch161 <= 2.29
|   |   |   |   |   |   |   |   |   Ch151 <= 1.12: non (10.0)
|   |   |   |   |   |   |   |   |   Ch151 > 1.12: dup (16.0)
|   |   |   |   |   |   |   |   Ch161 > 2.29
|   |   |   |   |   |   |   |   |   type <= 0: dup (313.0/2.0)
|   |   |   |   |   |   |   |   |   type > 0
|   |   |   |   |   |   |   |   |   |   Ch151 <= 0.55
|   |   |   |   |   |   |   |   |   |   |   Ch81 <= 3.59: dup (27.0)
|   |   |   |   |   |   |   |   |   |   |   Ch81 > 3.59: non (10.0/1.0)
|   |   |   |   |   |   |   |   |   |   Ch151 > 0.55
|   |   |   |   |   |   |   |   |   |   |   Ch161 <= 6.26
|   |   |   |   |   |   |   |   |   |   |   |   Ch122 <= 5.65
|   |   |   |   |   |   |   |   |   |   |   |   |   Ch122 <= 4.86: dup (180.0/6.0)
|   |   |   |   |   |   |   |   |   |   |   |   |   Ch122 > 4.86
|   |   |   |   |   |   |   |   |   |   |   |   |   |   Ch21 <= 1.48: non (5.0)
|   |   |   |   |   |   |   |   |   |   |   |   |   |   Ch21 > 1.48: dup (29.0)
|   |   |   |   |   |   |   |   |   |   |   |   Ch122 > 5.65: dup (341.0)
|   |   |   |   |   |   |   |   |   |   |   Ch161 > 6.26
|   |   |   |   |   |   |   |   |   |   |   |   Ch151 <= 4.24
|   |   |   |   |   |   |   |   |   |   |   |   |   bmfb <= 39.22
|   |   |   |   |   |   |   |   |   |   |   |   |   |   comp <= 0
|   |   |   |   |   |   |   |   |   |   |   |   |   |   |   Ch81 <= 4.82: dup (2.0)
|   |   |   |   |   |   |   |   |   |   |   |   |   |   |   Ch81 > 4.82: non (9.0)
|   |   |   |   |   |   |   |   |   |   |   |   |   |   comp > 0
|   |   |   |   |   |   |   |   |   |   |   |   |   |   |   Ch12 <= 4.37: non (7.0/1.0)
|   |   |   |   |   |   |   |   |   |   |   |   |   |   |   Ch12 > 4.37
|   |   |   |   |   |   |   |   |   |   |   |   |   |   |   |   Ch21 <= 3.8: dup (11.0)
|   |   |   |   |   |   |   |   |   |   |   |   |   |   |   |   Ch21 > 3.8: non (5.0/1.0)
|   |   |   |   |   |   |   |   |   |   |   |   |   bmfb > 39.22
|   |   |   |   |   |   |   |   |   |   |   |   |   |   Ch152 <= 4.84: dup (24.0)
|   |   |   |   |   |   |   |   |   |   |   |   |   |   Ch152 > 4.84: non (3.0/1.0)
|   |   |   |   |   |   |   |   |   |   |   |   Ch151 > 4.24
|   |   |   |   |   |   |   |   |   |   |   |   |   Ch172 <= 4.36
|   |   |   |   |   |   |   |   |   |   |   |   |   |   Ch62 <= 2: non (3.0)
|   |   |   |   |   |   |   |   |   |   |   |   |   |   Ch62 > 2: dup (9.0/1.0)
|   |   |   |   |   |   |   |   |   |   |   |   |   Ch172 > 4.36: dup (205.0/3.0)
|   |   |   |   |   |   Ch121 > 7.82
|   |   |   |   |   |   |   bmfu <= 3.88
|   |   |   |   |   |   |   |   prior <= 0.5: non (5.0)
|   |   |   |   |   |   |   |   prior > 0.5
|   |   |   |   |   |   |   |   |   Ch41 <= 12.44: dup (6.0)
|   |   |   |   |   |   |   |   |   Ch41 > 12.44
|   |   |   |   |   |   |   |   |   |   Ch142 <= 4.46: dup (8.0/1.0)
|   |   |   |   |   |   |   |   |   |   Ch142 > 4.46
|   |   |   |   |   |   |   |   |   |   |   Ch31 <= 11.24: non (9.0)
|   |   |   |   |   |   |   |   |   |   |   Ch31 > 11.24
|   |   |   |   |   |   |   |   |   |   |   |   Ch152 <= 6.76: non (7.0/1.0)
|   |   |   |   |   |   |   |   |   |   |   |   Ch152 > 6.76: dup (3.0)
|   |   |   |   |   |   |   bmfu > 3.88
|   |   |   |   |   |   |   |   cosine_similarity <= 0.999
|   |   |   |   |   |   |   |   |   Ch72 <= 14.96
|   |   |   |   |   |   |   |   |   |   comp <= 0
|   |   |   |   |   |   |   |   |   |   |   Ch191 <= 5.48
|   |   |   |   |   |   |   |   |   |   |   |   bmfu <= 18.82
|   |   |   |   |   |   |   |   |   |   |   |   |   Ch161 <= 6.29: dup (3.0)
|   |   |   |   |   |   |   |   |   |   |   |   |   Ch161 > 6.29
|   |   |   |   |   |   |   |   |   |   |   |   |   |   Ch112 <= 12.89: non (23.0)
|   |   |   |   |   |   |   |   |   |   |   |   |   |   Ch112 > 12.89: dup (3.0/1.0)
|   |   |   |   |   |   |   |   |   |   |   |   bmfu > 18.82: dup (8.0)
|   |   |   |   |   |   |   |   |   |   |   Ch191 > 5.48
|   |   |   |   |   |   |   |   |   |   |   |   Ch121 <= 12.98
|   |   |   |   |   |   |   |   |   |   |   |   |   Ch21 <= 5.27
|   |   |   |   |   |   |   |   |   |   |   |   |   |   bmfu <= 18.23
|   |   |   |   |   |   |   |   |   |   |   |   |   |   |   Ch112 <= 13.64
|   |   |   |   |   |   |   |   |   |   |   |   |   |   |   |   type <= 0
|   |   |   |   |   |   |   |   |   |   |   |   |   |   |   |   |   Ch121 <= 10.22: dup (5.0)
|   |   |   |   |   |   |   |   |   |   |   |   |   |   |   |   |   Ch121 > 10.22: non (8.0/1.0)
|   |   |   |   |   |   |   |   |   |   |   |   |   |   |   |   type > 0: non (11.0/1.0)
|   |   |   |   |   |   |   |   |   |   |   |   |   |   |   Ch112 > 13.64: dup (4.0)
|   |   |   |   |   |   |   |   |   |   |   |   |   |   bmfu > 18.23: dup (19.0)
|   |   |   |   |   |   |   |   |   |   |   |   |   Ch21 > 5.27
|   |   |   |   |   |   |   |   |   |   |   |   |   |   Ch131 <= 11.25: dup (88.0/1.0)
|   |   |   |   |   |   |   |   |   |   |   |   |   |   Ch131 > 11.25
|   |   |   |   |   |   |   |   |   |   |   |   |   |   |   bmfb <= 1.69: non (3.0)
|   |   |   |   |   |   |   |   |   |   |   |   |   |   |   bmfb > 1.69: dup (4.0)
|   |   |   |   |   |   |   |   |   |   |   |   Ch121 > 12.98
|   |   |   |   |   |   |   |   |   |   |   |   |   Ch111 <= 17.71
|   |   |   |   |   |   |   |   |   |   |   |   |   |   Ch172 <= 12.02
|   |   |   |   |   |   |   |   |   |   |   |   |   |   |   Ch122 <= 9.57
|   |   |   |   |   |   |   |   |   |   |   |   |   |   |   |   bmfu <= 6.93: non (4.0)
|   |   |   |   |   |   |   |   |   |   |   |   |   |   |   |   bmfu > 6.93: dup (2.0)
|   |   |   |   |   |   |   |   |   |   |   |   |   |   |   Ch122 > 9.57: non (17.0)
|   |   |   |   |   |   |   |   |   |   |   |   |   |   Ch172 > 12.02: dup (3.0)
|   |   |   |   |   |   |   |   |   |   |   |   |   Ch111 > 17.71: dup (11.0)
|   |   |   |   |   |   |   |   |   |   comp > 0
|   |   |   |   |   |   |   |   |   |   |   prior <= 0.5
|   |   |   |   |   |   |   |   |   |   |   |   Ch22 <= 7.17
|   |   |   |   |   |   |   |   |   |   |   |   |   type <= 0: dup (19.0)
|   |   |   |   |   |   |   |   |   |   |   |   |   type > 0
|   |   |   |   |   |   |   |   |   |   |   |   |   |   bmfb <= 6.74: dup (10.0)
|   |   |   |   |   |   |   |   |   |   |   |   |   |   bmfb > 6.74
|   |   |   |   |   |   |   |   |   |   |   |   |   |   |   Ch81 <= 7.56: dup (3.0)
|   |   |   |   |   |   |   |   |   |   |   |   |   |   |   Ch81 > 7.56: non (5.0)
|   |   |   |   |   |   |   |   |   |   |   |   Ch22 > 7.17: non (11.0/1.0)
|   |   |   |   |   |   |   |   |   |   |   prior > 0.5
|   |   |   |   |   |   |   |   |   |   |   |   Ch82 <= 3.85: dup (40.0)
|   |   |   |   |   |   |   |   |   |   |   |   Ch82 > 3.85
|   |   |   |   |   |   |   |   |   |   |   |   |   Ch181 <= 15.15
|   |   |   |   |   |   |   |   |   |   |   |   |   |   Ch131 <= 10.06
|   |   |   |   |   |   |   |   |   |   |   |   |   |   |   type <= 0: dup (156.0/21.0)
|   |   |   |   |   |   |   |   |   |   |   |   |   |   |   type > 0
|   |   |   |   |   |   |   |   |   |   |   |   |   |   |   |   Ch21 <= 3.32
|   |   |   |   |   |   |   |   |   |   |   |   |   |   |   |   |   Ch171 <= 3.45
|   |   |   |   |   |   |   |   |   |   |   |   |   |   |   |   |   |   Ch71 <= 6.24: dup (4.0)
|   |   |   |   |   |   |   |   |   |   |   |   |   |   |   |   |   |   Ch71 > 6.24: non (2.0)
|   |   |   |   |   |   |   |   |   |   |   |   |   |   |   |   |   Ch171 > 3.45: dup (49.0)
|   |   |   |   |   |   |   |   |   |   |   |   |   |   |   |   Ch21 > 3.32
|   |   |   |   |   |   |   |   |   |   |   |   |   |   |   |   |   Ch171 <= 5.53
|   |   |   |   |   |   |   |   |   |   |   |   |   |   |   |   |   |   bmfb <= 5.82: dup (3.0)
|   |   |   |   |   |   |   |   |   |   |   |   |   |   |   |   |   |   bmfb > 5.82
|   |   |   |   |   |   |   |   |   |   |   |   |   |   |   |   |   |   |   Ch71 <= 8.95: non (14.0/1.0)
|   |   |   |   |   |   |   |   |   |   |   |   |   |   |   |   |   |   |   Ch71 > 8.95: dup (2.0)
|   |   |   |   |   |   |   |   |   |   |   |   |   |   |   |   |   Ch171 > 5.53
|   |   |   |   |   |   |   |   |   |   |   |   |   |   |   |   |   |   Ch42 <= 20.06
|   |   |   |   |   |   |   |   |   |   |   |   |   |   |   |   |   |   |   bmfu <= 38.53
|   |   |   |   |   |   |   |   |   |   |   |   |   |   |   |   |   |   |   |   Ch122 <= 11.21
|   |   |   |   |   |   |   |   |   |   |   |   |   |   |   |   |   |   |   |   |   cosine_similarity <= 0.99
|   |   |   |   |   |   |   |   |   |   |   |   |   |   |   |   |   |   |   |   |   |   Ch132 <= 4.78
|   |   |   |   |   |   |   |   |   |   |   |   |   |   |   |   |   |   |   |   |   |   |   Ch72 <= 7.71
|   |   |   |   |   |   |   |   |   |   |   |   |   |   |   |   |   |   |   |   |   |   |   |   Ch11 <= 9.53: dup (14.0)
|   |   |   |   |   |   |   |   |   |   |   |   |   |   |   |   |   |   |   |   |   |   |   |   Ch11 > 9.53
|   |   |   |   |   |   |   |   |   |   |   |   |   |   |   |   |   |   |   |   |   |   |   |   |   cosine_similarity <= 0.975: non (3.0)
|   |   |   |   |   |   |   |   |   |   |   |   |   |   |   |   |   |   |   |   |   |   |   |   |   cosine_similarity > 0.975: dup (4.0/1.0)
|   |   |   |   |   |   |   |   |   |   |   |   |   |   |   |   |   |   |   |   |   |   |   Ch72 > 7.71: non (5.0)
|   |   |   |   |   |   |   |   |   |   |   |   |   |   |   |   |   |   |   |   |   |   Ch132 > 4.78: dup (73.0/5.0)
|   |   |   |   |   |   |   |   |   |   |   |   |   |   |   |   |   |   |   |   |   cosine_similarity > 0.99
|   |   |   |   |   |   |   |   |   |   |   |   |   |   |   |   |   |   |   |   |   |   Ch161 <= 7.94: non (5.0)
|   |   |   |   |   |   |   |   |   |   |   |   |   |   |   |   |   |   |   |   |   |   Ch161 > 7.94
|   |   |   |   |   |   |   |   |   |   |   |   |   |   |   |   |   |   |   |   |   |   |   cosine_similarity <= 0.991
|   |   |   |   |   |   |   |   |   |   |   |   |   |   |   |   |   |   |   |   |   |   |   |   Ch121 <= 11.32: non (5.0)
|   |   |   |   |   |   |   |   |   |   |   |   |   |   |   |   |   |   |   |   |   |   |   |   Ch121 > 11.32: dup (2.0)
|   |   |   |   |   |   |   |   |   |   |   |   |   |   |   |   |   |   |   |   |   |   |   cosine_similarity > 0.991
|   |   |   |   |   |   |   |   |   |   |   |   |   |   |   |   |   |   |   |   |   |   |   |   Ch122 <= 10.59: dup (21.0)
|   |   |   |   |   |   |   |   |   |   |   |   |   |   |   |   |   |   |   |   |   |   |   |   Ch122 > 10.59: non (2.0)
|   |   |   |   |   |   |   |   |   |   |   |   |   |   |   |   |   |   |   |   Ch122 > 11.21
|   |   |   |   |   |   |   |   |   |   |   |   |   |   |   |   |   |   |   |   |   Ch181 <= 13.57
|   |   |   |   |   |   |   |   |   |   |   |   |   |   |   |   |   |   |   |   |   |   Ch141 <= 5.65: dup (6.0)
|   |   |   |   |   |   |   |   |   |   |   |   |   |   |   |   |   |   |   |   |   |   Ch141 > 5.65
|   |   |   |   |   |   |   |   |   |   |   |   |   |   |   |   |   |   |   |   |   |   |   Ch172 <= 14
|   |   |   |   |   |   |   |   |   |   |   |   |   |   |   |   |   |   |   |   |   |   |   |   cosine_similarity <= 0.996
|   |   |   |   |   |   |   |   |   |   |   |   |   |   |   |   |   |   |   |   |   |   |   |   |   Ch92 <= 10.56: dup (2.0)
|   |   |   |   |   |   |   |   |   |   |   |   |   |   |   |   |   |   |   |   |   |   |   |   |   Ch92 > 10.56: non (23.0/1.0)
|   |   |   |   |   |   |   |   |   |   |   |   |   |   |   |   |   |   |   |   |   |   |   |   cosine_similarity > 0.996: dup (2.0)
|   |   |   |   |   |   |   |   |   |   |   |   |   |   |   |   |   |   |   |   |   |   |   Ch172 > 14: dup (4.0)
|   |   |   |   |   |   |   |   |   |   |   |   |   |   |   |   |   |   |   |   |   Ch181 > 13.57: dup (10.0)
|   |   |   |   |   |   |   |   |   |   |   |   |   |   |   |   |   |   |   bmfu > 38.53: dup (21.0)
|   |   |   |   |   |   |   |   |   |   |   |   |   |   |   |   |   |   Ch42 > 20.06: dup (22.0)
|   |   |   |   |   |   |   |   |   |   |   |   |   |   Ch131 > 10.06
|   |   |   |   |   |   |   |   |   |   |   |   |   |   |   Ch161 <= 9.84: non (13.0/1.0)
|   |   |   |   |   |   |   |   |   |   |   |   |   |   |   Ch161 > 9.84
|   |   |   |   |   |   |   |   |   |   |   |   |   |   |   |   Ch162 <= 14.26
|   |   |   |   |   |   |   |   |   |   |   |   |   |   |   |   |   Ch92 <= 7.78: non (6.0/1.0)
|   |   |   |   |   |   |   |   |   |   |   |   |   |   |   |   |   Ch92 > 7.78: dup (26.0/1.0)
|   |   |   |   |   |   |   |   |   |   |   |   |   |   |   |   Ch162 > 14.26
|   |   |   |   |   |   |   |   |   |   |   |   |   |   |   |   |   cosine_similarity <= 0.987: non (8.0)
|   |   |   |   |   |   |   |   |   |   |   |   |   |   |   |   |   cosine_similarity > 0.987: dup (2.0)
|   |   |   |   |   |   |   |   |   |   |   |   |   Ch181 > 15.15
|   |   |   |   |   |   |   |   |   |   |   |   |   |   Ch62 <= 3.97
|   |   |   |   |   |   |   |   |   |   |   |   |   |   |   Ch131 <= 12.6
|   |   |   |   |   |   |   |   |   |   |   |   |   |   |   |   Ch21 <= 5.94
|   |   |   |   |   |   |   |   |   |   |   |   |   |   |   |   |   bmfb <= 8.26: dup (3.0)
|   |   |   |   |   |   |   |   |   |   |   |   |   |   |   |   |   bmfb > 8.26: non (4.0)
|   |   |   |   |   |   |   |   |   |   |   |   |   |   |   |   Ch21 > 5.94: dup (22.0)
|   |   |   |   |   |   |   |   |   |   |   |   |   |   |   Ch131 > 12.6: non (3.0)
|   |   |   |   |   |   |   |   |   |   |   |   |   |   Ch62 > 3.97: dup (120.0/3.0)
|   |   |   |   |   |   |   |   |   Ch72 > 14.96: dup (108.0/5.0)
|   |   |   |   |   |   |   |   cosine_similarity > 0.999: dup (90.0/3.0)

Number of Leaves  : 	601

Size of the tree : 	1201


Time taken to build model: 7.76 seconds
Time taken to test model on training data: 0.48 seconds

=== Error on training data ===

Correctly Classified Instances       27305               98.6452 %
Incorrectly Classified Instances       375                1.3548 %
Kappa statistic                          0.9576
Mean absolute error                      0.0244
Root mean squared error                  0.1105
Relative absolute error                  7.6331 %
Root relative squared error             27.6287 %
Total Number of Instances            27680     


=== Confusion Matrix ===

     a     b   <-- classified as
  5331   205 |     a = dup
   170 21974 |     b = non



=== Stratified cross-validation ===

Correctly Classified Instances       25704               92.8613 %
Incorrectly Classified Instances      1976                7.1387 %
Kappa statistic                          0.7757
Mean absolute error                      0.0789
Root mean squared error                  0.2574
Relative absolute error                 24.6629 %
Root relative squared error             64.3401 %
Total Number of Instances            27680     


=== Confusion Matrix ===

     a     b   <-- classified as
  4509  1027 |     a = dup
   949 21195 |     b = non

